%!PS-Adobe-3.0 EPSF-3.0
%%Title: omn_figures/flux_levels.eps
%%Creator: matplotlib version 0.99.3, http://matplotlib.sourceforge.net/
%%CreationDate: Tue Jan 24 11:16:31 2012
%%Orientation: portrait
%%BoundingBox: 18 180 594 612
%%EndComments
%%BeginProlog
/mpldict 10 dict def
mpldict begin
/m { moveto } bind def
/l { lineto } bind def
/r { rlineto } bind def
/c { curveto } bind def
/cl { closepath } bind def
/box {
m
1 index 0 r
0 exch r
neg 0 r
cl
} bind def
/clipbox {
box
clip
newpath
} bind def
%!PS-Adobe-3.0 Resource-Font
%%Title: cmr10
%%Copyright: Copyright (C) 1994, Basil K. Malyshev. All Rights Reserved.012BaKoMa Fonts Collection, Level-B.
%%Creator: Converted from TrueType by PPR
25 dict begin
/_d{bind def}bind def
/_m{moveto}_d
/_l{lineto}_d
/_cl{closepath eofill}_d
/_c{curveto}_d
/_sc{7 -1 roll{setcachedevice}{pop pop pop pop pop pop}ifelse}_d
/_e{exec}_d
/FontName /Cmr10 def
/PaintType 0 def
/FontMatrix[.001 0 0 .001 0 0]def
/FontBBox[-43 -249 1009 750]def
/FontType 3 def
/Encoding StandardEncoding def
/FontInfo 10 dict dup begin
/FamilyName (cmr10) def
/FullName (cmr10) def
/Notice (Copyright (C) 1994, Basil K. Malyshev. All Rights Reserved.012BaKoMa Fonts Collection, Level-B. ) def
/Weight (Regular) def
/Version (1.1/12-Nov-94) def
/ItalicAngle 0.0 def
/isFixedPitch false def
/UnderlinePosition -133 def
/UnderlineThickness 20 def
end readonly def
/CharStrings 1 dict dup begin
/Gamma{625 0 31 0 582 683 _sc
31 0 _m
31 35 _l
99 35 134 45 134 67 _c
134 616 _l
134 637 99 648 31 648 _c
31 683 _l
554 683 _l
582 454 _l
553 454 _l
548 496 542 529 536 552 _c
530 575 520 594 507 608 _c
494 622 476 632 452 638 _c
428 644 396 648 355 648 _c
278 648 _l
266 648 256 647 250 646 _c
243 645 237 642 233 638 _c
229 633 227 626 227 616 _c
227 67 _l
227 45 269 35 355 35 _c
355 0 _l
31 0 _l
_cl}_d
end readonly def

/BuildGlyph
 {exch begin
 CharStrings exch
 2 copy known not{pop /.notdef}if
 true 3 1 roll get exec
 end}_d

/BuildChar {
 1 index /Encoding get exch get
 1 index /BuildGlyph get exec
}_d

FontName currentdict end definefont pop
%!PS-Adobe-3.0 Resource-Font
%%Title: cmmi10
%%Copyright: Copyright (C) 1994, Basil K. Malyshev. All Rights Reserved.012BaKoMa Fonts Collection, Level-B.
%%Creator: Converted from TrueType by PPR
25 dict begin
/_d{bind def}bind def
/_m{moveto}_d
/_l{lineto}_d
/_cl{closepath eofill}_d
/_c{curveto}_d
/_sc{7 -1 roll{setcachedevice}{pop pop pop pop pop pop}ifelse}_d
/_e{exec}_d
/FontName /Cmmi10 def
/PaintType 0 def
/FontMatrix[.001 0 0 .001 0 0]def
/FontBBox[-33 -249 1048 750]def
/FontType 3 def
/Encoding StandardEncoding def
/FontInfo 10 dict dup begin
/FamilyName (cmmi10) def
/FullName (cmmi10) def
/Notice (Copyright (C) 1994, Basil K. Malyshev. All Rights Reserved.012BaKoMa Fonts Collection, Level-B. ) def
/Weight (Regular) def
/Version (1.1/12-Nov-94) def
/ItalicAngle 0.0 def
/isFixedPitch false def
/UnderlinePosition -133 def
/UnderlineThickness 20 def
end readonly def
/CharStrings 6 dict dup begin
/e{{465 0 44 -10 430 442 _sc
201 -10 _m
169 -10 141 -2 117 14 _c
93 30 75 53 63 81 _c
50 109 44 138 44 170 _c
44 217 56 262 80 304 _c
104 346 136 379 177 404 _c
218 429 262 442 309 442 _c
337 442 362 434 384 419 _c
405 404 416 383 416 356 _c
416 317 400 288 370 270 _c
339 251 304 239 266 235 _c
228 231 185 229 139 229 _c
136 229 _l
125 189 120 155 120 127 _c
120 97 126 71 140 49 _c
154 26 175 15 203 15 _c
243 15 281 24 318 42 _c
354 60 384 86 407 118 _c
409 120 411 121 415 121 _c
418 121 421 119 425 115 _c
428 111 430 108 430 105 _c
430 102 429 100 428 99 _c
404 65 371 38 330 19 _c
288 0 245 -10 201 -10 _c
142 255 _m
}_e{180 255 216 256 249 260 _c
282 264 312 273 339 287 _c
365 301 379 324 379 355 _c
379 367 375 378 368 387 _c
361 396 352 403 342 408 _c
331 413 320 416 308 416 _c
280 416 254 408 232 393 _c
209 377 190 357 176 333 _c
161 308 150 282 142 255 _c
_cl}_e}_d
/L{{680 0 37 0 645 683 _sc
47 0 _m
40 0 37 4 37 13 _c
37 15 38 18 39 22 _c
40 26 41 29 43 31 _c
45 33 47 35 50 35 _c
90 35 119 37 135 42 _c
143 44 150 53 154 69 _c
291 618 _l
292 624 293 629 293 632 _c
293 639 289 643 281 644 _c
268 646 244 648 209 648 _c
202 648 199 652 199 661 _c
201 669 203 675 205 678 _c
206 681 210 683 216 683 _c
511 683 _l
517 683 520 678 520 670 _c
519 663 518 658 517 654 _c
515 650 512 648 507 648 _c
}_e{457 648 424 646 408 643 _c
392 640 382 630 378 614 _c
241 65 _l
238 57 237 49 237 43 _c
237 37 248 35 271 35 _c
364 35 _l
416 35 458 45 491 66 _c
523 87 547 111 563 137 _c
579 163 592 190 603 218 _c
613 246 621 261 626 262 _c
635 262 _l
641 262 645 257 645 249 _c
556 7 _l
555 2 552 0 547 0 _c
47 0 _l
_cl}_e}_d
/slash{500 0 56 -249 443 750 _sc
56 -229 _m
56 -227 56 -225 57 -225 _c
405 738 _l
406 742 408 745 412 747 _c
415 749 419 750 423 750 _c
429 750 433 748 437 744 _c
441 740 443 736 443 730 _c
443 726 _l
95 -237 _l
91 -245 84 -249 76 -249 _c
70 -249 66 -247 62 -243 _c
58 -239 56 -234 56 -229 _c
_cl}_d
/R{{759 0 39 -21 755 683 _sc
49 0 _m
42 0 39 4 39 13 _c
39 15 40 18 41 22 _c
41 26 43 29 45 31 _c
47 33 49 35 52 35 _c
92 35 121 37 137 42 _c
145 44 152 53 156 69 _c
293 618 _l
294 624 295 629 295 632 _c
295 639 291 643 283 644 _c
270 646 246 648 211 648 _c
204 648 201 652 201 661 _c
201 663 202 666 203 670 _c
204 674 205 677 207 679 _c
209 681 211 683 214 683 _c
517 683 _l
541 683 566 680 592 675 _c
618 669 642 661 664 649 _c
686 637 704 621 718 601 _c
732 581 739 558 739 532 _c
739 498 727 468 705 442 _c
683 416 655 394 621 376 _c
587 358 555 346 523 339 _c
}_e{549 329 570 314 587 294 _c
603 273 612 249 612 222 _c
612 218 611 216 611 214 _c
611 212 611 210 611 208 _c
603 119 _l
602 106 601 95 601 86 _c
600 76 600 69 600 64 _c
600 46 602 31 608 20 _c
613 9 624 4 640 4 _c
660 4 679 13 695 33 _c
711 52 721 73 726 96 _c
728 102 732 105 736 105 _c
745 105 _l
751 105 755 100 755 92 _c
750 72 742 54 732 37 _c
721 19 707 5 691 -5 _c
675 -15 657 -21 639 -21 _c
600 -21 567 -12 539 4 _c
511 21 498 48 498 86 _c
498 100 499 112 502 123 _c
524 212 _l
526 220 528 229 528 240 _c
528 268 518 289 500 305 _c
481 321 457 329 429 329 _c
306 329 _l
}_e{240 65 _l
238 59 238 55 238 51 _c
238 44 242 40 250 39 _c
262 36 286 35 322 35 _c
328 35 332 30 332 22 _c
330 12 328 6 327 4 _c
325 1 321 0 315 0 _c
49 0 _l
312 355 _m
423 355 _l
495 355 550 373 587 410 _c
603 427 617 449 627 475 _c
637 501 642 527 642 553 _c
642 577 634 597 620 611 _c
606 625 588 634 567 640 _c
545 645 522 648 496 648 _c
429 648 _l
411 648 399 646 393 643 _c
387 640 381 630 377 614 _c
312 355 _l
_cl}_e}_d
/n{{600 0 27 -10 574 442 _sc
77 17 _m
77 21 77 24 78 26 _c
153 324 _l
157 342 160 359 160 373 _c
160 401 150 416 131 416 _c
110 416 94 403 84 378 _c
74 353 64 322 55 284 _c
55 282 54 280 52 279 _c
50 278 48 278 47 278 _c
35 278 _l
33 278 31 279 29 281 _c
27 283 27 286 27 288 _c
34 317 41 342 48 362 _c
54 382 65 400 79 417 _c
93 433 110 442 132 442 _c
156 442 178 434 198 418 _c
217 402 227 382 227 358 _c
247 384 270 404 297 419 _c
323 434 352 442 382 442 _c
405 442 425 437 443 429 _c
460 421 473 408 483 392 _c
493 376 498 356 498 334 _c
498 306 491 273 479 235 _c
467 196 452 153 434 105 _c
}_e{424 83 420 63 420 45 _c
420 25 427 15 443 15 _c
469 15 490 29 508 57 _c
525 85 537 115 545 147 _c
546 151 549 153 553 153 _c
565 153 _l
567 153 569 152 571 150 _c
573 148 574 146 574 144 _c
574 143 573 142 573 141 _c
564 103 548 68 526 37 _c
503 5 475 -10 441 -10 _c
417 -10 397 -2 381 13 _c
364 29 356 48 356 72 _c
356 84 358 97 364 111 _c
372 133 381 159 392 189 _c
403 219 412 247 419 275 _c
426 303 430 327 430 349 _c
430 367 426 383 418 396 _c
410 409 398 416 380 416 _c
355 416 332 410 312 400 _c
292 389 274 375 259 357 _c
243 339 229 318 217 294 _c
149 22 _l
147 12 142 5 134 -1 _c
126 -7 117 -10 107 -10 _c
}_e{99 -10 92 -7 86 -3 _c
80 1 77 8 77 17 _c
_cl}_e}_d
/p{{503 0 -33 -193 491 442 _sc
-24 -193 _m
-30 -193 -33 -188 -33 -180 _c
-31 -165 -26 -158 -20 -158 _c
0 -158 14 -156 22 -152 _c
30 -148 37 -139 42 -124 _c
155 325 _l
159 337 162 353 162 373 _c
162 401 152 416 133 416 _c
112 416 96 403 86 378 _c
76 353 66 322 57 284 _c
57 280 54 278 49 278 _c
37 278 _l
35 278 34 279 32 281 _c
30 283 29 286 29 288 _c
36 317 43 342 50 362 _c
56 382 67 400 81 417 _c
95 433 112 442 134 442 _c
156 442 176 435 194 422 _c
211 409 222 392 227 370 _c
245 391 265 408 287 422 _c
309 435 332 442 356 442 _c
}_e{384 442 408 434 429 419 _c
449 404 465 384 475 360 _c
485 336 491 310 491 282 _c
491 239 480 195 458 149 _c
436 103 406 65 369 35 _c
331 5 291 -10 248 -10 _c
228 -10 211 -4 195 6 _c
179 16 166 31 158 49 _c
113 -128 _l
111 -138 110 -143 110 -145 _c
110 -153 132 -158 176 -158 _c
182 -158 186 -162 186 -171 _c
184 -179 182 -185 180 -188 _c
178 -191 175 -193 169 -193 _c
-24 -193 _l
249 15 _m
272 15 293 24 313 43 _c
333 62 349 84 362 108 _c
370 126 379 147 387 173 _c
395 199 402 226 408 256 _c
414 285 417 308 417 326 _c
417 341 415 355 411 369 _c
407 382 400 393 391 402 _c
381 411 369 416 354 416 _c
329 416 306 407 284 390 _c
262 372 243 351 226 325 _c
226 322 _l
171 101 _l
}_e{175 77 184 56 197 40 _c
210 23 227 15 249 15 _c
_cl}_e}_d
end readonly def

/BuildGlyph
 {exch begin
 CharStrings exch
 2 copy known not{pop /.notdef}if
 true 3 1 roll get exec
 end}_d

/BuildChar {
 1 index /Encoding get exch get
 1 index /BuildGlyph get exec
}_d

FontName currentdict end definefont pop
%!PS-Adobe-3.0 Resource-Font
%%Title: DejaVu Sans
%%Copyright: Copyright (c) 2003 by Bitstream, Inc. All Rights Reserved. Copyright (c) 2006 by Tavmjong Bah. All Rights Reserved. DejaVu changes are in public domain 
%%Creator: Converted from TrueType by PPR
25 dict begin
/_d{bind def}bind def
/_m{moveto}_d
/_l{lineto}_d
/_cl{closepath eofill}_d
/_c{curveto}_d
/_sc{7 -1 roll{setcachedevice}{pop pop pop pop pop pop}ifelse}_d
/_e{exec}_d
/FontName /DejaVuSans def
/PaintType 0 def
/FontMatrix[.001 0 0 .001 0 0]def
/FontBBox[-1020 -414 1681 1167]def
/FontType 3 def
/Encoding StandardEncoding def
/FontInfo 10 dict dup begin
/FamilyName (DejaVu Sans) def
/FullName (DejaVu Sans) def
/Notice (Copyright (c) 2003 by Bitstream, Inc. All Rights Reserved. Copyright (c) 2006 by Tavmjong Bah. All Rights Reserved. DejaVu changes are in public domain ) def
/Weight (Book) def
/Version (Version 2.31) def
/ItalicAngle 0.0 def
/isFixedPitch false def
/UnderlinePosition -130 def
/UnderlineThickness 90 def
end readonly def
/CharStrings 21 dict dup begin
/space{318 0 0 0 0 0 _sc
}_d
/hyphen{361 0 49 234 312 314 _sc
49 314 _m
312 314 _l
312 234 _l
49 234 _l
49 314 _l
_cl}_d
/zero{636 0 66 -13 570 742 _sc
318 664 _m
267 664 229 639 203 589 _c
177 539 165 464 165 364 _c
165 264 177 189 203 139 _c
229 89 267 64 318 64 _c
369 64 407 89 433 139 _c
458 189 471 264 471 364 _c
471 464 458 539 433 589 _c
407 639 369 664 318 664 _c
318 742 _m
399 742 461 709 505 645 _c
548 580 570 486 570 364 _c
570 241 548 147 505 83 _c
461 19 399 -13 318 -13 _c
236 -13 173 19 130 83 _c
87 147 66 241 66 364 _c
66 486 87 580 130 645 _c
173 709 236 742 318 742 _c
_cl}_d
/one{636 0 110 0 544 729 _sc
124 83 _m
285 83 _l
285 639 _l
110 604 _l
110 694 _l
284 729 _l
383 729 _l
383 83 _l
544 83 _l
544 0 _l
124 0 _l
124 83 _l
_cl}_d
/two{{636 0 73 0 536 742 _sc
192 83 _m
536 83 _l
536 0 _l
73 0 _l
73 83 _l
110 121 161 173 226 239 _c
290 304 331 346 348 365 _c
380 400 402 430 414 455 _c
426 479 433 504 433 528 _c
433 566 419 598 392 622 _c
365 646 330 659 286 659 _c
255 659 222 653 188 643 _c
154 632 117 616 78 594 _c
78 694 _l
118 710 155 722 189 730 _c
223 738 255 742 284 742 _c
359 742 419 723 464 685 _c
509 647 532 597 532 534 _c
532 504 526 475 515 449 _c
504 422 484 390 454 354 _c
446 344 420 317 376 272 _c
332 227 271 164 192 83 _c
_cl}_e}_d
/three{{636 0 76 -13 556 742 _sc
406 393 _m
453 383 490 362 516 330 _c
542 298 556 258 556 212 _c
556 140 531 84 482 45 _c
432 6 362 -13 271 -13 _c
240 -13 208 -10 176 -4 _c
144 1 110 10 76 22 _c
76 117 _l
103 101 133 89 166 81 _c
198 73 232 69 268 69 _c
330 69 377 81 409 105 _c
441 129 458 165 458 212 _c
458 254 443 288 413 312 _c
383 336 341 349 287 349 _c
202 349 _l
202 430 _l
291 430 _l
339 430 376 439 402 459 _c
428 478 441 506 441 543 _c
441 580 427 609 401 629 _c
374 649 336 659 287 659 _c
260 659 231 656 200 650 _c
169 644 135 635 98 623 _c
98 711 _l
135 721 170 729 203 734 _c
235 739 266 742 296 742 _c
}_e{370 742 429 725 473 691 _c
517 657 539 611 539 553 _c
539 513 527 479 504 451 _c
481 423 448 403 406 393 _c
_cl}_e}_d
/four{636 0 49 0 580 729 _sc
378 643 _m
129 254 _l
378 254 _l
378 643 _l
352 729 _m
476 729 _l
476 254 _l
580 254 _l
580 172 _l
476 172 _l
476 0 _l
378 0 _l
378 172 _l
49 172 _l
49 267 _l
352 729 _l
_cl}_d
/five{{636 0 77 -13 549 729 _sc
108 729 _m
495 729 _l
495 646 _l
198 646 _l
198 467 _l
212 472 227 476 241 478 _c
255 480 270 482 284 482 _c
365 482 429 459 477 415 _c
525 370 549 310 549 234 _c
549 155 524 94 475 51 _c
426 8 357 -13 269 -13 _c
238 -13 207 -10 175 -6 _c
143 -1 111 6 77 17 _c
77 116 _l
106 100 136 88 168 80 _c
199 72 232 69 267 69 _c
323 69 368 83 401 113 _c
433 143 450 183 450 234 _c
450 284 433 324 401 354 _c
368 384 323 399 267 399 _c
241 399 214 396 188 390 _c
162 384 135 375 108 363 _c
108 729 _l
_cl}_e}_d
/six{{636 0 70 -13 573 742 _sc
330 404 _m
286 404 251 388 225 358 _c
199 328 186 286 186 234 _c
186 181 199 139 225 109 _c
251 79 286 64 330 64 _c
374 64 409 79 435 109 _c
461 139 474 181 474 234 _c
474 286 461 328 435 358 _c
409 388 374 404 330 404 _c
526 713 _m
526 623 _l
501 635 476 644 451 650 _c
425 656 400 659 376 659 _c
310 659 260 637 226 593 _c
192 549 172 482 168 394 _c
187 422 211 444 240 459 _c
269 474 301 482 336 482 _c
409 482 467 459 509 415 _c
551 371 573 310 573 234 _c
573 159 550 99 506 54 _c
462 9 403 -13 330 -13 _c
246 -13 181 19 137 83 _c
92 147 70 241 70 364 _c
70 479 97 571 152 639 _c
206 707 280 742 372 742 _c
}_e{396 742 421 739 447 735 _c
472 730 498 723 526 713 _c
_cl}_e}_d
/seven{636 0 82 0 551 729 _sc
82 729 _m
551 729 _l
551 687 _l
286 0 _l
183 0 _l
432 646 _l
82 646 _l
82 729 _l
_cl}_d
/eight{{636 0 68 -13 568 742 _sc
318 346 _m
271 346 234 333 207 308 _c
180 283 167 249 167 205 _c
167 161 180 126 207 101 _c
234 76 271 64 318 64 _c
364 64 401 76 428 102 _c
455 127 469 161 469 205 _c
469 249 455 283 429 308 _c
402 333 365 346 318 346 _c
219 388 _m
177 398 144 418 120 447 _c
96 476 85 511 85 553 _c
85 611 105 657 147 691 _c
188 725 245 742 318 742 _c
390 742 447 725 489 691 _c
530 657 551 611 551 553 _c
551 511 539 476 515 447 _c
491 418 459 398 417 388 _c
464 377 501 355 528 323 _c
554 291 568 251 568 205 _c
568 134 546 80 503 43 _c
459 5 398 -13 318 -13 _c
237 -13 175 5 132 43 _c
89 80 68 134 68 205 _c
68 251 81 291 108 323 _c
134 355 171 377 219 388 _c
}_e{183 544 _m
183 506 194 476 218 455 _c
242 434 275 424 318 424 _c
360 424 393 434 417 455 _c
441 476 453 506 453 544 _c
453 582 441 611 417 632 _c
393 653 360 664 318 664 _c
275 664 242 653 218 632 _c
194 611 183 582 183 544 _c
_cl}_e}_d
/nine{{636 0 63 -13 566 742 _sc
110 15 _m
110 105 _l
134 93 159 84 185 78 _c
210 72 235 69 260 69 _c
324 69 374 90 408 134 _c
442 178 462 244 468 334 _c
448 306 424 284 396 269 _c
367 254 335 247 300 247 _c
226 247 168 269 126 313 _c
84 357 63 417 63 494 _c
63 568 85 628 129 674 _c
173 719 232 742 306 742 _c
390 742 455 709 499 645 _c
543 580 566 486 566 364 _c
566 248 538 157 484 89 _c
429 21 356 -13 264 -13 _c
239 -13 214 -10 189 -6 _c
163 -2 137 5 110 15 _c
306 324 _m
350 324 385 339 411 369 _c
437 399 450 441 450 494 _c
450 546 437 588 411 618 _c
385 648 350 664 306 664 _c
262 664 227 648 201 618 _c
175 588 162 546 162 494 _c
}_e{162 441 175 399 201 369 _c
227 339 262 324 306 324 _c
_cl}_e}_d
/E{632 0 98 0 568 729 _sc
98 729 _m
559 729 _l
559 646 _l
197 646 _l
197 430 _l
544 430 _l
544 347 _l
197 347 _l
197 83 _l
568 83 _l
568 0 _l
98 0 _l
98 729 _l
_cl}_d
/G{{775 0 56 -13 693 742 _sc
595 104 _m
595 300 _l
434 300 _l
434 381 _l
693 381 _l
693 68 _l
655 40 613 20 567 7 _c
521 -6 472 -13 420 -13 _c
306 -13 216 20 152 86 _c
88 152 56 245 56 364 _c
56 482 88 575 152 642 _c
216 708 306 742 420 742 _c
467 742 512 736 555 724 _c
598 712 638 695 674 673 _c
674 568 _l
637 598 598 621 557 637 _c
516 653 473 661 428 661 _c
338 661 271 636 227 586 _c
182 536 160 462 160 364 _c
160 265 182 191 227 141 _c
271 91 338 67 428 67 _c
462 67 493 70 521 76 _c
549 82 573 91 595 104 _c
_cl}_e}_d
/L{557 0 98 0 552 729 _sc
98 729 _m
197 729 _l
197 83 _l
552 83 _l
552 0 _l
98 0 _l
98 729 _l
_cl}_d
/N{748 0 98 0 650 729 _sc
98 729 _m
231 729 _l
554 119 _l
554 729 _l
650 729 _l
650 0 _l
517 0 _l
194 610 _l
194 0 _l
98 0 _l
98 729 _l
_cl}_d
/d{{635 0 55 -13 544 760 _sc
454 464 _m
454 760 _l
544 760 _l
544 0 _l
454 0 _l
454 82 _l
435 49 411 25 382 10 _c
353 -5 319 -13 279 -13 _c
213 -13 159 13 117 65 _c
75 117 55 187 55 273 _c
55 359 75 428 117 481 _c
159 533 213 560 279 560 _c
319 560 353 552 382 536 _c
411 520 435 496 454 464 _c
148 273 _m
148 207 161 155 188 117 _c
215 79 253 61 301 61 _c
348 61 385 79 413 117 _c
440 155 454 207 454 273 _c
454 339 440 390 413 428 _c
385 466 348 485 301 485 _c
253 485 215 466 188 428 _c
161 390 148 339 148 273 _c
_cl}_e}_d
/f{352 0 23 0 371 760 _sc
371 760 _m
371 685 _l
285 685 _l
253 685 230 678 218 665 _c
205 652 199 629 199 595 _c
199 547 _l
347 547 _l
347 477 _l
199 477 _l
199 0 _l
109 0 _l
109 477 _l
23 477 _l
23 547 _l
109 547 _l
109 585 _l
109 645 123 690 151 718 _c
179 746 224 760 286 760 _c
371 760 _l
_cl}_d
/i{278 0 94 0 184 760 _sc
94 547 _m
184 547 _l
184 0 _l
94 0 _l
94 547 _l
94 760 _m
184 760 _l
184 646 _l
94 646 _l
94 760 _l
_cl}_d
/l{278 0 94 0 184 760 _sc
94 760 _m
184 760 _l
184 0 _l
94 0 _l
94 760 _l
_cl}_d
/u{634 0 85 -13 543 560 _sc
85 216 _m
85 547 _l
175 547 _l
175 219 _l
175 167 185 129 205 103 _c
225 77 255 64 296 64 _c
344 64 383 79 411 110 _c
439 141 453 183 453 237 _c
453 547 _l
543 547 _l
543 0 _l
453 0 _l
453 84 _l
431 50 405 26 377 10 _c
348 -5 315 -13 277 -13 _c
214 -13 166 6 134 45 _c
101 83 85 140 85 216 _c
_cl}_d
end readonly def

/BuildGlyph
 {exch begin
 CharStrings exch
 2 copy known not{pop /.notdef}if
 true 3 1 roll get exec
 end}_d

/BuildChar {
 1 index /Encoding get exch get
 1 index /BuildGlyph get exec
}_d

FontName currentdict end definefont pop
end
%%EndProlog
mpldict begin
18 180 translate
576 432 0 0 clipbox
1.000 setlinewidth
1 setlinejoin
2 setlinecap
[] 0 setdash
1.000 setgray
gsave
0 0 m
576 0 l
576 432 l
0 432 l
0 0 l
gsave
fill
grestore
stroke
grestore
gsave
72 43.2 m
518.4 43.2 l
518.4 388.8 l
72 388.8 l
72 43.2 l
fill
grestore
/p0_0 {
newpath
translate
121.6 89.5347 m
121.6 99.8483 l
} bind def
/p0_1 {
newpath
translate
171.2 180.217 m
171.2 182.896 l
} bind def
/p0_2 {
newpath
translate
220.8 241.348 m
220.8 243.786 l
} bind def
/p0_3 {
newpath
translate
320 310.83 m
320 312.272 l
} bind def
/p0_4 {
newpath
translate
468.8 343.653 m
468.8 344.486 l
} bind def
1.618 setlinewidth
0 setlinecap
0.000 setgray
gsave
446.4 345.6 72 43.2 clipbox
0 0 p0_0
stroke
grestore
gsave
446.4 345.6 72 43.2 clipbox
0 0 p0_1
stroke
grestore
gsave
446.4 345.6 72 43.2 clipbox
0 0 p0_2
stroke
grestore
gsave
446.4 345.6 72 43.2 clipbox
0 0 p0_3
stroke
grestore
gsave
446.4 345.6 72 43.2 clipbox
0 0 p0_4
stroke
grestore
gsave
446.4 345.6 72 43.2 clipbox
/o {
gsave
newpath
translate
9 -5.51073e-16 m
-9 5.51073e-16 l
stroke
grestore
} bind def
121.6 89.5347 o
171.2 180.217 o
220.8 241.348 o
320 310.83 o
468.8 343.653 o
grestore
gsave
446.4 345.6 72 43.2 clipbox
/o {
gsave
newpath
translate
9 -5.51073e-16 m
-9 5.51073e-16 l
stroke
grestore
} bind def
121.6 99.8483 o
171.2 182.896 o
220.8 243.786 o
320 312.272 o
468.8 344.486 o
grestore
[6 6] 0 setdash
gsave
446.4 345.6 72 43.2 clipbox
121.6 95.1323 m
171.2 181.587 l
220.8 242.592 l
320 311.56 l
468.8 344.073 l
stroke
grestore
[] 0 setdash
gsave
446.4 345.6 72 43.2 clipbox
/o {
gsave
newpath
translate
4.45827e-16 7.28115 m
-1.63472 2.25 l
-6.92479 2.25 l
-2.64503 -0.859423 l
-4.27975 -5.89058 l
-5.10873e-16 -2.78115 l
4.27975 -5.89058 l
2.64503 -0.859424 l
6.92479 2.25 l
1.63472 2.25 l
2.22914e-15 7.28115 l
gsave
1.000 0.000 0.000 setrgbcolor
fill
grestore
stroke
grestore
} bind def
121.6 95.1323 o
171.2 181.587 o
220.8 242.592 o
320 311.56 o
468.8 344.073 o
grestore
2 setlinecap
0.000 0.000 1.000 setrgbcolor
gsave
446.4 345.6 72 43.2 clipbox
121.6 205.108 m
171.2 210.123 l
220.8 238.983 l
320 267.869 l
468.8 292.324 l
stroke
grestore
0 setlinecap
0.000 setgray
gsave
446.4 345.6 72 43.2 clipbox
/o {
gsave
newpath
translate
0 -4.5 m
1.19341 -4.5 2.33811 -4.02585 3.18198 -3.18198 c
4.02585 -2.33811 4.5 -1.19341 4.5 0 c
4.5 1.19341 4.02585 2.33811 3.18198 3.18198 c
2.33811 4.02585 1.19341 4.5 0 4.5 c
-1.19341 4.5 -2.33811 4.02585 -3.18198 3.18198 c
-4.02585 2.33811 -4.5 1.19341 -4.5 0 c
-4.5 -1.19341 -4.02585 -2.33811 -3.18198 -3.18198 c
-2.33811 -4.02585 -1.19341 -4.5 0 -4.5 c
cl
gsave
1.000 setgray
fill
grestore
stroke
grestore
} bind def
121.6 205.108 o
171.2 210.123 o
220.8 238.983 o
320 267.869 o
468.8 292.324 o
grestore
0.500 setlinewidth
[1 3] 0 setdash
gsave
446.4 345.6 72 43.2 clipbox
72 43.2 m
72 388.8 l
stroke
grestore
[] 0 setdash
gsave
/o {
gsave
newpath
translate
0 0 m
0 4 l
stroke
grestore
} bind def
72 43.2 o
grestore
gsave
/o {
gsave
newpath
translate
0 0 m
0 -4 l
stroke
grestore
} bind def
72 388.8 o
grestore
/DejaVuSans findfont
12.000 scalefont
setfont
gsave
68.976562 30.121875 translate
0.000000 rotate
0.000000 0.171875 m /zero glyphshow
grestore
[1 3] 0 setdash
gsave
446.4 345.6 72 43.2 clipbox
121.6 43.2 m
121.6 388.8 l
stroke
grestore
[] 0 setdash
gsave
/o {
gsave
newpath
translate
0 0 m
0 4 l
stroke
grestore
} bind def
121.6 43.2 o
grestore
gsave
/o {
gsave
newpath
translate
0 0 m
0 -4 l
stroke
grestore
} bind def
121.6 388.8 o
grestore
gsave
118.990625 30.450000 translate
0.000000 rotate
0.000000 0.000000 m /one glyphshow
grestore
[1 3] 0 setdash
gsave
446.4 345.6 72 43.2 clipbox
171.2 43.2 m
171.2 388.8 l
stroke
grestore
[] 0 setdash
gsave
/o {
gsave
newpath
translate
0 0 m
0 4 l
stroke
grestore
} bind def
171.2 43.2 o
grestore
gsave
/o {
gsave
newpath
translate
0 0 m
0 -4 l
stroke
grestore
} bind def
171.2 388.8 o
grestore
gsave
168.418750 30.293750 translate
0.000000 rotate
0.000000 0.000000 m /two glyphshow
grestore
[1 3] 0 setdash
gsave
446.4 345.6 72 43.2 clipbox
220.8 43.2 m
220.8 388.8 l
stroke
grestore
[] 0 setdash
gsave
/o {
gsave
newpath
translate
0 0 m
0 4 l
stroke
grestore
} bind def
220.8 43.2 o
grestore
gsave
/o {
gsave
newpath
translate
0 0 m
0 -4 l
stroke
grestore
} bind def
220.8 388.8 o
grestore
gsave
217.925000 30.121875 translate
0.000000 rotate
0.000000 0.171875 m /three glyphshow
grestore
[1 3] 0 setdash
gsave
446.4 345.6 72 43.2 clipbox
270.4 43.2 m
270.4 388.8 l
stroke
grestore
[] 0 setdash
gsave
/o {
gsave
newpath
translate
0 0 m
0 4 l
stroke
grestore
} bind def
270.4 43.2 o
grestore
gsave
/o {
gsave
newpath
translate
0 0 m
0 -4 l
stroke
grestore
} bind def
270.4 388.8 o
grestore
gsave
267.212500 30.450000 translate
0.000000 rotate
0.000000 0.000000 m /four glyphshow
grestore
[1 3] 0 setdash
gsave
446.4 345.6 72 43.2 clipbox
320 43.2 m
320 388.8 l
stroke
grestore
[] 0 setdash
gsave
/o {
gsave
newpath
translate
0 0 m
0 4 l
stroke
grestore
} bind def
320 43.2 o
grestore
gsave
/o {
gsave
newpath
translate
0 0 m
0 -4 l
stroke
grestore
} bind def
320 388.8 o
grestore
gsave
317.164062 30.278125 translate
0.000000 rotate
0.000000 0.171875 m /five glyphshow
grestore
[1 3] 0 setdash
gsave
446.4 345.6 72 43.2 clipbox
369.6 43.2 m
369.6 388.8 l
stroke
grestore
[] 0 setdash
gsave
/o {
gsave
newpath
translate
0 0 m
0 4 l
stroke
grestore
} bind def
369.6 43.2 o
grestore
gsave
/o {
gsave
newpath
translate
0 0 m
0 -4 l
stroke
grestore
} bind def
369.6 388.8 o
grestore
gsave
366.584375 30.121875 translate
0.000000 rotate
0.000000 0.171875 m /six glyphshow
grestore
[1 3] 0 setdash
gsave
446.4 345.6 72 43.2 clipbox
419.2 43.2 m
419.2 388.8 l
stroke
grestore
[] 0 setdash
gsave
/o {
gsave
newpath
translate
0 0 m
0 4 l
stroke
grestore
} bind def
419.2 43.2 o
grestore
gsave
/o {
gsave
newpath
translate
0 0 m
0 -4 l
stroke
grestore
} bind def
419.2 388.8 o
grestore
gsave
416.387500 30.450000 translate
0.000000 rotate
0.000000 0.000000 m /seven glyphshow
grestore
[1 3] 0 setdash
gsave
446.4 345.6 72 43.2 clipbox
468.8 43.2 m
468.8 388.8 l
stroke
grestore
[] 0 setdash
gsave
/o {
gsave
newpath
translate
0 0 m
0 4 l
stroke
grestore
} bind def
468.8 43.2 o
grestore
gsave
/o {
gsave
newpath
translate
0 0 m
0 -4 l
stroke
grestore
} bind def
468.8 388.8 o
grestore
gsave
465.800000 30.121875 translate
0.000000 rotate
0.000000 0.171875 m /eight glyphshow
grestore
[1 3] 0 setdash
gsave
446.4 345.6 72 43.2 clipbox
518.4 43.2 m
518.4 388.8 l
stroke
grestore
[] 0 setdash
gsave
/o {
gsave
newpath
translate
0 0 m
0 4 l
stroke
grestore
} bind def
518.4 43.2 o
grestore
gsave
/o {
gsave
newpath
translate
0 0 m
0 -4 l
stroke
grestore
} bind def
518.4 388.8 o
grestore
gsave
515.376562 30.121875 translate
0.000000 rotate
0.000000 0.171875 m /nine glyphshow
grestore
gsave
268.200000 -0.878125 translate
0.000000 rotate
/Cmmi10 findfont
20.736 scalefont
setfont
0.000000 10.453125 moveto
/R glyphshow

15.733017 10.453125 moveto
/slash glyphshow

26.100204 10.453125 moveto
/L glyphshow

/Cmmi10 findfont
14.5152 scalefont
setfont
40.203217 5.163501 moveto
/n glyphshow

/Cmmi10 findfont
10.16064 scalefont
setfont
48.913066 1.460764 moveto
/e glyphshow


grestore
[1 3] 0 setdash
gsave
446.4 345.6 72 43.2 clipbox
72 43.2 m
518.4 43.2 l
stroke
grestore
[] 0 setdash
gsave
/o {
gsave
newpath
translate
0 0 m
4 0 l
stroke
grestore
} bind def
72 43.2 o
grestore
gsave
/o {
gsave
newpath
translate
0 0 m
-4 0 l
stroke
grestore
} bind def
518.4 43.2 o
grestore
gsave
43.000000 35.700000 translate
0.000000 rotate
/DejaVuSans findfont
12.0 scalefont
setfont
0.000000 1.828125 moveto
/one glyphshow

7.634766 1.828125 moveto
/zero glyphshow

/DejaVuSans findfont
8.4 scalefont
setfont
15.269531 8.765625 moveto
/hyphen glyphshow

18.300586 8.765625 moveto
/two glyphshow


grestore
[1 3] 0 setdash
gsave
446.4 345.6 72 43.2 clipbox
72 112.32 m
518.4 112.32 l
stroke
grestore
[] 0 setdash
gsave
/o {
gsave
newpath
translate
0 0 m
4 0 l
stroke
grestore
} bind def
72 112.32 o
grestore
gsave
/o {
gsave
newpath
translate
0 0 m
-4 0 l
stroke
grestore
} bind def
518.4 112.32 o
grestore
gsave
43.000000 104.820000 translate
0.000000 rotate
/DejaVuSans findfont
12.0 scalefont
setfont
0.000000 1.937500 moveto
/one glyphshow

7.634766 1.937500 moveto
/zero glyphshow

/DejaVuSans findfont
8.4 scalefont
setfont
15.269531 8.875000 moveto
/hyphen glyphshow

18.300586 8.875000 moveto
/one glyphshow


grestore
[1 3] 0 setdash
gsave
446.4 345.6 72 43.2 clipbox
72 181.44 m
518.4 181.44 l
stroke
grestore
[] 0 setdash
gsave
/o {
gsave
newpath
translate
0 0 m
4 0 l
stroke
grestore
} bind def
72 181.44 o
grestore
gsave
/o {
gsave
newpath
translate
0 0 m
-4 0 l
stroke
grestore
} bind def
518.4 181.44 o
grestore
gsave
46.000000 173.940000 translate
0.000000 rotate
/DejaVuSans findfont
12.0 scalefont
setfont
0.000000 1.828125 moveto
/one glyphshow

7.634766 1.828125 moveto
/zero glyphshow

/DejaVuSans findfont
8.4 scalefont
setfont
15.269531 8.765625 moveto
/zero glyphshow


grestore
[1 3] 0 setdash
gsave
446.4 345.6 72 43.2 clipbox
72 250.56 m
518.4 250.56 l
stroke
grestore
[] 0 setdash
gsave
/o {
gsave
newpath
translate
0 0 m
4 0 l
stroke
grestore
} bind def
72 250.56 o
grestore
gsave
/o {
gsave
newpath
translate
0 0 m
-4 0 l
stroke
grestore
} bind def
518.4 250.56 o
grestore
gsave
46.000000 243.060000 translate
0.000000 rotate
/DejaVuSans findfont
12.0 scalefont
setfont
0.000000 1.937500 moveto
/one glyphshow

7.634766 1.937500 moveto
/zero glyphshow

/DejaVuSans findfont
8.4 scalefont
setfont
15.269531 8.875000 moveto
/one glyphshow


grestore
[1 3] 0 setdash
gsave
446.4 345.6 72 43.2 clipbox
72 319.68 m
518.4 319.68 l
stroke
grestore
[] 0 setdash
gsave
/o {
gsave
newpath
translate
0 0 m
4 0 l
stroke
grestore
} bind def
72 319.68 o
grestore
gsave
/o {
gsave
newpath
translate
0 0 m
-4 0 l
stroke
grestore
} bind def
518.4 319.68 o
grestore
gsave
46.000000 312.180000 translate
0.000000 rotate
/DejaVuSans findfont
12.0 scalefont
setfont
0.000000 1.828125 moveto
/one glyphshow

7.634766 1.828125 moveto
/zero glyphshow

/DejaVuSans findfont
8.4 scalefont
setfont
15.269531 8.765625 moveto
/two glyphshow


grestore
[1 3] 0 setdash
gsave
446.4 345.6 72 43.2 clipbox
72 388.8 m
518.4 388.8 l
stroke
grestore
[] 0 setdash
gsave
/o {
gsave
newpath
translate
0 0 m
4 0 l
stroke
grestore
} bind def
72 388.8 o
grestore
gsave
/o {
gsave
newpath
translate
0 0 m
-4 0 l
stroke
grestore
} bind def
518.4 388.8 o
grestore
gsave
46.000000 381.300000 translate
0.000000 rotate
/DejaVuSans findfont
12.0 scalefont
setfont
0.000000 1.828125 moveto
/one glyphshow

7.634766 1.828125 moveto
/zero glyphshow

/DejaVuSans findfont
8.4 scalefont
setfont
15.269531 8.765625 moveto
/three glyphshow


grestore
gsave
/o {
gsave
newpath
translate
0 0 m
2 0 l
stroke
grestore
} bind def
72 64.0072 o
grestore
gsave
/o {
gsave
newpath
translate
0 0 m
-2 0 l
stroke
grestore
} bind def
518.4 64.0072 o
grestore
gsave
/o {
gsave
newpath
translate
0 0 m
2 0 l
stroke
grestore
} bind def
72 76.1786 o
grestore
gsave
/o {
gsave
newpath
translate
0 0 m
-2 0 l
stroke
grestore
} bind def
518.4 76.1786 o
grestore
gsave
/o {
gsave
newpath
translate
0 0 m
2 0 l
stroke
grestore
} bind def
72 84.8144 o
grestore
gsave
/o {
gsave
newpath
translate
0 0 m
-2 0 l
stroke
grestore
} bind def
518.4 84.8144 o
grestore
gsave
/o {
gsave
newpath
translate
0 0 m
2 0 l
stroke
grestore
} bind def
72 91.5128 o
grestore
gsave
/o {
gsave
newpath
translate
0 0 m
-2 0 l
stroke
grestore
} bind def
518.4 91.5128 o
grestore
gsave
/o {
gsave
newpath
translate
0 0 m
2 0 l
stroke
grestore
} bind def
72 96.9858 o
grestore
gsave
/o {
gsave
newpath
translate
0 0 m
-2 0 l
stroke
grestore
} bind def
518.4 96.9858 o
grestore
gsave
/o {
gsave
newpath
translate
0 0 m
2 0 l
stroke
grestore
} bind def
72 101.613 o
grestore
gsave
/o {
gsave
newpath
translate
0 0 m
-2 0 l
stroke
grestore
} bind def
518.4 101.613 o
grestore
gsave
/o {
gsave
newpath
translate
0 0 m
2 0 l
stroke
grestore
} bind def
72 105.622 o
grestore
gsave
/o {
gsave
newpath
translate
0 0 m
-2 0 l
stroke
grestore
} bind def
518.4 105.622 o
grestore
gsave
/o {
gsave
newpath
translate
0 0 m
2 0 l
stroke
grestore
} bind def
72 109.157 o
grestore
gsave
/o {
gsave
newpath
translate
0 0 m
-2 0 l
stroke
grestore
} bind def
518.4 109.157 o
grestore
gsave
/o {
gsave
newpath
translate
0 0 m
2 0 l
stroke
grestore
} bind def
72 133.127 o
grestore
gsave
/o {
gsave
newpath
translate
0 0 m
-2 0 l
stroke
grestore
} bind def
518.4 133.127 o
grestore
gsave
/o {
gsave
newpath
translate
0 0 m
2 0 l
stroke
grestore
} bind def
72 145.299 o
grestore
gsave
/o {
gsave
newpath
translate
0 0 m
-2 0 l
stroke
grestore
} bind def
518.4 145.299 o
grestore
gsave
/o {
gsave
newpath
translate
0 0 m
2 0 l
stroke
grestore
} bind def
72 153.934 o
grestore
gsave
/o {
gsave
newpath
translate
0 0 m
-2 0 l
stroke
grestore
} bind def
518.4 153.934 o
grestore
gsave
/o {
gsave
newpath
translate
0 0 m
2 0 l
stroke
grestore
} bind def
72 160.633 o
grestore
gsave
/o {
gsave
newpath
translate
0 0 m
-2 0 l
stroke
grestore
} bind def
518.4 160.633 o
grestore
gsave
/o {
gsave
newpath
translate
0 0 m
2 0 l
stroke
grestore
} bind def
72 166.106 o
grestore
gsave
/o {
gsave
newpath
translate
0 0 m
-2 0 l
stroke
grestore
} bind def
518.4 166.106 o
grestore
gsave
/o {
gsave
newpath
translate
0 0 m
2 0 l
stroke
grestore
} bind def
72 170.733 o
grestore
gsave
/o {
gsave
newpath
translate
0 0 m
-2 0 l
stroke
grestore
} bind def
518.4 170.733 o
grestore
gsave
/o {
gsave
newpath
translate
0 0 m
2 0 l
stroke
grestore
} bind def
72 174.742 o
grestore
gsave
/o {
gsave
newpath
translate
0 0 m
-2 0 l
stroke
grestore
} bind def
518.4 174.742 o
grestore
gsave
/o {
gsave
newpath
translate
0 0 m
2 0 l
stroke
grestore
} bind def
72 178.277 o
grestore
gsave
/o {
gsave
newpath
translate
0 0 m
-2 0 l
stroke
grestore
} bind def
518.4 178.277 o
grestore
gsave
/o {
gsave
newpath
translate
0 0 m
2 0 l
stroke
grestore
} bind def
72 202.247 o
grestore
gsave
/o {
gsave
newpath
translate
0 0 m
-2 0 l
stroke
grestore
} bind def
518.4 202.247 o
grestore
gsave
/o {
gsave
newpath
translate
0 0 m
2 0 l
stroke
grestore
} bind def
72 214.419 o
grestore
gsave
/o {
gsave
newpath
translate
0 0 m
-2 0 l
stroke
grestore
} bind def
518.4 214.419 o
grestore
gsave
/o {
gsave
newpath
translate
0 0 m
2 0 l
stroke
grestore
} bind def
72 223.054 o
grestore
gsave
/o {
gsave
newpath
translate
0 0 m
-2 0 l
stroke
grestore
} bind def
518.4 223.054 o
grestore
gsave
/o {
gsave
newpath
translate
0 0 m
2 0 l
stroke
grestore
} bind def
72 229.753 o
grestore
gsave
/o {
gsave
newpath
translate
0 0 m
-2 0 l
stroke
grestore
} bind def
518.4 229.753 o
grestore
gsave
/o {
gsave
newpath
translate
0 0 m
2 0 l
stroke
grestore
} bind def
72 235.226 o
grestore
gsave
/o {
gsave
newpath
translate
0 0 m
-2 0 l
stroke
grestore
} bind def
518.4 235.226 o
grestore
gsave
/o {
gsave
newpath
translate
0 0 m
2 0 l
stroke
grestore
} bind def
72 239.853 o
grestore
gsave
/o {
gsave
newpath
translate
0 0 m
-2 0 l
stroke
grestore
} bind def
518.4 239.853 o
grestore
gsave
/o {
gsave
newpath
translate
0 0 m
2 0 l
stroke
grestore
} bind def
72 243.862 o
grestore
gsave
/o {
gsave
newpath
translate
0 0 m
-2 0 l
stroke
grestore
} bind def
518.4 243.862 o
grestore
gsave
/o {
gsave
newpath
translate
0 0 m
2 0 l
stroke
grestore
} bind def
72 247.397 o
grestore
gsave
/o {
gsave
newpath
translate
0 0 m
-2 0 l
stroke
grestore
} bind def
518.4 247.397 o
grestore
gsave
/o {
gsave
newpath
translate
0 0 m
2 0 l
stroke
grestore
} bind def
72 271.367 o
grestore
gsave
/o {
gsave
newpath
translate
0 0 m
-2 0 l
stroke
grestore
} bind def
518.4 271.367 o
grestore
gsave
/o {
gsave
newpath
translate
0 0 m
2 0 l
stroke
grestore
} bind def
72 283.539 o
grestore
gsave
/o {
gsave
newpath
translate
0 0 m
-2 0 l
stroke
grestore
} bind def
518.4 283.539 o
grestore
gsave
/o {
gsave
newpath
translate
0 0 m
2 0 l
stroke
grestore
} bind def
72 292.174 o
grestore
gsave
/o {
gsave
newpath
translate
0 0 m
-2 0 l
stroke
grestore
} bind def
518.4 292.174 o
grestore
gsave
/o {
gsave
newpath
translate
0 0 m
2 0 l
stroke
grestore
} bind def
72 298.873 o
grestore
gsave
/o {
gsave
newpath
translate
0 0 m
-2 0 l
stroke
grestore
} bind def
518.4 298.873 o
grestore
gsave
/o {
gsave
newpath
translate
0 0 m
2 0 l
stroke
grestore
} bind def
72 304.346 o
grestore
gsave
/o {
gsave
newpath
translate
0 0 m
-2 0 l
stroke
grestore
} bind def
518.4 304.346 o
grestore
gsave
/o {
gsave
newpath
translate
0 0 m
2 0 l
stroke
grestore
} bind def
72 308.973 o
grestore
gsave
/o {
gsave
newpath
translate
0 0 m
-2 0 l
stroke
grestore
} bind def
518.4 308.973 o
grestore
gsave
/o {
gsave
newpath
translate
0 0 m
2 0 l
stroke
grestore
} bind def
72 312.982 o
grestore
gsave
/o {
gsave
newpath
translate
0 0 m
-2 0 l
stroke
grestore
} bind def
518.4 312.982 o
grestore
gsave
/o {
gsave
newpath
translate
0 0 m
2 0 l
stroke
grestore
} bind def
72 316.517 o
grestore
gsave
/o {
gsave
newpath
translate
0 0 m
-2 0 l
stroke
grestore
} bind def
518.4 316.517 o
grestore
gsave
/o {
gsave
newpath
translate
0 0 m
2 0 l
stroke
grestore
} bind def
72 340.487 o
grestore
gsave
/o {
gsave
newpath
translate
0 0 m
-2 0 l
stroke
grestore
} bind def
518.4 340.487 o
grestore
gsave
/o {
gsave
newpath
translate
0 0 m
2 0 l
stroke
grestore
} bind def
72 352.659 o
grestore
gsave
/o {
gsave
newpath
translate
0 0 m
-2 0 l
stroke
grestore
} bind def
518.4 352.659 o
grestore
gsave
/o {
gsave
newpath
translate
0 0 m
2 0 l
stroke
grestore
} bind def
72 361.294 o
grestore
gsave
/o {
gsave
newpath
translate
0 0 m
-2 0 l
stroke
grestore
} bind def
518.4 361.294 o
grestore
gsave
/o {
gsave
newpath
translate
0 0 m
2 0 l
stroke
grestore
} bind def
72 367.993 o
grestore
gsave
/o {
gsave
newpath
translate
0 0 m
-2 0 l
stroke
grestore
} bind def
518.4 367.993 o
grestore
gsave
/o {
gsave
newpath
translate
0 0 m
2 0 l
stroke
grestore
} bind def
72 373.466 o
grestore
gsave
/o {
gsave
newpath
translate
0 0 m
-2 0 l
stroke
grestore
} bind def
518.4 373.466 o
grestore
gsave
/o {
gsave
newpath
translate
0 0 m
2 0 l
stroke
grestore
} bind def
72 378.093 o
grestore
gsave
/o {
gsave
newpath
translate
0 0 m
-2 0 l
stroke
grestore
} bind def
518.4 378.093 o
grestore
gsave
/o {
gsave
newpath
translate
0 0 m
2 0 l
stroke
grestore
} bind def
72 382.102 o
grestore
gsave
/o {
gsave
newpath
translate
0 0 m
-2 0 l
stroke
grestore
} bind def
518.4 382.102 o
grestore
gsave
/o {
gsave
newpath
translate
0 0 m
2 0 l
stroke
grestore
} bind def
72 385.637 o
grestore
gsave
/o {
gsave
newpath
translate
0 0 m
-2 0 l
stroke
grestore
} bind def
518.4 385.637 o
grestore
gsave
38.000000 204.000000 translate
90.000000 rotate
/Cmr10 findfont
20.736 scalefont
setfont
0.000000 9.843750 moveto
/Gamma glyphshow

/Cmmi10 findfont
14.5152 scalefont
setfont
12.958984 4.554126 moveto
/p glyphshow


grestore
1.000 setlinewidth
2 setlinecap
gsave
72 388.8 m
518.4 388.8 l
stroke
grestore
gsave
518.4 43.2 m
518.4 388.8 l
stroke
grestore
gsave
72 43.2 m
518.4 43.2 l
stroke
grestore
gsave
72 43.2 m
72 388.8 l
stroke
grestore
gsave
396.876 50.4 m
511.2 50.4 l
511.2 93.5106 l
396.876 93.5106 l
396.876 50.4 l
cl
gsave
1.000 setgray
fill
grestore
stroke
grestore
1.618 setlinewidth
0 setlinecap
[6 6] 0 setdash
gsave
402.636 82.15 m
431.436 82.15 l
stroke
grestore
[] 0 setdash
gsave
/o {
gsave
newpath
translate
4.45827e-16 7.28115 m
-1.63472 2.25 l
-6.92479 2.25 l
-2.64503 -0.859423 l
-4.27975 -5.89058 l
-5.10873e-16 -2.78115 l
4.27975 -5.89058 l
2.64503 -0.859424 l
6.92479 2.25 l
1.63472 2.25 l
2.22914e-15 7.28115 l
gsave
1.000 0.000 0.000 setrgbcolor
fill
grestore
stroke
grestore
} bind def
417.036 82.15 o
grestore
/DejaVuSans findfont
14.400 scalefont
setfont
442.956 76.907 m
0 0.203 rmoveto
(NL GENE) show
2 setlinecap
0.000 0.000 1.000 setrgbcolor
gsave
402.636 61.4031 m
431.436 61.4031 l
stroke
grestore
0 setlinecap
0.000 setgray
gsave
/o {
gsave
newpath
translate
0 -4.5 m
1.19341 -4.5 2.33811 -4.02585 3.18198 -3.18198 c
4.02585 -2.33811 4.5 -1.19341 4.5 0 c
4.5 1.19341 4.02585 2.33811 3.18198 3.18198 c
2.33811 4.02585 1.19341 4.5 0 4.5 c
-1.19341 4.5 -2.33811 4.02585 -3.18198 3.18198 c
-4.02585 2.33811 -4.5 1.19341 -4.5 0 c
-4.5 -1.19341 -4.02585 -2.33811 -3.18198 -3.18198 c
-2.33811 -4.02585 -1.19341 -4.5 0 -4.5 c
cl
gsave
1.000 setgray
fill
grestore
stroke
grestore
} bind def
417.036 61.4031 o
grestore
442.956 56.16 m
0 0.203 rmoveto
(fluid) show

end
showpage
