%!PS-Adobe-3.0 EPSF-3.0
%%Title: omn_figures/omn_TEM_D_RV.eps
%%Creator: matplotlib version 0.99.3, http://matplotlib.sourceforge.net/
%%CreationDate: Tue Jan 24 11:16:41 2012
%%Orientation: portrait
%%BoundingBox: 18 180 594 612
%%EndComments
%%BeginProlog
/mpldict 9 dict def
mpldict begin
/m { moveto } bind def
/l { lineto } bind def
/r { rlineto } bind def
/c { curveto } bind def
/cl { closepath } bind def
/box {
m
1 index 0 r
0 exch r
neg 0 r
cl
} bind def
/clipbox {
box
clip
newpath
} bind def
%!PS-Adobe-3.0 Resource-Font
%%Title: cmmi10
%%Copyright: Copyright (C) 1994, Basil K. Malyshev. All Rights Reserved.012BaKoMa Fonts Collection, Level-B.
%%Creator: Converted from TrueType by PPR
25 dict begin
/_d{bind def}bind def
/_m{moveto}_d
/_l{lineto}_d
/_cl{closepath eofill}_d
/_c{curveto}_d
/_sc{7 -1 roll{setcachedevice}{pop pop pop pop pop pop}ifelse}_d
/_e{exec}_d
/FontName /Cmmi10 def
/PaintType 0 def
/FontMatrix[.001 0 0 .001 0 0]def
/FontBBox[-33 -249 1048 750]def
/FontType 3 def
/Encoding StandardEncoding def
/FontInfo 10 dict dup begin
/FamilyName (cmmi10) def
/FullName (cmmi10) def
/Notice (Copyright (C) 1994, Basil K. Malyshev. All Rights Reserved.012BaKoMa Fonts Collection, Level-B. ) def
/Weight (Regular) def
/Version (1.1/12-Nov-94) def
/ItalicAngle 0.0 def
/isFixedPitch false def
/UnderlinePosition -133 def
/UnderlineThickness 20 def
end readonly def
/CharStrings 11 dict dup begin
/e{{465 0 44 -10 430 442 _sc
201 -10 _m
169 -10 141 -2 117 14 _c
93 30 75 53 63 81 _c
50 109 44 138 44 170 _c
44 217 56 262 80 304 _c
104 346 136 379 177 404 _c
218 429 262 442 309 442 _c
337 442 362 434 384 419 _c
405 404 416 383 416 356 _c
416 317 400 288 370 270 _c
339 251 304 239 266 235 _c
228 231 185 229 139 229 _c
136 229 _l
125 189 120 155 120 127 _c
120 97 126 71 140 49 _c
154 26 175 15 203 15 _c
243 15 281 24 318 42 _c
354 60 384 86 407 118 _c
409 120 411 121 415 121 _c
418 121 421 119 425 115 _c
428 111 430 108 430 105 _c
430 102 429 100 428 99 _c
404 65 371 38 330 19 _c
288 0 245 -10 201 -10 _c
142 255 _m
}_e{180 255 216 256 249 260 _c
282 264 312 273 339 287 _c
365 301 379 324 379 355 _c
379 367 375 378 368 387 _c
361 396 352 403 342 408 _c
331 413 320 416 308 416 _c
280 416 254 408 232 393 _c
209 377 190 357 176 333 _c
161 308 150 282 142 255 _c
_cl}_e}_d
/Z{{682 0 58 0 722 683 _sc
58 8 _m
58 17 60 25 65 31 _c
615 648 _l
468 648 _l
419 648 378 642 346 630 _c
314 618 287 599 266 573 _c
245 546 228 509 214 463 _c
212 457 209 454 204 454 _c
195 454 _l
188 454 185 458 185 467 _c
248 674 _l
249 680 252 683 258 683 _c
714 683 _l
719 683 722 680 722 675 _c
722 665 720 658 716 654 _c
168 38 _l
320 38 _l
378 38 424 45 458 60 _c
492 74 518 97 538 128 _c
558 159 577 204 596 262 _c
596 264 598 266 600 268 _c
602 270 604 271 606 271 _c
615 271 _l
}_e{621 271 625 266 625 258 _c
546 9 _l
543 3 540 0 536 0 _c
67 0 _l
61 0 58 2 58 8 _c
_cl}_e}_d
/i{{344 0 27 -10 296 661 _sc
78 72 _m
78 84 80 97 86 111 _c
167 326 _l
175 350 180 370 180 386 _c
180 406 172 416 158 416 _c
132 416 110 402 93 375 _c
75 347 63 317 55 284 _c
53 280 51 278 47 278 _c
35 278 _l
29 278 27 281 27 287 _c
27 290 _l
37 330 54 365 76 396 _c
98 426 126 442 160 442 _c
184 442 204 434 220 418 _c
236 402 245 383 245 359 _c
245 346 242 333 237 320 _c
156 105 _l
146 83 142 63 142 45 _c
142 25 149 15 165 15 _c
}_e{191 15 212 29 230 57 _c
247 85 259 115 267 147 _c
268 151 271 153 275 153 _c
287 153 _l
289 153 291 152 293 150 _c
295 148 296 146 296 144 _c
296 143 295 142 295 141 _c
285 103 269 68 247 37 _c
224 5 196 -10 163 -10 _c
139 -10 119 -2 103 13 _c
86 29 78 48 78 72 _c
191 606 _m
191 620 196 632 208 644 _c
220 655 233 661 247 661 _c
258 661 267 657 275 650 _c
282 643 286 634 286 624 _c
286 609 280 596 268 585 _c
256 573 243 568 229 568 _c
218 568 209 571 202 579 _c
194 586 191 595 191 606 _c
_cl}_e}_d
/D{{827 0 39 0 803 683 _sc
49 0 _m
42 0 39 4 39 13 _c
39 15 40 18 41 22 _c
41 26 43 29 45 31 _c
47 33 49 35 52 35 _c
92 35 121 37 137 42 _c
145 44 152 53 156 69 _c
293 618 _l
294 624 295 629 295 632 _c
295 639 291 643 283 644 _c
270 646 246 648 211 648 _c
204 648 201 652 201 661 _c
201 663 202 666 203 670 _c
204 674 205 677 207 679 _c
209 681 211 683 214 683 _c
573 683 _l
619 683 660 671 695 649 _c
730 626 757 595 775 557 _c
793 519 803 477 803 431 _c
803 379 792 328 771 277 _c
750 226 720 179 682 137 _c
644 95 600 61 552 37 _c
503 12 453 0 402 0 _c
49 0 _l
236 43 _m
}_e{236 37 247 35 270 35 _c
386 35 _l
423 35 459 42 493 58 _c
527 73 558 94 586 121 _c
611 146 633 179 652 220 _c
671 260 686 303 697 347 _c
707 391 713 432 713 469 _c
713 496 709 520 701 542 _c
693 564 681 582 667 598 _c
653 614 635 626 613 635 _c
591 643 566 648 539 648 _c
429 648 _l
411 648 399 646 393 643 _c
387 640 381 630 377 614 _c
240 65 _l
237 57 236 49 236 43 _c
_cl}_e}_d
/H{{831 0 37 0 883 683 _sc
47 0 _m
40 0 37 4 37 13 _c
37 15 38 18 39 22 _c
40 26 41 29 43 31 _c
45 33 47 35 50 35 _c
90 35 119 37 135 42 _c
143 44 150 53 154 69 _c
291 618 _l
292 624 293 629 293 632 _c
293 639 289 643 281 644 _c
268 646 244 648 209 648 _c
202 648 199 652 199 661 _c
201 669 203 675 205 678 _c
206 681 210 683 216 683 _c
485 683 _l
491 683 495 678 495 670 _c
495 668 494 665 493 661 _c
492 657 491 654 489 652 _c
487 649 485 648 482 648 _c
}_e{441 648 413 645 397 641 _c
388 637 382 628 378 614 _c
318 373 _l
618 373 _l
679 618 _l
680 624 681 629 681 632 _c
681 639 677 643 669 644 _c
656 646 632 648 597 648 _c
590 648 587 652 587 661 _c
589 669 590 675 592 678 _c
593 681 597 683 604 683 _c
873 683 _l
879 683 883 678 883 670 _c
882 668 881 665 880 661 _c
879 657 878 653 876 651 _c
874 649 872 648 870 648 _c
829 648 801 645 785 641 _c
776 638 770 629 766 614 _c
629 65 _l
}_e{627 58 627 53 627 51 _c
627 44 631 40 639 39 _c
651 36 675 35 711 35 _c
717 35 721 30 721 22 _c
719 14 717 8 715 5 _c
713 1 709 0 704 0 _c
435 0 _l
428 0 425 4 425 13 _c
426 18 427 22 428 24 _c
428 26 429 28 431 31 _c
433 33 435 35 438 35 _c
478 35 507 37 523 42 _c
531 44 538 53 542 69 _c
609 338 _l
309 338 _l
241 65 _l
239 57 239 52 239 51 _c
239 44 243 40 251 39 _c
263 36 287 35 323 35 _c
}_e{329 35 333 30 333 22 _c
331 13 329 7 327 4 _c
325 1 322 0 316 0 _c
47 0 _l
_cl}_e}_d
/L{{680 0 37 0 645 683 _sc
47 0 _m
40 0 37 4 37 13 _c
37 15 38 18 39 22 _c
40 26 41 29 43 31 _c
45 33 47 35 50 35 _c
90 35 119 37 135 42 _c
143 44 150 53 154 69 _c
291 618 _l
292 624 293 629 293 632 _c
293 639 289 643 281 644 _c
268 646 244 648 209 648 _c
202 648 199 652 199 661 _c
201 669 203 675 205 678 _c
206 681 210 683 216 683 _c
511 683 _l
517 683 520 678 520 670 _c
519 663 518 658 517 654 _c
515 650 512 648 507 648 _c
}_e{457 648 424 646 408 643 _c
392 640 382 630 378 614 _c
241 65 _l
238 57 237 49 237 43 _c
237 37 248 35 271 35 _c
364 35 _l
416 35 458 45 491 66 _c
523 87 547 111 563 137 _c
579 163 592 190 603 218 _c
613 246 621 261 626 262 _c
635 262 _l
641 262 645 257 645 249 _c
556 7 _l
555 2 552 0 547 0 _c
47 0 _l
_cl}_e}_d
/N{{803 0 37 0 883 683 _sc
47 0 _m
40 0 37 4 37 13 _c
37 15 38 18 39 22 _c
40 26 41 29 43 31 _c
45 33 47 35 50 35 _c
114 35 151 55 161 96 _c
297 643 _l
278 646 249 648 209 648 _c
202 648 199 652 199 661 _c
199 663 200 666 201 670 _c
202 674 203 677 205 679 _c
207 681 209 683 212 683 _c
385 683 _l
389 683 392 681 394 677 _c
616 148 _l
727 591 _l
728 598 729 603 729 606 _c
729 634 703 648 652 648 _c
645 648 642 652 642 661 _c
644 669 646 675 647 678 _c
648 681 652 683 659 683 _c
}_e{873 683 _l
879 683 883 678 883 670 _c
882 668 881 665 880 661 _c
879 657 878 653 876 651 _c
874 649 872 648 870 648 _c
806 648 769 627 759 587 _c
615 9 _l
613 3 609 0 605 0 _c
593 0 _l
588 0 585 2 584 7 _c
329 612 _l
327 618 _l
325 619 325 620 325 621 _c
193 92 _l
192 90 191 87 191 85 _c
191 83 190 80 190 77 _c
190 59 197 48 212 43 _c
227 37 246 35 268 35 _c
274 35 278 30 278 22 _c
275 12 273 6 272 4 _c
270 1 267 0 261 0 _c
47 0 _l
_cl}_e}_d
/slash{500 0 56 -249 443 750 _sc
56 -229 _m
56 -227 56 -225 57 -225 _c
405 738 _l
406 742 408 745 412 747 _c
415 749 419 750 423 750 _c
429 750 433 748 437 744 _c
441 740 443 736 443 730 _c
443 726 _l
95 -237 _l
91 -245 84 -249 76 -249 _c
70 -249 66 -247 62 -243 _c
58 -239 56 -234 56 -229 _c
_cl}_d
/R{{759 0 39 -21 755 683 _sc
49 0 _m
42 0 39 4 39 13 _c
39 15 40 18 41 22 _c
41 26 43 29 45 31 _c
47 33 49 35 52 35 _c
92 35 121 37 137 42 _c
145 44 152 53 156 69 _c
293 618 _l
294 624 295 629 295 632 _c
295 639 291 643 283 644 _c
270 646 246 648 211 648 _c
204 648 201 652 201 661 _c
201 663 202 666 203 670 _c
204 674 205 677 207 679 _c
209 681 211 683 214 683 _c
517 683 _l
541 683 566 680 592 675 _c
618 669 642 661 664 649 _c
686 637 704 621 718 601 _c
732 581 739 558 739 532 _c
739 498 727 468 705 442 _c
683 416 655 394 621 376 _c
587 358 555 346 523 339 _c
}_e{549 329 570 314 587 294 _c
603 273 612 249 612 222 _c
612 218 611 216 611 214 _c
611 212 611 210 611 208 _c
603 119 _l
602 106 601 95 601 86 _c
600 76 600 69 600 64 _c
600 46 602 31 608 20 _c
613 9 624 4 640 4 _c
660 4 679 13 695 33 _c
711 52 721 73 726 96 _c
728 102 732 105 736 105 _c
745 105 _l
751 105 755 100 755 92 _c
750 72 742 54 732 37 _c
721 19 707 5 691 -5 _c
675 -15 657 -21 639 -21 _c
600 -21 567 -12 539 4 _c
511 21 498 48 498 86 _c
498 100 499 112 502 123 _c
524 212 _l
526 220 528 229 528 240 _c
528 268 518 289 500 305 _c
481 321 457 329 429 329 _c
306 329 _l
}_e{240 65 _l
238 59 238 55 238 51 _c
238 44 242 40 250 39 _c
262 36 286 35 322 35 _c
328 35 332 30 332 22 _c
330 12 328 6 327 4 _c
325 1 321 0 315 0 _c
49 0 _l
312 355 _m
423 355 _l
495 355 550 373 587 410 _c
603 427 617 449 627 475 _c
637 501 642 527 642 553 _c
642 577 634 597 620 611 _c
606 625 588 634 567 640 _c
545 645 522 648 496 648 _c
429 648 _l
411 648 399 646 393 643 _c
387 640 381 630 377 614 _c
312 355 _l
_cl}_e}_d
/n{{600 0 27 -10 574 442 _sc
77 17 _m
77 21 77 24 78 26 _c
153 324 _l
157 342 160 359 160 373 _c
160 401 150 416 131 416 _c
110 416 94 403 84 378 _c
74 353 64 322 55 284 _c
55 282 54 280 52 279 _c
50 278 48 278 47 278 _c
35 278 _l
33 278 31 279 29 281 _c
27 283 27 286 27 288 _c
34 317 41 342 48 362 _c
54 382 65 400 79 417 _c
93 433 110 442 132 442 _c
156 442 178 434 198 418 _c
217 402 227 382 227 358 _c
247 384 270 404 297 419 _c
323 434 352 442 382 442 _c
405 442 425 437 443 429 _c
460 421 473 408 483 392 _c
493 376 498 356 498 334 _c
498 306 491 273 479 235 _c
467 196 452 153 434 105 _c
}_e{424 83 420 63 420 45 _c
420 25 427 15 443 15 _c
469 15 490 29 508 57 _c
525 85 537 115 545 147 _c
546 151 549 153 553 153 _c
565 153 _l
567 153 569 152 571 150 _c
573 148 574 146 574 144 _c
574 143 573 142 573 141 _c
564 103 548 68 526 37 _c
503 5 475 -10 441 -10 _c
417 -10 397 -2 381 13 _c
364 29 356 48 356 72 _c
356 84 358 97 364 111 _c
372 133 381 159 392 189 _c
403 219 412 247 419 275 _c
426 303 430 327 430 349 _c
430 367 426 383 418 396 _c
410 409 398 416 380 416 _c
355 416 332 410 312 400 _c
292 389 274 375 259 357 _c
243 339 229 318 217 294 _c
149 22 _l
147 12 142 5 134 -1 _c
126 -7 117 -10 107 -10 _c
}_e{99 -10 92 -7 86 -3 _c
80 1 77 8 77 17 _c
_cl}_e}_d
/V{{583 0 55 -21 769 683 _sc
220 -10 _m
140 626 _l
135 640 110 648 65 648 _c
58 648 55 652 55 661 _c
56 668 58 673 60 677 _c
62 681 66 683 72 683 _c
316 683 _l
319 683 321 681 323 679 _c
325 676 326 673 326 670 _c
323 655 319 648 313 648 _c
261 648 233 639 230 621 _c
296 98 _l
604 590 _l
610 600 613 609 613 616 _c
613 628 607 636 597 641 _c
586 645 574 648 560 648 _c
553 648 550 652 550 661 _c
551 666 552 670 553 673 _c
554 676 556 678 558 680 _c
560 682 563 683 567 683 _c
760 683 _l
}_e{766 683 769 678 769 670 _c
766 655 762 648 756 648 _c
706 648 666 626 638 582 _c
636 580 635 580 635 580 _c
266 -10 _l
261 -17 255 -21 247 -21 _c
233 -21 _l
225 -21 221 -17 220 -10 _c
_cl}_e}_d
end readonly def

/BuildGlyph
 {exch begin
 CharStrings exch
 2 copy known not{pop /.notdef}if
 true 3 1 roll get exec
 end}_d

/BuildChar {
 1 index /Encoding get exch get
 1 index /BuildGlyph get exec
}_d

FontName currentdict end definefont pop
%!PS-Adobe-3.0 Resource-Font
%%Title: DejaVu Sans
%%Copyright: Copyright (c) 2003 by Bitstream, Inc. All Rights Reserved. Copyright (c) 2006 by Tavmjong Bah. All Rights Reserved. DejaVu changes are in public domain 
%%Creator: Converted from TrueType by PPR
25 dict begin
/_d{bind def}bind def
/_m{moveto}_d
/_l{lineto}_d
/_cl{closepath eofill}_d
/_c{curveto}_d
/_sc{7 -1 roll{setcachedevice}{pop pop pop pop pop pop}ifelse}_d
/_e{exec}_d
/FontName /DejaVuSans def
/PaintType 0 def
/FontMatrix[.001 0 0 .001 0 0]def
/FontBBox[-1020 -414 1681 1167]def
/FontType 3 def
/Encoding StandardEncoding def
/FontInfo 10 dict dup begin
/FamilyName (DejaVu Sans) def
/FullName (DejaVu Sans) def
/Notice (Copyright (c) 2003 by Bitstream, Inc. All Rights Reserved. Copyright (c) 2006 by Tavmjong Bah. All Rights Reserved. DejaVu changes are in public domain ) def
/Weight (Book) def
/Version (Version 2.31) def
/ItalicAngle 0.0 def
/isFixedPitch false def
/UnderlinePosition -130 def
/UnderlineThickness 90 def
end readonly def
/CharStrings 9 dict dup begin
/space{318 0 0 0 0 0 _sc
}_d
/comma{318 0 77 -115 220 124 _sc
117 124 _m
220 124 _l
220 40 _l
140 -115 _l
77 -115 _l
117 40 _l
117 124 _l
_cl}_d
/zero{636 0 66 -13 570 742 _sc
318 664 _m
267 664 229 639 203 589 _c
177 539 165 464 165 364 _c
165 264 177 189 203 139 _c
229 89 267 64 318 64 _c
369 64 407 89 433 139 _c
458 189 471 264 471 364 _c
471 464 458 539 433 589 _c
407 639 369 664 318 664 _c
318 742 _m
399 742 461 709 505 645 _c
548 580 570 486 570 364 _c
570 241 548 147 505 83 _c
461 19 399 -13 318 -13 _c
236 -13 173 19 130 83 _c
87 147 66 241 66 364 _c
66 486 87 580 130 645 _c
173 709 236 742 318 742 _c
_cl}_d
/one{636 0 110 0 544 729 _sc
124 83 _m
285 83 _l
285 639 _l
110 604 _l
110 694 _l
284 729 _l
383 729 _l
383 83 _l
544 83 _l
544 0 _l
124 0 _l
124 83 _l
_cl}_d
/two{{636 0 73 0 536 742 _sc
192 83 _m
536 83 _l
536 0 _l
73 0 _l
73 83 _l
110 121 161 173 226 239 _c
290 304 331 346 348 365 _c
380 400 402 430 414 455 _c
426 479 433 504 433 528 _c
433 566 419 598 392 622 _c
365 646 330 659 286 659 _c
255 659 222 653 188 643 _c
154 632 117 616 78 594 _c
78 694 _l
118 710 155 722 189 730 _c
223 738 255 742 284 742 _c
359 742 419 723 464 685 _c
509 647 532 597 532 534 _c
532 504 526 475 515 449 _c
504 422 484 390 454 354 _c
446 344 420 317 376 272 _c
332 227 271 164 192 83 _c
_cl}_e}_d
/four{636 0 49 0 580 729 _sc
378 643 _m
129 254 _l
378 254 _l
378 643 _l
352 729 _m
476 729 _l
476 254 _l
580 254 _l
580 172 _l
476 172 _l
476 0 _l
378 0 _l
378 172 _l
49 172 _l
49 267 _l
352 729 _l
_cl}_d
/six{{636 0 70 -13 573 742 _sc
330 404 _m
286 404 251 388 225 358 _c
199 328 186 286 186 234 _c
186 181 199 139 225 109 _c
251 79 286 64 330 64 _c
374 64 409 79 435 109 _c
461 139 474 181 474 234 _c
474 286 461 328 435 358 _c
409 388 374 404 330 404 _c
526 713 _m
526 623 _l
501 635 476 644 451 650 _c
425 656 400 659 376 659 _c
310 659 260 637 226 593 _c
192 549 172 482 168 394 _c
187 422 211 444 240 459 _c
269 474 301 482 336 482 _c
409 482 467 459 509 415 _c
551 371 573 310 573 234 _c
573 159 550 99 506 54 _c
462 9 403 -13 330 -13 _c
246 -13 181 19 137 83 _c
92 147 70 241 70 364 _c
70 479 97 571 152 639 _c
206 707 280 742 372 742 _c
}_e{396 742 421 739 447 735 _c
472 730 498 723 526 713 _c
_cl}_e}_d
/eight{{636 0 68 -13 568 742 _sc
318 346 _m
271 346 234 333 207 308 _c
180 283 167 249 167 205 _c
167 161 180 126 207 101 _c
234 76 271 64 318 64 _c
364 64 401 76 428 102 _c
455 127 469 161 469 205 _c
469 249 455 283 429 308 _c
402 333 365 346 318 346 _c
219 388 _m
177 398 144 418 120 447 _c
96 476 85 511 85 553 _c
85 611 105 657 147 691 _c
188 725 245 742 318 742 _c
390 742 447 725 489 691 _c
530 657 551 611 551 553 _c
551 511 539 476 515 447 _c
491 418 459 398 417 388 _c
464 377 501 355 528 323 _c
554 291 568 251 568 205 _c
568 134 546 80 503 43 _c
459 5 398 -13 318 -13 _c
237 -13 175 5 132 43 _c
89 80 68 134 68 205 _c
68 251 81 291 108 323 _c
134 355 171 377 219 388 _c
}_e{183 544 _m
183 506 194 476 218 455 _c
242 434 275 424 318 424 _c
360 424 393 434 417 455 _c
441 476 453 506 453 544 _c
453 582 441 611 417 632 _c
393 653 360 664 318 664 _c
275 664 242 653 218 632 _c
194 611 183 582 183 544 _c
_cl}_e}_d
/minus{838 0 106 272 732 355 _sc
106 355 _m
732 355 _l
732 272 _l
106 272 _l
106 355 _l
_cl}_d
end readonly def

/BuildGlyph
 {exch begin
 CharStrings exch
 2 copy known not{pop /.notdef}if
 true 3 1 roll get exec
 end}_d

/BuildChar {
 1 index /Encoding get exch get
 1 index /BuildGlyph get exec
}_d

FontName currentdict end definefont pop
end
%%EndProlog
mpldict begin
18 180 translate
576 432 0 0 clipbox
1.000 setlinewidth
1 setlinejoin
2 setlinecap
[] 0 setdash
1.000 setgray
gsave
0 0 m
576 0 l
576 432 l
0 432 l
0 0 l
gsave
fill
grestore
stroke
grestore
gsave
72 43.2 m
518.4 43.2 l
518.4 388.8 l
72 388.8 l
72 43.2 l
fill
grestore
1.618 setlinewidth
0 setlinecap
[1 3] 0 setdash
0.000 setgray
gsave
446.4 345.6 72 43.2 clipbox
103.886 259.215 m
135.771 259.607 l
167.657 266.012 l
231.429 313.221 l
327.086 346.962 l
486.514 370.784 l
stroke
grestore
[] 0 setdash
gsave
446.4 345.6 72 43.2 clipbox
/o {
gsave
newpath
translate
0 5.4 m
-5.4 -5.4 l
5.4 -5.4 l
0 5.4 l
gsave
0.000 0.000 1.000 setrgbcolor
fill
grestore
stroke
grestore
} bind def
103.886 259.215 o
135.771 259.607 o
167.657 266.012 o
231.429 313.221 o
327.086 346.962 o
486.514 370.784 o
grestore
[6 6] 0 setdash
gsave
446.4 345.6 72 43.2 clipbox
103.886 259.28 m
135.771 259.743 l
167.657 252.789 l
231.429 168.541 l
327.086 101.795 l
486.514 70.9992 l
stroke
grestore
[] 0 setdash
0.000 0.000 1.000 setrgbcolor
gsave
446.4 345.6 72 43.2 clipbox
/o {
gsave
newpath
translate
0 5.4 m
-5.4 -5.4 l
5.4 -5.4 l
0 5.4 l
gsave
1.000 setgray
fill
grestore
stroke
grestore
} bind def
103.886 259.28 o
135.771 259.743 o
167.657 252.789 o
231.429 168.541 o
327.086 101.795 o
486.514 70.9992 o
grestore
[1 3] 0 setdash
0.000 setgray
gsave
446.4 345.6 72 43.2 clipbox
103.886 259.208 m
135.771 259.946 l
167.657 269.677 l
231.429 340.203 l
327.086 367.052 l
486.514 374.673 l
stroke
grestore
[] 0 setdash
gsave
446.4 345.6 72 43.2 clipbox
/o {
gsave
newpath
translate
0 -5.4 m
1.4321 -5.4 2.80573 -4.83102 3.81838 -3.81838 c
4.83102 -2.80573 5.4 -1.4321 5.4 0 c
5.4 1.4321 4.83102 2.80573 3.81838 3.81838 c
2.80573 4.83102 1.4321 5.4 0 5.4 c
-1.4321 5.4 -2.80573 4.83102 -3.81838 3.81838 c
-4.83102 2.80573 -5.4 1.4321 -5.4 0 c
-5.4 -1.4321 -4.83102 -2.80573 -3.81838 -3.81838 c
-2.80573 -4.83102 -1.4321 -5.4 0 -5.4 c
cl
gsave
1.000 0.000 0.000 setrgbcolor
fill
grestore
stroke
grestore
} bind def
103.886 259.208 o
135.771 259.946 o
167.657 269.677 o
231.429 340.203 o
327.086 367.052 o
486.514 374.673 o
grestore
[6 6] 0 setdash
gsave
446.4 345.6 72 43.2 clipbox
103.886 259.309 m
135.771 259.939 l
167.657 251.558 l
231.429 137.606 l
327.086 66.4357 l
486.514 66.8022 l
stroke
grestore
[] 0 setdash
1.000 0.000 0.000 setrgbcolor
gsave
446.4 345.6 72 43.2 clipbox
/o {
gsave
newpath
translate
0 -5.4 m
1.4321 -5.4 2.80573 -4.83102 3.81838 -3.81838 c
4.83102 -2.80573 5.4 -1.4321 5.4 0 c
5.4 1.4321 4.83102 2.80573 3.81838 3.81838 c
2.80573 4.83102 1.4321 5.4 0 5.4 c
-1.4321 5.4 -2.80573 4.83102 -3.81838 3.81838 c
-4.83102 2.80573 -5.4 1.4321 -5.4 0 c
-5.4 -1.4321 -4.83102 -2.80573 -3.81838 -3.81838 c
-2.80573 -4.83102 -1.4321 -5.4 0 -5.4 c
cl
gsave
1.000 setgray
fill
grestore
stroke
grestore
} bind def
103.886 259.309 o
135.771 259.939 o
167.657 251.558 o
231.429 137.606 o
327.086 66.4357 o
486.514 66.8022 o
grestore
[1 3] 0 setdash
0.000 setgray
gsave
446.4 345.6 72 43.2 clipbox
103.886 259.212 m
135.771 259.782 l
167.657 271.327 l
231.429 345.477 l
327.086 370.863 l
486.514 380.904 l
stroke
grestore
[] 0 setdash
gsave
446.4 345.6 72 43.2 clipbox
/o {
gsave
newpath
translate
-4.5 -4.5 m
4.5 -4.5 l
4.5 4.5 l
-4.5 4.5 l
-4.5 -4.5 l
gsave
0.000 0.500 0.000 setrgbcolor
fill
grestore
stroke
grestore
} bind def
103.886 259.212 o
135.771 259.782 o
167.657 271.327 o
231.429 345.477 o
327.086 370.863 o
486.514 380.904 o
grestore
[6 6] 0 setdash
gsave
446.4 345.6 72 43.2 clipbox
103.886 259.323 m
135.771 259.978 l
167.657 251.443 l
231.429 135.148 l
327.086 57.9999 l
486.514 56.8956 l
stroke
grestore
[] 0 setdash
0.000 0.500 0.000 setrgbcolor
gsave
446.4 345.6 72 43.2 clipbox
/o {
gsave
newpath
translate
-4.5 -4.5 m
4.5 -4.5 l
4.5 4.5 l
-4.5 4.5 l
-4.5 -4.5 l
gsave
1.000 setgray
fill
grestore
stroke
grestore
} bind def
103.886 259.323 o
135.771 259.978 o
167.657 251.443 o
231.429 135.148 o
327.086 57.9999 o
486.514 56.8956 o
grestore
0.500 setlinewidth
[1 3] 0 setdash
0.000 setgray
gsave
446.4 345.6 72 43.2 clipbox
72 43.2 m
72 388.8 l
stroke
grestore
[] 0 setdash
gsave
/o {
gsave
newpath
translate
0 0 m
0 4 l
stroke
grestore
} bind def
72 43.2 o
grestore
gsave
/o {
gsave
newpath
translate
0 0 m
0 -4 l
stroke
grestore
} bind def
72 388.8 o
grestore
/DejaVuSans findfont
12.000 scalefont
setfont
gsave
68.976562 30.121875 translate
0.000000 rotate
0.000000 0.171875 m /zero glyphshow
grestore
[1 3] 0 setdash
gsave
446.4 345.6 72 43.2 clipbox
135.771 43.2 m
135.771 388.8 l
stroke
grestore
[] 0 setdash
gsave
/o {
gsave
newpath
translate
0 0 m
0 4 l
stroke
grestore
} bind def
135.771 43.2 o
grestore
gsave
/o {
gsave
newpath
translate
0 0 m
0 -4 l
stroke
grestore
} bind def
135.771 388.8 o
grestore
gsave
132.990179 30.293750 translate
0.000000 rotate
0.000000 0.000000 m /two glyphshow
grestore
[1 3] 0 setdash
gsave
446.4 345.6 72 43.2 clipbox
199.543 43.2 m
199.543 388.8 l
stroke
grestore
[] 0 setdash
gsave
/o {
gsave
newpath
translate
0 0 m
0 4 l
stroke
grestore
} bind def
199.543 43.2 o
grestore
gsave
/o {
gsave
newpath
translate
0 0 m
0 -4 l
stroke
grestore
} bind def
199.543 388.8 o
grestore
gsave
196.355357 30.450000 translate
0.000000 rotate
0.000000 0.000000 m /four glyphshow
grestore
[1 3] 0 setdash
gsave
446.4 345.6 72 43.2 clipbox
263.314 43.2 m
263.314 388.8 l
stroke
grestore
[] 0 setdash
gsave
/o {
gsave
newpath
translate
0 0 m
0 4 l
stroke
grestore
} bind def
263.314 43.2 o
grestore
gsave
/o {
gsave
newpath
translate
0 0 m
0 -4 l
stroke
grestore
} bind def
263.314 388.8 o
grestore
gsave
260.298661 30.121875 translate
0.000000 rotate
0.000000 0.171875 m /six glyphshow
grestore
[1 3] 0 setdash
gsave
446.4 345.6 72 43.2 clipbox
327.086 43.2 m
327.086 388.8 l
stroke
grestore
[] 0 setdash
gsave
/o {
gsave
newpath
translate
0 0 m
0 4 l
stroke
grestore
} bind def
327.086 43.2 o
grestore
gsave
/o {
gsave
newpath
translate
0 0 m
0 -4 l
stroke
grestore
} bind def
327.086 388.8 o
grestore
gsave
324.085714 30.121875 translate
0.000000 rotate
0.000000 0.171875 m /eight glyphshow
grestore
[1 3] 0 setdash
gsave
446.4 345.6 72 43.2 clipbox
390.857 43.2 m
390.857 388.8 l
stroke
grestore
[] 0 setdash
gsave
/o {
gsave
newpath
translate
0 0 m
0 4 l
stroke
grestore
} bind def
390.857 43.2 o
grestore
gsave
/o {
gsave
newpath
translate
0 0 m
0 -4 l
stroke
grestore
} bind def
390.857 388.8 o
grestore
gsave
384.271205 30.121875 translate
0.000000 rotate
0.000000 0.171875 m /one glyphshow
7.634766 0.171875 m /zero glyphshow
grestore
[1 3] 0 setdash
gsave
446.4 345.6 72 43.2 clipbox
454.629 43.2 m
454.629 388.8 l
stroke
grestore
[] 0 setdash
gsave
/o {
gsave
newpath
translate
0 0 m
0 4 l
stroke
grestore
} bind def
454.629 43.2 o
grestore
gsave
/o {
gsave
newpath
translate
0 0 m
0 -4 l
stroke
grestore
} bind def
454.629 388.8 o
grestore
gsave
448.245759 30.293750 translate
0.000000 rotate
0.000000 0.000000 m /one glyphshow
7.634766 0.000000 m /two glyphshow
grestore
[1 3] 0 setdash
gsave
446.4 345.6 72 43.2 clipbox
518.4 43.2 m
518.4 388.8 l
stroke
grestore
[] 0 setdash
gsave
/o {
gsave
newpath
translate
0 0 m
0 4 l
stroke
grestore
} bind def
518.4 43.2 o
grestore
gsave
/o {
gsave
newpath
translate
0 0 m
0 -4 l
stroke
grestore
} bind def
518.4 388.8 o
grestore
gsave
511.751562 30.450000 translate
0.000000 rotate
0.000000 0.000000 m /one glyphshow
7.634766 0.000000 m /four glyphshow
grestore
gsave
267.200000 -0.878125 translate
0.000000 rotate
/Cmmi10 findfont
20.736 scalefont
setfont
0.000000 10.453125 moveto
/R glyphshow

15.733017 10.453125 moveto
/slash glyphshow

26.100204 10.453125 moveto
/L glyphshow

/Cmmi10 findfont
14.5152 scalefont
setfont
40.203217 5.163501 moveto
/n glyphshow

/Cmmi10 findfont
10.16064 scalefont
setfont
48.913066 1.460764 moveto
/e glyphshow


grestore
[1 3] 0 setdash
gsave
446.4 345.6 72 43.2 clipbox
72 43.2 m
518.4 43.2 l
stroke
grestore
[] 0 setdash
gsave
/o {
gsave
newpath
translate
0 0 m
4 0 l
stroke
grestore
} bind def
72 43.2 o
grestore
gsave
/o {
gsave
newpath
translate
0 0 m
-4 0 l
stroke
grestore
} bind def
518.4 43.2 o
grestore
gsave
37.078125 38.660937 translate
0.000000 rotate
0.000000 0.171875 m /minus glyphshow
10.054688 0.171875 m /one glyphshow
17.689453 0.171875 m /zero glyphshow
25.324219 0.171875 m /zero glyphshow
grestore
[1 3] 0 setdash
gsave
446.4 345.6 72 43.2 clipbox
72 86.4 m
518.4 86.4 l
stroke
grestore
[] 0 setdash
gsave
/o {
gsave
newpath
translate
0 0 m
4 0 l
stroke
grestore
} bind def
72 86.4 o
grestore
gsave
/o {
gsave
newpath
translate
0 0 m
-4 0 l
stroke
grestore
} bind def
518.4 86.4 o
grestore
gsave
44.718750 81.860937 translate
0.000000 rotate
0.000000 0.171875 m /minus glyphshow
10.054688 0.171875 m /eight glyphshow
17.689453 0.171875 m /zero glyphshow
grestore
[1 3] 0 setdash
gsave
446.4 345.6 72 43.2 clipbox
72 129.6 m
518.4 129.6 l
stroke
grestore
[] 0 setdash
gsave
/o {
gsave
newpath
translate
0 0 m
4 0 l
stroke
grestore
} bind def
72 129.6 o
grestore
gsave
/o {
gsave
newpath
translate
0 0 m
-4 0 l
stroke
grestore
} bind def
518.4 129.6 o
grestore
gsave
44.718750 125.060937 translate
0.000000 rotate
0.000000 0.171875 m /minus glyphshow
10.054688 0.171875 m /six glyphshow
17.689453 0.171875 m /zero glyphshow
grestore
[1 3] 0 setdash
gsave
446.4 345.6 72 43.2 clipbox
72 172.8 m
518.4 172.8 l
stroke
grestore
[] 0 setdash
gsave
/o {
gsave
newpath
translate
0 0 m
4 0 l
stroke
grestore
} bind def
72 172.8 o
grestore
gsave
/o {
gsave
newpath
translate
0 0 m
-4 0 l
stroke
grestore
} bind def
518.4 172.8 o
grestore
gsave
44.718750 168.260937 translate
0.000000 rotate
0.000000 0.171875 m /minus glyphshow
10.054688 0.171875 m /four glyphshow
17.689453 0.171875 m /zero glyphshow
grestore
[1 3] 0 setdash
gsave
446.4 345.6 72 43.2 clipbox
72 216 m
518.4 216 l
stroke
grestore
[] 0 setdash
gsave
/o {
gsave
newpath
translate
0 0 m
4 0 l
stroke
grestore
} bind def
72 216 o
grestore
gsave
/o {
gsave
newpath
translate
0 0 m
-4 0 l
stroke
grestore
} bind def
518.4 216 o
grestore
gsave
44.718750 211.460938 translate
0.000000 rotate
0.000000 0.171875 m /minus glyphshow
10.054688 0.171875 m /two glyphshow
17.689453 0.171875 m /zero glyphshow
grestore
[1 3] 0 setdash
gsave
446.4 345.6 72 43.2 clipbox
72 259.2 m
518.4 259.2 l
stroke
grestore
[] 0 setdash
gsave
/o {
gsave
newpath
translate
0 0 m
4 0 l
stroke
grestore
} bind def
72 259.2 o
grestore
gsave
/o {
gsave
newpath
translate
0 0 m
-4 0 l
stroke
grestore
} bind def
518.4 259.2 o
grestore
gsave
61.953125 254.660937 translate
0.000000 rotate
0.000000 0.171875 m /zero glyphshow
grestore
[1 3] 0 setdash
gsave
446.4 345.6 72 43.2 clipbox
72 302.4 m
518.4 302.4 l
stroke
grestore
[] 0 setdash
gsave
/o {
gsave
newpath
translate
0 0 m
4 0 l
stroke
grestore
} bind def
72 302.4 o
grestore
gsave
/o {
gsave
newpath
translate
0 0 m
-4 0 l
stroke
grestore
} bind def
518.4 302.4 o
grestore
gsave
54.390625 297.860937 translate
0.000000 rotate
0.000000 0.171875 m /two glyphshow
7.634766 0.171875 m /zero glyphshow
grestore
[1 3] 0 setdash
gsave
446.4 345.6 72 43.2 clipbox
72 345.6 m
518.4 345.6 l
stroke
grestore
[] 0 setdash
gsave
/o {
gsave
newpath
translate
0 0 m
4 0 l
stroke
grestore
} bind def
72 345.6 o
grestore
gsave
/o {
gsave
newpath
translate
0 0 m
-4 0 l
stroke
grestore
} bind def
518.4 345.6 o
grestore
gsave
54.109375 341.060938 translate
0.000000 rotate
0.000000 0.171875 m /four glyphshow
7.634766 0.171875 m /zero glyphshow
grestore
[1 3] 0 setdash
gsave
446.4 345.6 72 43.2 clipbox
72 388.8 m
518.4 388.8 l
stroke
grestore
[] 0 setdash
gsave
/o {
gsave
newpath
translate
0 0 m
4 0 l
stroke
grestore
} bind def
72 388.8 o
grestore
gsave
/o {
gsave
newpath
translate
0 0 m
-4 0 l
stroke
grestore
} bind def
518.4 388.8 o
grestore
gsave
54.359375 384.260938 translate
0.000000 rotate
0.000000 0.171875 m /six glyphshow
7.634766 0.171875 m /zero glyphshow
grestore
gsave
32.078125 172.500000 translate
90.000000 rotate
/Cmmi10 findfont
20.736 scalefont
setfont
0.000000 6.843750 moveto
/D glyphshow

/Cmmi10 findfont
14.5152 scalefont
setfont
17.150406 1.554126 moveto
/Z glyphshow

/DejaVuSans findfont
20.736 scalefont
setfont
31.293915 6.843750 moveto
/comma glyphshow

37.884766 6.843750 moveto
/space glyphshow

/Cmmi10 findfont
20.736 scalefont
setfont
44.475616 6.843750 moveto
/R glyphshow

60.208633 6.843750 moveto
/V glyphshow

/Cmmi10 findfont
14.5152 scalefont
setfont
72.296936 1.554126 moveto
/Z glyphshow


grestore
1.000 setlinewidth
2 setlinecap
gsave
72 388.8 m
518.4 388.8 l
stroke
grestore
gsave
518.4 43.2 m
518.4 388.8 l
stroke
grestore
gsave
72 43.2 m
518.4 43.2 l
stroke
grestore
gsave
72 43.2 m
72 388.8 l
stroke
grestore
gsave
79.2 50.4 m
164.04 50.4 l
164.04 185.764 l
79.2 185.764 l
79.2 50.4 l
cl
gsave
1.000 setgray
fill
grestore
stroke
grestore
1.618 setlinewidth
0 setlinecap
[1 3] 0 setdash
gsave
84.96 174.403 m
113.76 174.403 l
stroke
grestore
[] 0 setdash
gsave
/o {
gsave
newpath
translate
0 5.4 m
-5.4 -5.4 l
5.4 -5.4 l
0 5.4 l
gsave
0.000 0.000 1.000 setrgbcolor
fill
grestore
stroke
grestore
} bind def
99.36 174.403 o
grestore
gsave
125.280000 165.363125 translate
0.000000 rotate
/Cmmi10 findfont
14.4 scalefont
setfont
0.000000 4.171875 moveto
/D glyphshow

/Cmmi10 findfont
10.08 scalefont
setfont
11.903183 0.498525 moveto
/H glyphshow

20.274760 0.498525 moveto
/e glyphshow


grestore
[6 6] 0 setdash
gsave
84.96 152.562 m
113.76 152.562 l
stroke
grestore
[] 0 setdash
0.000 0.000 1.000 setrgbcolor
gsave
/o {
gsave
newpath
translate
0 5.4 m
-5.4 -5.4 l
5.4 -5.4 l
0 5.4 l
gsave
1.000 setgray
fill
grestore
stroke
grestore
} bind def
99.36 152.562 o
grestore
0.000 setgray
gsave
125.280000 143.522500 translate
0.000000 rotate
/Cmmi10 findfont
14.4 scalefont
setfont
0.000000 4.171875 moveto
/R glyphshow

10.919449 4.171875 moveto
/V glyphshow

/Cmmi10 findfont
10.08 scalefont
setfont
19.309296 0.498525 moveto
/H glyphshow

27.680873 0.498525 moveto
/e glyphshow


grestore
[1 3] 0 setdash
gsave
84.96 130.722 m
113.76 130.722 l
stroke
grestore
[] 0 setdash
gsave
/o {
gsave
newpath
translate
0 -5.4 m
1.4321 -5.4 2.80573 -4.83102 3.81838 -3.81838 c
4.83102 -2.80573 5.4 -1.4321 5.4 0 c
5.4 1.4321 4.83102 2.80573 3.81838 3.81838 c
2.80573 4.83102 1.4321 5.4 0 5.4 c
-1.4321 5.4 -2.80573 4.83102 -3.81838 3.81838 c
-4.83102 2.80573 -5.4 1.4321 -5.4 0 c
-5.4 -1.4321 -4.83102 -2.80573 -3.81838 -3.81838 c
-2.80573 -4.83102 -1.4321 -5.4 0 -5.4 c
cl
gsave
1.000 0.000 0.000 setrgbcolor
fill
grestore
stroke
grestore
} bind def
99.36 130.722 o
grestore
gsave
125.280000 121.681875 translate
0.000000 rotate
/Cmmi10 findfont
14.4 scalefont
setfont
0.000000 4.171875 moveto
/D glyphshow

/Cmmi10 findfont
10.08 scalefont
setfont
11.903183 0.498525 moveto
/N glyphshow

19.994391 0.498525 moveto
/e glyphshow


grestore
[6 6] 0 setdash
gsave
84.96 108.881 m
113.76 108.881 l
stroke
grestore
[] 0 setdash
1.000 0.000 0.000 setrgbcolor
gsave
/o {
gsave
newpath
translate
0 -5.4 m
1.4321 -5.4 2.80573 -4.83102 3.81838 -3.81838 c
4.83102 -2.80573 5.4 -1.4321 5.4 0 c
5.4 1.4321 4.83102 2.80573 3.81838 3.81838 c
2.80573 4.83102 1.4321 5.4 0 5.4 c
-1.4321 5.4 -2.80573 4.83102 -3.81838 3.81838 c
-4.83102 2.80573 -5.4 1.4321 -5.4 0 c
-5.4 -1.4321 -4.83102 -2.80573 -3.81838 -3.81838 c
-2.80573 -4.83102 -1.4321 -5.4 0 -5.4 c
cl
gsave
1.000 setgray
fill
grestore
stroke
grestore
} bind def
99.36 108.881 o
grestore
0.000 setgray
gsave
125.280000 99.841250 translate
0.000000 rotate
/Cmmi10 findfont
14.4 scalefont
setfont
0.000000 4.171875 moveto
/R glyphshow

10.919449 4.171875 moveto
/V glyphshow

/Cmmi10 findfont
10.08 scalefont
setfont
19.309296 0.498525 moveto
/N glyphshow

27.400504 0.498525 moveto
/e glyphshow


grestore
[1 3] 0 setdash
gsave
84.96 87.0406 m
113.76 87.0406 l
stroke
grestore
[] 0 setdash
gsave
/o {
gsave
newpath
translate
-4.5 -4.5 m
4.5 -4.5 l
4.5 4.5 l
-4.5 4.5 l
-4.5 -4.5 l
gsave
0.000 0.500 0.000 setrgbcolor
fill
grestore
stroke
grestore
} bind def
99.36 87.0406 o
grestore
gsave
125.280000 78.000625 translate
0.000000 rotate
/Cmmi10 findfont
14.4 scalefont
setfont
0.000000 4.171875 moveto
/D glyphshow

/Cmmi10 findfont
10.08 scalefont
setfont
11.903183 0.498525 moveto
/N glyphshow

19.994391 0.498525 moveto
/i glyphshow


grestore
[6 6] 0 setdash
gsave
84.96 65.2 m
113.76 65.2 l
stroke
grestore
[] 0 setdash
0.000 0.500 0.000 setrgbcolor
gsave
/o {
gsave
newpath
translate
-4.5 -4.5 m
4.5 -4.5 l
4.5 4.5 l
-4.5 4.5 l
-4.5 -4.5 l
gsave
1.000 setgray
fill
grestore
stroke
grestore
} bind def
99.36 65.2 o
grestore
0.000 setgray
gsave
125.280000 56.160000 translate
0.000000 rotate
/Cmmi10 findfont
14.4 scalefont
setfont
0.000000 4.171875 moveto
/R glyphshow

10.919449 4.171875 moveto
/V glyphshow

/Cmmi10 findfont
10.08 scalefont
setfont
19.309296 0.498525 moveto
/N glyphshow

27.400504 0.498525 moveto
/i glyphshow


grestore

end
showpage
