%!PS-Adobe-3.0 EPSF-3.0
%%Title: omn_figures/timeseries.eps
%%Creator: matplotlib version 0.99.3, http://matplotlib.sourceforge.net/
%%CreationDate: Tue Jan 24 11:16:32 2012
%%Orientation: portrait
%%BoundingBox: 18 180 594 612
%%EndComments
%%BeginProlog
/mpldict 10 dict def
mpldict begin
/m { moveto } bind def
/l { lineto } bind def
/r { rlineto } bind def
/c { curveto } bind def
/cl { closepath } bind def
/box {
m
1 index 0 r
0 exch r
neg 0 r
cl
} bind def
/clipbox {
box
clip
newpath
} bind def
%!PS-Adobe-3.0 Resource-Font
%%Title: cmr10
%%Copyright: Copyright (C) 1994, Basil K. Malyshev. All Rights Reserved.012BaKoMa Fonts Collection, Level-B.
%%Creator: Converted from TrueType by PPR
25 dict begin
/_d{bind def}bind def
/_m{moveto}_d
/_l{lineto}_d
/_cl{closepath eofill}_d
/_c{curveto}_d
/_sc{7 -1 roll{setcachedevice}{pop pop pop pop pop pop}ifelse}_d
/_e{exec}_d
/FontName /Cmr10 def
/PaintType 0 def
/FontMatrix[.001 0 0 .001 0 0]def
/FontBBox[-43 -249 1009 750]def
/FontType 3 def
/Encoding StandardEncoding def
/FontInfo 10 dict dup begin
/FamilyName (cmr10) def
/FullName (cmr10) def
/Notice (Copyright (C) 1994, Basil K. Malyshev. All Rights Reserved.012BaKoMa Fonts Collection, Level-B. ) def
/Weight (Regular) def
/Version (1.1/12-Nov-94) def
/ItalicAngle 0.0 def
/isFixedPitch false def
/UnderlinePosition -133 def
/UnderlineThickness 20 def
end readonly def
/CharStrings 8 dict dup begin
/Gamma{625 0 31 0 582 683 _sc
31 0 _m
31 35 _l
99 35 134 45 134 67 _c
134 616 _l
134 637 99 648 31 648 _c
31 683 _l
554 683 _l
582 454 _l
553 454 _l
548 496 542 529 536 552 _c
530 575 520 594 507 608 _c
494 622 476 632 452 638 _c
428 644 396 648 355 648 _c
278 648 _l
266 648 256 647 250 646 _c
243 645 237 642 233 638 _c
229 633 227 626 227 616 _c
227 67 _l
227 45 269 35 355 35 _c
355 0 _l
31 0 _l
_cl}_d
/zero{{500 0 39 -21 460 666 _sc
250 -21 _m
168 -21 112 12 83 79 _c
53 146 39 226 39 319 _c
39 377 44 431 55 482 _c
65 533 86 576 118 612 _c
149 648 193 666 250 666 _c
294 666 330 655 358 634 _c
386 612 407 585 422 551 _c
436 517 446 480 452 441 _c
457 402 460 361 460 319 _c
460 261 454 208 444 158 _c
433 108 412 65 381 31 _c
350 -3 306 -21 250 -21 _c
250 4 _m
287 4 315 23 333 61 _c
351 99 362 141 366 187 _c
370 233 373 283 373 335 _c
373 385 370 431 366 473 _c
362 515 351 554 333 588 _c
315 622 287 640 250 640 _c
212 640 184 622 166 588 _c
148 554 136 515 132 473 _c
128 431 126 385 126 335 _c
126 297 126 262 128 230 _c
130 197 135 163 143 128 _c
151 93 163 64 181 40 _c
198 16 221 4 250 4 _c
_cl}_e}_d
/equal{{777 0 56 133 721 367 _sc
75 133 _m
69 133 65 135 61 139 _c
57 143 56 148 56 153 _c
56 158 57 163 61 167 _c
65 171 69 173 75 173 _c
703 173 _l
707 173 711 171 715 167 _c
719 163 721 158 721 153 _c
721 148 719 143 715 139 _c
711 135 707 133 703 133 _c
75 133 _l
75 327 _m
69 327 65 329 61 333 _c
57 337 56 341 56 347 _c
56 351 57 356 61 360 _c
65 364 69 367 75 367 _c
703 367 _l
707 367 711 364 715 360 _c
719 356 721 351 721 347 _c
721 341 719 337 715 333 _c
711 329 707 327 703 327 _c
75 327 _l
_cl}_e}_d
/two{{500 0 50 0 449 666 _sc
50 0 _m
50 27 _l
50 28 50 30 52 32 _c
207 204 _l
230 229 249 250 264 268 _c
278 285 293 305 307 327 _c
321 349 333 372 341 396 _c
349 419 354 444 354 470 _c
354 497 349 523 339 548 _c
329 573 314 593 294 608 _c
274 623 249 631 221 631 _c
192 631 166 622 143 605 _c
119 587 103 565 94 537 _c
96 537 100 538 105 538 _c
119 538 132 533 143 523 _c
153 513 159 500 159 484 _c
159 468 153 455 143 445 _c
132 434 119 429 105 429 _c
89 429 76 434 66 445 _c
55 456 50 469 50 484 _c
50 508 54 532 64 554 _c
73 576 86 595 104 613 _c
122 630 142 643 164 652 _c
186 661 210 666 236 666 _c
274 666 309 658 342 642 _c
375 626 401 603 420 573 _c
439 543 449 509 449 470 _c
449 441 442 414 430 388 _c
417 362 401 338 381 317 _c
361 295 336 271 305 244 _c
274 217 254 199 244 190 _c
131 81 _l
227 81 _l
}_e{274 81 313 81 345 82 _c
377 82 394 84 396 86 _c
404 94 412 125 420 178 _c
449 178 _l
421 0 _l
50 0 _l
_cl}_e}_d
/bracketleft{277 0 118 -249 255 750 _sc
118 -249 _m
118 750 _l
255 750 _l
255 710 _l
158 710 _l
158 -209 _l
255 -209 _l
255 -249 _l
118 -249 _l
_cl}_d
/bracketright{277 0 22 -249 159 750 _sc
22 -249 _m
22 -209 _l
119 -209 _l
119 710 _l
22 710 _l
22 750 _l
159 750 _l
159 -249 _l
22 -249 _l
_cl}_d
/three{{500 0 42 -21 457 666 _sc
95 77 _m
111 54 132 37 158 26 _c
184 15 213 10 243 10 _c
281 10 309 26 325 59 _c
341 92 350 130 350 172 _c
350 190 348 209 345 228 _c
341 247 335 265 327 281 _c
319 297 308 310 294 320 _c
280 330 262 335 242 335 _c
176 335 _l
170 335 167 338 167 344 _c
167 353 _l
167 358 170 361 176 361 _c
231 365 _l
254 365 273 373 289 391 _c
305 409 316 430 323 456 _c
330 481 334 505 334 528 _c
334 560 326 586 311 606 _c
296 626 273 637 243 637 _c
217 637 193 632 170 622 _c
147 612 129 598 115 579 _c
116 579 117 580 118 580 _c
119 580 120 580 122 580 _c
137 580 150 574 160 564 _c
170 554 175 541 175 527 _c
175 512 170 499 160 489 _c
150 479 137 474 122 474 _c
}_e{107 474 94 479 84 489 _c
74 499 69 512 69 527 _c
69 555 77 580 95 601 _c
112 622 134 638 161 649 _c
188 660 215 666 243 666 _c
263 666 284 663 307 657 _c
329 651 350 642 368 631 _c
386 619 401 605 413 588 _c
424 570 430 550 430 528 _c
430 500 423 474 411 450 _c
399 426 382 406 360 389 _c
338 371 314 358 288 350 _c
317 344 345 333 371 317 _c
397 301 417 280 433 255 _c
449 229 457 202 457 173 _c
457 136 446 103 426 73 _c
406 43 379 19 347 3 _c
314 -13 279 -21 243 -21 _c
211 -21 180 -15 149 -3 _c
117 8 92 25 72 49 _c
52 73 42 101 42 135 _c
42 151 47 165 58 176 _c
69 187 83 193 100 193 _c
110 193 120 190 129 185 _c
138 180 145 173 150 164 _c
155 154 158 145 158 135 _c
158 118 152 104 141 93 _c
129 82 116 77 100 77 _c
95 77 _l
_cl}_e}_d
/five{{500 0 50 -21 449 666 _sc
87 114 _m
93 94 104 76 118 60 _c
132 44 149 32 169 23 _c
188 14 208 10 229 10 _c
277 10 310 28 328 66 _c
346 103 356 148 356 202 _c
356 225 355 244 355 260 _c
354 276 352 291 348 306 _c
342 329 331 349 315 367 _c
299 385 281 394 259 394 _c
236 394 217 390 201 384 _c
185 377 171 369 161 360 _c
151 350 142 341 134 331 _c
126 321 122 315 120 315 _c
109 315 _l
107 315 104 316 102 318 _c
100 320 99 322 99 324 _c
99 658 _l
99 660 100 661 102 663 _c
104 665 106 666 109 666 _c
112 666 _l
156 644 204 634 255 634 _c
304 634 352 644 398 666 _c
401 666 _l
403 666 405 665 407 663 _c
409 661 410 660 410 658 _c
410 649 _l
}_e{410 645 409 644 408 644 _c
385 614 356 590 322 573 _c
288 556 252 548 216 548 _c
189 548 162 551 134 559 _c
134 370 _l
156 388 175 400 193 408 _c
210 416 232 420 260 420 _c
296 420 329 409 358 388 _c
387 366 409 339 425 305 _c
441 271 449 236 449 201 _c
449 161 439 124 419 90 _c
399 56 373 29 339 9 _c
305 -11 269 -21 229 -21 _c
196 -21 166 -12 138 4 _c
110 20 89 43 73 72 _c
57 100 50 131 50 163 _c
50 178 54 190 64 200 _c
74 209 86 214 101 214 _c
115 214 128 209 138 199 _c
148 189 153 177 153 163 _c
153 149 148 137 138 127 _c
128 117 115 112 101 112 _c
99 112 96 112 93 112 _c
90 112 88 113 87 114 _c
_cl}_e}_d
end readonly def

/BuildGlyph
 {exch begin
 CharStrings exch
 2 copy known not{pop /.notdef}if
 true 3 1 roll get exec
 end}_d

/BuildChar {
 1 index /Encoding get exch get
 1 index /BuildGlyph get exec
}_d

FontName currentdict end definefont pop
%!PS-Adobe-3.0 Resource-Font
%%Title: cmmi10
%%Copyright: Copyright (C) 1994, Basil K. Malyshev. All Rights Reserved.012BaKoMa Fonts Collection, Level-B.
%%Creator: Converted from TrueType by PPR
25 dict begin
/_d{bind def}bind def
/_m{moveto}_d
/_l{lineto}_d
/_cl{closepath eofill}_d
/_c{curveto}_d
/_sc{7 -1 roll{setcachedevice}{pop pop pop pop pop pop}ifelse}_d
/_e{exec}_d
/FontName /Cmmi10 def
/PaintType 0 def
/FontMatrix[.001 0 0 .001 0 0]def
/FontBBox[-33 -249 1048 750]def
/FontType 3 def
/Encoding StandardEncoding def
/FontInfo 10 dict dup begin
/FamilyName (cmmi10) def
/FullName (cmmi10) def
/Notice (Copyright (C) 1994, Basil K. Malyshev. All Rights Reserved.012BaKoMa Fonts Collection, Level-B. ) def
/Weight (Regular) def
/Version (1.1/12-Nov-94) def
/ItalicAngle 0.0 def
/isFixedPitch false def
/UnderlinePosition -133 def
/UnderlineThickness 20 def
end readonly def
/CharStrings 10 dict dup begin
/e{{465 0 44 -10 430 442 _sc
201 -10 _m
169 -10 141 -2 117 14 _c
93 30 75 53 63 81 _c
50 109 44 138 44 170 _c
44 217 56 262 80 304 _c
104 346 136 379 177 404 _c
218 429 262 442 309 442 _c
337 442 362 434 384 419 _c
405 404 416 383 416 356 _c
416 317 400 288 370 270 _c
339 251 304 239 266 235 _c
228 231 185 229 139 229 _c
136 229 _l
125 189 120 155 120 127 _c
120 97 126 71 140 49 _c
154 26 175 15 203 15 _c
243 15 281 24 318 42 _c
354 60 384 86 407 118 _c
409 120 411 121 415 121 _c
418 121 421 119 425 115 _c
428 111 430 108 430 105 _c
430 102 429 100 428 99 _c
404 65 371 38 330 19 _c
288 0 245 -10 201 -10 _c
142 255 _m
}_e{180 255 216 256 249 260 _c
282 264 312 273 339 287 _c
365 301 379 324 379 355 _c
379 367 375 378 368 387 _c
361 396 352 403 342 408 _c
331 413 320 416 308 416 _c
280 416 254 408 232 393 _c
209 377 190 357 176 333 _c
161 308 150 282 142 255 _c
_cl}_e}_d
/t{{361 0 22 -10 330 626 _sc
62 81 _m
62 91 63 100 65 109 _c
137 396 _l
32 396 _l
25 396 22 400 22 409 _c
24 423 29 431 35 431 _c
146 431 _l
186 594 _l
188 602 193 610 201 616 _c
209 622 218 626 228 626 _c
236 626 243 623 249 618 _c
255 613 258 606 258 598 _c
258 596 257 594 257 593 _c
257 592 257 591 257 590 _c
217 431 _l
320 431 _l
326 431 330 426 330 418 _c
330 416 329 414 328 410 _c
327 406 326 402 324 400 _c
322 397 320 396 317 396 _c
208 396 _l
136 107 _l
131 88 129 72 129 58 _c
}_e{129 29 138 15 158 15 _c
187 15 213 28 236 56 _c
258 84 276 114 288 147 _c
290 151 293 153 296 153 _c
308 153 _l
310 153 312 152 314 150 _c
316 148 317 146 317 144 _c
317 142 316 141 316 141 _c
301 101 280 65 252 35 _c
224 5 192 -10 156 -10 _c
129 -10 107 -1 89 15 _c
71 32 62 54 62 81 _c
_cl}_e}_d
/period{277 0 84 0 194 110 _sc
84 55 _m
84 70 89 83 100 94 _c
111 104 124 110 139 110 _c
148 110 157 107 166 102 _c
174 97 181 90 186 82 _c
191 73 194 64 194 55 _c
194 40 188 27 178 16 _c
167 5 154 0 139 0 _c
124 0 111 5 100 16 _c
89 27 84 40 84 55 _c
_cl}_d
/L{{680 0 37 0 645 683 _sc
47 0 _m
40 0 37 4 37 13 _c
37 15 38 18 39 22 _c
40 26 41 29 43 31 _c
45 33 47 35 50 35 _c
90 35 119 37 135 42 _c
143 44 150 53 154 69 _c
291 618 _l
292 624 293 629 293 632 _c
293 639 289 643 281 644 _c
268 646 244 648 209 648 _c
202 648 199 652 199 661 _c
201 669 203 675 205 678 _c
206 681 210 683 216 683 _c
511 683 _l
517 683 520 678 520 670 _c
519 663 518 658 517 654 _c
515 650 512 648 507 648 _c
}_e{457 648 424 646 408 643 _c
392 640 382 630 378 614 _c
241 65 _l
238 57 237 49 237 43 _c
237 37 248 35 271 35 _c
364 35 _l
416 35 458 45 491 66 _c
523 87 547 111 563 137 _c
579 163 592 190 603 218 _c
613 246 621 261 626 262 _c
635 262 _l
641 262 645 257 645 249 _c
556 7 _l
555 2 552 0 547 0 _c
47 0 _l
_cl}_e}_d
/s{{468 0 52 -10 419 442 _sc
87 61 _m
105 30 141 15 195 15 _c
218 15 240 19 261 27 _c
282 35 300 47 314 63 _c
328 79 335 98 335 121 _c
335 138 328 152 316 163 _c
304 174 289 182 271 186 _c
217 197 _l
192 203 172 214 156 231 _c
140 248 132 269 132 293 _c
132 322 140 348 156 371 _c
172 394 193 412 219 424 _c
245 436 273 442 302 442 _c
332 442 359 434 383 420 _c
407 405 419 384 419 356 _c
419 340 414 327 406 315 _c
397 303 385 298 370 298 _c
361 298 353 300 347 306 _c
341 312 338 319 338 328 _c
338 336 340 343 344 351 _c
348 358 354 364 362 368 _c
369 372 377 375 385 375 _c
379 389 368 399 352 406 _c
336 412 318 416 300 416 _c
282 416 265 412 249 406 _c
232 399 218 389 208 376 _c
198 362 193 347 193 329 _c
193 317 197 306 205 297 _c
213 288 224 282 237 278 _c
}_e{295 266 _l
313 262 330 255 346 245 _c
361 235 373 222 382 207 _c
391 192 396 175 396 156 _c
396 131 389 106 375 82 _c
361 58 344 39 324 25 _c
288 1 245 -10 194 -10 _c
158 -10 126 -2 96 14 _c
66 30 52 54 52 86 _c
52 104 57 119 67 133 _c
77 147 92 154 111 154 _c
121 154 130 150 138 144 _c
145 137 149 128 149 118 _c
149 102 143 89 132 78 _c
120 66 107 61 92 61 _c
87 61 _l
_cl}_e}_d
/slash{500 0 56 -249 443 750 _sc
56 -229 _m
56 -227 56 -225 57 -225 _c
405 738 _l
406 742 408 745 412 747 _c
415 749 419 750 423 750 _c
429 750 433 748 437 744 _c
441 740 443 736 443 730 _c
443 726 _l
95 -237 _l
91 -245 84 -249 76 -249 _c
70 -249 66 -247 62 -243 _c
58 -239 56 -234 56 -229 _c
_cl}_d
/R{{759 0 39 -21 755 683 _sc
49 0 _m
42 0 39 4 39 13 _c
39 15 40 18 41 22 _c
41 26 43 29 45 31 _c
47 33 49 35 52 35 _c
92 35 121 37 137 42 _c
145 44 152 53 156 69 _c
293 618 _l
294 624 295 629 295 632 _c
295 639 291 643 283 644 _c
270 646 246 648 211 648 _c
204 648 201 652 201 661 _c
201 663 202 666 203 670 _c
204 674 205 677 207 679 _c
209 681 211 683 214 683 _c
517 683 _l
541 683 566 680 592 675 _c
618 669 642 661 664 649 _c
686 637 704 621 718 601 _c
732 581 739 558 739 532 _c
739 498 727 468 705 442 _c
683 416 655 394 621 376 _c
587 358 555 346 523 339 _c
}_e{549 329 570 314 587 294 _c
603 273 612 249 612 222 _c
612 218 611 216 611 214 _c
611 212 611 210 611 208 _c
603 119 _l
602 106 601 95 601 86 _c
600 76 600 69 600 64 _c
600 46 602 31 608 20 _c
613 9 624 4 640 4 _c
660 4 679 13 695 33 _c
711 52 721 73 726 96 _c
728 102 732 105 736 105 _c
745 105 _l
751 105 755 100 755 92 _c
750 72 742 54 732 37 _c
721 19 707 5 691 -5 _c
675 -15 657 -21 639 -21 _c
600 -21 567 -12 539 4 _c
511 21 498 48 498 86 _c
498 100 499 112 502 123 _c
524 212 _l
526 220 528 229 528 240 _c
528 268 518 289 500 305 _c
481 321 457 329 429 329 _c
306 329 _l
}_e{240 65 _l
238 59 238 55 238 51 _c
238 44 242 40 250 39 _c
262 36 286 35 322 35 _c
328 35 332 30 332 22 _c
330 12 328 6 327 4 _c
325 1 321 0 315 0 _c
49 0 _l
312 355 _m
423 355 _l
495 355 550 373 587 410 _c
603 427 617 449 627 475 _c
637 501 642 527 642 553 _c
642 577 634 597 620 611 _c
606 625 588 634 567 640 _c
545 645 522 648 496 648 _c
429 648 _l
411 648 399 646 393 643 _c
387 640 381 630 377 614 _c
312 355 _l
_cl}_e}_d
/n{{600 0 27 -10 574 442 _sc
77 17 _m
77 21 77 24 78 26 _c
153 324 _l
157 342 160 359 160 373 _c
160 401 150 416 131 416 _c
110 416 94 403 84 378 _c
74 353 64 322 55 284 _c
55 282 54 280 52 279 _c
50 278 48 278 47 278 _c
35 278 _l
33 278 31 279 29 281 _c
27 283 27 286 27 288 _c
34 317 41 342 48 362 _c
54 382 65 400 79 417 _c
93 433 110 442 132 442 _c
156 442 178 434 198 418 _c
217 402 227 382 227 358 _c
247 384 270 404 297 419 _c
323 434 352 442 382 442 _c
405 442 425 437 443 429 _c
460 421 473 408 483 392 _c
493 376 498 356 498 334 _c
498 306 491 273 479 235 _c
467 196 452 153 434 105 _c
}_e{424 83 420 63 420 45 _c
420 25 427 15 443 15 _c
469 15 490 29 508 57 _c
525 85 537 115 545 147 _c
546 151 549 153 553 153 _c
565 153 _l
567 153 569 152 571 150 _c
573 148 574 146 574 144 _c
574 143 573 142 573 141 _c
564 103 548 68 526 37 _c
503 5 475 -10 441 -10 _c
417 -10 397 -2 381 13 _c
364 29 356 48 356 72 _c
356 84 358 97 364 111 _c
372 133 381 159 392 189 _c
403 219 412 247 419 275 _c
426 303 430 327 430 349 _c
430 367 426 383 418 396 _c
410 409 398 416 380 416 _c
355 416 332 410 312 400 _c
292 389 274 375 259 357 _c
243 339 229 318 217 294 _c
149 22 _l
147 12 142 5 134 -1 _c
126 -7 117 -10 107 -10 _c
}_e{99 -10 92 -7 86 -3 _c
80 1 77 8 77 17 _c
_cl}_e}_d
/c{{432 0 40 -10 430 442 _sc
117 119 _m
117 90 124 65 139 45 _c
154 25 175 15 203 15 _c
243 15 281 24 318 42 _c
354 60 384 86 407 118 _c
409 120 411 121 415 121 _c
418 121 421 119 425 115 _c
428 111 430 108 430 105 _c
430 102 429 100 428 99 _c
404 65 371 38 330 19 _c
288 0 245 -10 201 -10 _c
169 -10 140 -2 116 12 _c
92 26 73 46 60 72 _c
46 97 40 126 40 158 _c
40 203 52 248 77 292 _c
102 336 135 372 177 400 _c
219 428 263 442 309 442 _c
339 442 366 434 390 420 _c
414 405 426 384 426 356 _c
426 338 420 322 410 309 _c
399 296 385 290 367 290 _c
356 290 347 293 340 300 _c
332 306 329 315 329 326 _c
329 342 334 355 346 366 _c
357 377 370 383 386 383 _c
388 383 _l
}_e{380 394 368 402 354 408 _c
339 413 324 416 308 416 _c
269 416 235 399 206 366 _c
176 332 154 292 139 246 _c
124 200 117 157 117 119 _c
_cl}_e}_d
/p{{503 0 -33 -193 491 442 _sc
-24 -193 _m
-30 -193 -33 -188 -33 -180 _c
-31 -165 -26 -158 -20 -158 _c
0 -158 14 -156 22 -152 _c
30 -148 37 -139 42 -124 _c
155 325 _l
159 337 162 353 162 373 _c
162 401 152 416 133 416 _c
112 416 96 403 86 378 _c
76 353 66 322 57 284 _c
57 280 54 278 49 278 _c
37 278 _l
35 278 34 279 32 281 _c
30 283 29 286 29 288 _c
36 317 43 342 50 362 _c
56 382 67 400 81 417 _c
95 433 112 442 134 442 _c
156 442 176 435 194 422 _c
211 409 222 392 227 370 _c
245 391 265 408 287 422 _c
309 435 332 442 356 442 _c
}_e{384 442 408 434 429 419 _c
449 404 465 384 475 360 _c
485 336 491 310 491 282 _c
491 239 480 195 458 149 _c
436 103 406 65 369 35 _c
331 5 291 -10 248 -10 _c
228 -10 211 -4 195 6 _c
179 16 166 31 158 49 _c
113 -128 _l
111 -138 110 -143 110 -145 _c
110 -153 132 -158 176 -158 _c
182 -158 186 -162 186 -171 _c
184 -179 182 -185 180 -188 _c
178 -191 175 -193 169 -193 _c
-24 -193 _l
249 15 _m
272 15 293 24 313 43 _c
333 62 349 84 362 108 _c
370 126 379 147 387 173 _c
395 199 402 226 408 256 _c
414 285 417 308 417 326 _c
417 341 415 355 411 369 _c
407 382 400 393 391 402 _c
381 411 369 416 354 416 _c
329 416 306 407 284 390 _c
262 372 243 351 226 325 _c
226 322 _l
171 101 _l
}_e{175 77 184 56 197 40 _c
210 23 227 15 249 15 _c
_cl}_e}_d
end readonly def

/BuildGlyph
 {exch begin
 CharStrings exch
 2 copy known not{pop /.notdef}if
 true 3 1 roll get exec
 end}_d

/BuildChar {
 1 index /Encoding get exch get
 1 index /BuildGlyph get exec
}_d

FontName currentdict end definefont pop
%!PS-Adobe-3.0 Resource-Font
%%Title: DejaVu Sans
%%Copyright: Copyright (c) 2003 by Bitstream, Inc. All Rights Reserved. Copyright (c) 2006 by Tavmjong Bah. All Rights Reserved. DejaVu changes are in public domain 
%%Creator: Converted from TrueType by PPR
25 dict begin
/_d{bind def}bind def
/_m{moveto}_d
/_l{lineto}_d
/_cl{closepath eofill}_d
/_c{curveto}_d
/_sc{7 -1 roll{setcachedevice}{pop pop pop pop pop pop}ifelse}_d
/_e{exec}_d
/FontName /DejaVuSans def
/PaintType 0 def
/FontMatrix[.001 0 0 .001 0 0]def
/FontBBox[-1020 -414 1681 1167]def
/FontType 3 def
/Encoding StandardEncoding def
/FontInfo 10 dict dup begin
/FamilyName (DejaVu Sans) def
/FullName (DejaVu Sans) def
/Notice (Copyright (c) 2003 by Bitstream, Inc. All Rights Reserved. Copyright (c) 2006 by Tavmjong Bah. All Rights Reserved. DejaVu changes are in public domain ) def
/Weight (Book) def
/Version (Version 2.31) def
/ItalicAngle 0.0 def
/isFixedPitch false def
/UnderlinePosition -130 def
/UnderlineThickness 90 def
end readonly def
/CharStrings 9 dict dup begin
/zero{636 0 66 -13 570 742 _sc
318 664 _m
267 664 229 639 203 589 _c
177 539 165 464 165 364 _c
165 264 177 189 203 139 _c
229 89 267 64 318 64 _c
369 64 407 89 433 139 _c
458 189 471 264 471 364 _c
471 464 458 539 433 589 _c
407 639 369 664 318 664 _c
318 742 _m
399 742 461 709 505 645 _c
548 580 570 486 570 364 _c
570 241 548 147 505 83 _c
461 19 399 -13 318 -13 _c
236 -13 173 19 130 83 _c
87 147 66 241 66 364 _c
66 486 87 580 130 645 _c
173 709 236 742 318 742 _c
_cl}_d
/one{636 0 110 0 544 729 _sc
124 83 _m
285 83 _l
285 639 _l
110 604 _l
110 694 _l
284 729 _l
383 729 _l
383 83 _l
544 83 _l
544 0 _l
124 0 _l
124 83 _l
_cl}_d
/two{{636 0 73 0 536 742 _sc
192 83 _m
536 83 _l
536 0 _l
73 0 _l
73 83 _l
110 121 161 173 226 239 _c
290 304 331 346 348 365 _c
380 400 402 430 414 455 _c
426 479 433 504 433 528 _c
433 566 419 598 392 622 _c
365 646 330 659 286 659 _c
255 659 222 653 188 643 _c
154 632 117 616 78 594 _c
78 694 _l
118 710 155 722 189 730 _c
223 738 255 742 284 742 _c
359 742 419 723 464 685 _c
509 647 532 597 532 534 _c
532 504 526 475 515 449 _c
504 422 484 390 454 354 _c
446 344 420 317 376 272 _c
332 227 271 164 192 83 _c
_cl}_e}_d
/three{{636 0 76 -13 556 742 _sc
406 393 _m
453 383 490 362 516 330 _c
542 298 556 258 556 212 _c
556 140 531 84 482 45 _c
432 6 362 -13 271 -13 _c
240 -13 208 -10 176 -4 _c
144 1 110 10 76 22 _c
76 117 _l
103 101 133 89 166 81 _c
198 73 232 69 268 69 _c
330 69 377 81 409 105 _c
441 129 458 165 458 212 _c
458 254 443 288 413 312 _c
383 336 341 349 287 349 _c
202 349 _l
202 430 _l
291 430 _l
339 430 376 439 402 459 _c
428 478 441 506 441 543 _c
441 580 427 609 401 629 _c
374 649 336 659 287 659 _c
260 659 231 656 200 650 _c
169 644 135 635 98 623 _c
98 711 _l
135 721 170 729 203 734 _c
235 739 266 742 296 742 _c
}_e{370 742 429 725 473 691 _c
517 657 539 611 539 553 _c
539 513 527 479 504 451 _c
481 423 448 403 406 393 _c
_cl}_e}_d
/four{636 0 49 0 580 729 _sc
378 643 _m
129 254 _l
378 254 _l
378 643 _l
352 729 _m
476 729 _l
476 254 _l
580 254 _l
580 172 _l
476 172 _l
476 0 _l
378 0 _l
378 172 _l
49 172 _l
49 267 _l
352 729 _l
_cl}_d
/five{{636 0 77 -13 549 729 _sc
108 729 _m
495 729 _l
495 646 _l
198 646 _l
198 467 _l
212 472 227 476 241 478 _c
255 480 270 482 284 482 _c
365 482 429 459 477 415 _c
525 370 549 310 549 234 _c
549 155 524 94 475 51 _c
426 8 357 -13 269 -13 _c
238 -13 207 -10 175 -6 _c
143 -1 111 6 77 17 _c
77 116 _l
106 100 136 88 168 80 _c
199 72 232 69 267 69 _c
323 69 368 83 401 113 _c
433 143 450 183 450 234 _c
450 284 433 324 401 354 _c
368 384 323 399 267 399 _c
241 399 214 396 188 390 _c
162 384 135 375 108 363 _c
108 729 _l
_cl}_e}_d
/six{{636 0 70 -13 573 742 _sc
330 404 _m
286 404 251 388 225 358 _c
199 328 186 286 186 234 _c
186 181 199 139 225 109 _c
251 79 286 64 330 64 _c
374 64 409 79 435 109 _c
461 139 474 181 474 234 _c
474 286 461 328 435 358 _c
409 388 374 404 330 404 _c
526 713 _m
526 623 _l
501 635 476 644 451 650 _c
425 656 400 659 376 659 _c
310 659 260 637 226 593 _c
192 549 172 482 168 394 _c
187 422 211 444 240 459 _c
269 474 301 482 336 482 _c
409 482 467 459 509 415 _c
551 371 573 310 573 234 _c
573 159 550 99 506 54 _c
462 9 403 -13 330 -13 _c
246 -13 181 19 137 83 _c
92 147 70 241 70 364 _c
70 479 97 571 152 639 _c
206 707 280 742 372 742 _c
}_e{396 742 421 739 447 735 _c
472 730 498 723 526 713 _c
_cl}_e}_d
/eight{{636 0 68 -13 568 742 _sc
318 346 _m
271 346 234 333 207 308 _c
180 283 167 249 167 205 _c
167 161 180 126 207 101 _c
234 76 271 64 318 64 _c
364 64 401 76 428 102 _c
455 127 469 161 469 205 _c
469 249 455 283 429 308 _c
402 333 365 346 318 346 _c
219 388 _m
177 398 144 418 120 447 _c
96 476 85 511 85 553 _c
85 611 105 657 147 691 _c
188 725 245 742 318 742 _c
390 742 447 725 489 691 _c
530 657 551 611 551 553 _c
551 511 539 476 515 447 _c
491 418 459 398 417 388 _c
464 377 501 355 528 323 _c
554 291 568 251 568 205 _c
568 134 546 80 503 43 _c
459 5 398 -13 318 -13 _c
237 -13 175 5 132 43 _c
89 80 68 134 68 205 _c
68 251 81 291 108 323 _c
134 355 171 377 219 388 _c
}_e{183 544 _m
183 506 194 476 218 455 _c
242 434 275 424 318 424 _c
360 424 393 434 417 455 _c
441 476 453 506 453 544 _c
453 582 441 611 417 632 _c
393 653 360 664 318 664 _c
275 664 242 653 218 632 _c
194 611 183 582 183 544 _c
_cl}_e}_d
/minus{838 0 106 272 732 355 _sc
106 355 _m
732 355 _l
732 272 _l
106 272 _l
106 355 _l
_cl}_d
end readonly def

/BuildGlyph
 {exch begin
 CharStrings exch
 2 copy known not{pop /.notdef}if
 true 3 1 roll get exec
 end}_d

/BuildChar {
 1 index /Encoding get exch get
 1 index /BuildGlyph get exec
}_d

FontName currentdict end definefont pop
end
%%EndProlog
mpldict begin
18 180 translate
576 432 0 0 clipbox
1.000 setlinewidth
1 setlinejoin
2 setlinecap
[] 0 setdash
1.000 setgray
gsave
0 0 m
576 0 l
576 432 l
0 432 l
0 0 l
gsave
fill
grestore
stroke
grestore
gsave
72 43.2 m
518.4 43.2 l
518.4 388.8 l
72 388.8 l
72 43.2 l
fill
grestore
1.618 setlinewidth
0.000 setgray
gsave
446.4 345.6 72 43.2 clipbox
220.812 282.619 m
518.376 282.619 l
stroke
grestore
0.750 0.750 0.000 setrgbcolor
gsave
446.4 345.6 72 43.2 clipbox
72 92.5714 m
72.082 93.2247 l
72.328 92.9975 l
72.4919 92.5906 l
72.6559 92.9577 l
72.8199 93.2112 l
72.9839 93.0061 l
73.1478 92.9892 l
73.2298 93.1075 l
73.7218 93.2584 l
76.0994 95.5577 l
77.0833 97.9774 l
78.0672 102.491 l
79.0244 110.168 l
79.9655 123.648 l
81.0112 149.479 l
83.6072 233.998 l
83.9545 231.735 l
84.5155 220.883 l
86.439 176.597 l
87.8757 159.487 l
88.1643 160.625 l
89.4145 181.102 l
90.3122 192.378 l
92.5883 210.038 l
93.7745 218.817 l
96.2314 260.839 l
96.9234 277.186 l
98.0628 310.867 l
98.5793 321.998 l
98.776 320.09 l
99.4892 301.077 l
100.35 276.443 l
101.481 248.37 l
101.776 248.494 l
101.973 244.855 l
102.662 236.2 l
102.859 235.052 l
103.006 235.874 l
103.031 235.904 l
103.104 235.544 l
103.277 234.922 l
103.498 234.996 l
103.793 235.339 l
105.023 244.403 l
108.81 321.507 l
109.523 347.328 l
109.597 347.303 l
109.745 347.97 l
109.843 347.303 l
110.261 342.045 l
110.458 343.329 l
110.507 343.403 l
110.581 342.811 l
111.655 327.56 l
111.792 327.804 l
112.303 320.482 l
112.872 308.917 l
113.068 303.464 l
113.304 295.098 l
113.48 298.781 l
113.578 300.154 l
113.755 297.984 l
114.167 295.802 l
114.246 295.913 l
114.285 295.945 l
114.364 295.685 l
114.599 291.383 l
116.184 260.39 l
116.231 260.091 l
116.349 261.711 l
116.961 269.731 l
117.126 270.264 l
117.315 270.012 l
117.574 268.188 l
117.715 269.301 l
119.058 285.67 l
119.175 284.908 l
119.906 275.663 l
120.353 256.635 l
121.036 239.513 l
121.767 226.997 l
121.908 228.883 l
123.298 257.526 l
124.24 272.506 l
124.9 284.147 l
125.017 283.942 l
125.159 284.735 l
125.418 286.641 l
125.583 285.715 l
126.295 278.028 l
126.515 278.8 l
127.23 286.569 l
129.426 339.996 l
129.504 339.453 l
130.253 330.065 l
130.382 331.774 l
130.641 336.716 l
130.806 333.269 l
132.699 266.981 l
132.842 267.991 l
133.105 264.337 l
133.439 256.183 l
133.702 258.472 l
134.561 267.102 l
134.824 266.539 l
135.445 262.873 l
135.588 264.384 l
136.639 277.063 l
137.188 289.023 l
138 301.19 l
138.096 300.484 l
140.89 259.289 l
141.057 261.091 l
142.538 284.382 l
142.944 287.603 l
143.087 285.866 l
143.732 278.359 l
143.756 278.401 l
143.994 280.417 l
144.162 281.649 l
144.305 280.598 l
145.236 268.425 l
145.356 269.254 l
145.785 279.571 l
146.526 296.335 l
146.573 296.206 l
146.693 295.673 l
146.836 296.611 l
147.075 306.135 l
147.667 321.739 l
147.982 329.399 l
148.326 337.308 l
148.527 335.188 l
148.613 335.086 l
148.699 335.454 l
149.071 338.229 l
149.157 339.088 l
149.272 337.325 l
149.53 333.028 l
149.705 334.227 l
150.024 337.809 l
150.138 336.289 l
150.366 331.124 l
150.548 332.825 l
151.619 359.671 l
151.779 354.931 l
152.6 326.614 l
153.374 311.958 l
153.42 312.178 l
153.56 313.978 l
153.85 313.523 l
153.922 313.198 l
154.556 307.619 l
154.647 308.063 l
155.01 315.654 l
156.115 339.601 l
156.206 339.063 l
156.478 331.991 l
157.37 317.142 l
157.414 317.039 l
157.544 317.742 l
157.74 319.808 l
158.5 329.572 l
158.534 329.441 l
158.76 328.098 l
158.901 329.028 l
159.142 331.127 l
159.263 329.971 l
159.585 318.759 l
159.826 312.884 l
160.007 314.676 l
160.155 316.076 l
160.323 314.39 l
161.796 298.811 l
162.171 300.472 l
162.325 301.684 l
162.369 302.017 l
162.545 300.598 l
162.567 300.563 l
162.611 300.983 l
162.744 302.723 l
162.876 300.331 l
163.405 292.753 l
163.581 288.169 l
165.324 240.891 l
166.144 232.186 l
167.017 224.766 l
167.07 224.731 l
167.149 225.025 l
167.837 233.236 l
170.879 294.301 l
171.09 296.999 l
171.302 295.303 l
171.699 288.433 l
172.201 279.904 l
172.36 280.874 l
172.439 281.158 l
172.572 280.4 l
173.127 274.192 l
173.339 275.967 l
173.603 281.931 l
173.841 280.299 l
174.185 285.204 l
174.502 284.498 l
174.926 273.488 l
176.566 229.199 l
177.703 202.899 l
177.756 202.902 l
177.915 202.492 l
178.232 198.241 l
178.47 199.86 l
179.105 210.762 l
181.38 246.756 l
181.591 244.263 l
181.75 242.794 l
181.909 244.127 l
182.834 259.504 l
183.84 282.338 l
184.236 281.247 l
184.58 278.319 l
185.056 271.069 l
185.268 273.723 l
186.326 297.752 l
186.832 322.66 l
187.361 331.393 l
187.594 334.985 l
187.827 337.925 l
188.017 336.78 l
188.208 335.296 l
188.313 336.575 l
188.483 338.528 l
188.588 336.617 l
190.514 285.67 l
190.747 284.498 l
190.852 285.335 l
192.1 304.538 l
192.227 303.111 l
192.329 302.054 l
192.456 304.163 l
192.735 310.551 l
192.989 309.008 l
193.091 308.687 l
193.167 309.218 l
193.345 311.279 l
193.573 310.596 l
194.005 306.683 l
194.132 307.87 l
194.259 309.5 l
194.411 307.707 l
194.792 301.499 l
194.944 301.929 l
195.833 292.644 l
196.061 287.497 l
196.264 289.405 l
196.341 289.929 l
196.569 289.173 l
196.747 288.285 l
196.899 289.198 l
197.001 289.84 l
197.102 288.544 l
197.61 276.816 l
197.889 279.344 l
198.376 286.915 l
198.599 285.614 l
200.184 268.667 l
200.245 268.795 l
200.48 268.818 l
200.505 268.741 l
200.7 267.053 l
200.919 268.07 l
201.309 269.02 l
201.382 268.939 l
201.431 268.963 l
201.48 269.19 l
201.87 274.271 l
202.04 271.869 l
204.673 206.535 l
204.868 205.938 l
205.379 201.132 l
205.663 201.929 l
205.926 206.032 l
208.706 276.166 l
209.794 315.17 l
210.856 324.862 l
210.91 324.755 l
211.019 324.272 l
211.128 325.173 l
211.422 332.146 l
211.727 331.208 l
211.966 327.937 l
212.162 329.707 l
213.119 346.242 l
213.337 342.465 l
213.467 340.811 l
213.707 341.724 l
213.815 341.157 l
214.011 342.021 l
214.316 345.896 l
214.468 344.884 l
214.947 337.241 l
215.099 338.093 l
215.317 336.084 l
215.861 325.037 l
217.601 254.72 l
218.297 230.881 l
218.733 227.158 l
218.885 228.019 l
219.506 230.456 l
219.715 230.384 l
219.741 230.337 l
220.002 227.741 l
220.499 223.665 l
220.577 223.732 l
220.733 223.514 l
221.099 222.238 l
221.203 222.576 l
221.752 223.924 l
221.856 223.719 l
222.039 222.366 l
222.143 223.682 l
222.953 235.196 l
223.788 241.37 l
225.564 286.702 l
227 327.631 l
227.537 344.44 l
227.62 343.897 l
227.641 343.823 l
227.725 344.736 l
227.891 348.439 l
228.079 345.797 l
228.85 332.057 l
229.038 325.967 l
230.038 288.287 l
230.684 276.137 l
230.872 280.114 l
231.018 282.481 l
231.268 281.639 l
231.956 285.266 l
232.06 284.483 l
232.122 284.056 l
232.352 284.898 l
232.518 282.41 l
234.612 238.457 l
234.712 239.286 l
236.838 268.376 l
236.988 268.075 l
237.088 267.998 l
237.188 268.282 l
237.738 271.689 l
238.563 280.472 l
238.814 281.617 l
238.989 283.296 l
239.189 282.518 l
239.289 282.363 l
239.414 282.745 l
240.589 298.317 l
241.265 308.695 l
241.384 309.761 l
241.544 308.176 l
242.523 298.211 l
242.563 298.327 l
242.623 298.416 l
242.683 297.944 l
242.822 295.392 l
242.962 298.033 l
243.501 305.17 l
243.521 305.133 l
243.781 302.452 l
243.941 304.572 l
244.52 311.64 l
245.042 319.485 l
245.281 318.248 l
245.353 317.569 l
245.473 319.391 l
245.809 326.325 l
245.929 323.521 l
246.504 311.753 l
247.079 303.795 l
247.702 296.967 l
247.75 297.011 l
247.822 297.095 l
247.894 296.678 l
247.942 296.404 l
248.11 297.495 l
248.277 300.363 l
248.811 311.766 l
248.9 309.983 l
250.247 266.45 l
251.145 254.364 l
251.337 256.376 l
251.401 256.724 l
251.55 255.47 l
252.035 241.772 l
253.108 213.714 l
253.561 208.849 l
253.898 209.787 l
254.357 222.312 l
255.215 239.669 l
255.399 240.626 l
255.522 239.708 l
256.226 233.803 l
256.257 233.749 l
256.349 234.164 l
256.869 240.767 l
257.635 252.964 l
257.727 252.856 l
257.85 253.685 l
258.279 261.172 l
259.289 281.422 l
259.535 284.352 l
259.688 283.032 l
260.086 279.255 l
260.239 279.378 l
260.607 277.744 l
261.189 270.168 l
261.25 270.405 l
261.373 271.308 l
261.464 269.906 l
261.618 268.514 l
261.832 269.116 l
261.893 268.988 l
262.016 269.412 l
262.322 272.293 l
262.628 276.021 l
262.782 274.49 l
264.621 244.282 l
264.67 244.381 l
265.331 247.568 l
265.405 247.215 l
265.699 245.87 l
265.821 246.47 l
266.262 252.636 l
267.045 263.567 l
267.217 264.453 l
267.388 263.72 l
267.486 263.318 l
267.633 264.177 l
267.829 266.872 l
268.735 279.758 l
268.931 280.022 l
269.861 285.787 l
269.885 285.757 l
270.081 282.264 l
272.652 230.091 l
272.922 226.568 l
273.044 228.355 l
274.19 252.488 l
274.631 259.072 l
275.336 266.139 l
275.806 268.573 l
276.57 281.533 l
276.688 281.044 l
276.717 280.99 l
276.835 281.442 l
277.569 289.124 l
278.039 305.436 l
279.215 337.012 l
279.361 334.615 l
279.878 330.384 l
280.442 317.789 l
282.18 271.281 l
282.391 269.361 l
282.555 270.689 l
283.284 277.87 l
283.636 281.861 l
283.777 280.568 l
283.871 279.983 l
284.059 280.916 l
284.153 281.232 l
284.27 280.141 l
284.669 276.497 l
284.857 277.043 l
284.975 277.344 l
286.736 299.457 l
286.901 297.149 l
287.089 293.116 l
287.276 295.518 l
287.464 297.295 l
287.605 295.866 l
288.192 285.088 l
288.921 274.89 l
288.991 274.624 l
289.132 275.436 l
289.743 291.178 l
290.706 313.649 l
291.692 328.629 l
291.763 328.456 l
291.786 328.332 l
292.608 323.862 l
293.712 296.068 l
294.323 286.404 l
294.37 286.149 l
294.464 287.253 l
294.886 295.113 l
295.027 293.219 l
295.121 291.76 l
295.286 294.826 l
295.896 303.392 l
296.155 305.236 l
296.249 303.664 l
297.024 287.381 l
297.047 287.305 l
297.118 288.144 l
297.306 291.198 l
297.494 289.489 l
298.081 284.997 l
298.198 287.142 l
298.503 294.567 l
298.738 293.896 l
299.326 302.094 l
299.936 313.299 l
300.617 325.084 l
300.711 326.007 l
300.852 323.862 l
302.51 283.683 l
303.318 257.993 l
303.857 251.738 l
303.924 251.97 l
304.104 253.53 l
304.283 252.523 l
304.463 248.751 l
305.204 236.938 l
305.361 236.578 l
305.9 234.653 l
306.012 234.485 l
306.102 234.786 l
307.276 244.739 l
311.693 339.313 l
311.979 335.778 l
313.228 299.633 l
314.779 250.893 l
315.08 245.381 l
315.533 241.118 l
315.66 240.261 l
315.892 236.832 l
316.073 238.155 l
317.779 261.957 l
318.684 275.759 l
318.709 275.695 l
319.201 274.125 l
319.278 274.362 l
319.976 282.005 l
320.053 283.12 l
320.234 280.368 l
321.475 257.709 l
321.553 258.274 l
323.569 281.78 l
323.749 280.817 l
324.189 275.88 l
324.344 274.678 l
324.551 275.359 l
324.706 274.596 l
324.809 275.739 l
325.972 305.994 l
326.799 329.261 l
327.278 338.829 l
327.381 337.214 l
328.576 302.304 l
328.905 302.533 l
329.173 296.646 l
329.419 292.634 l
329.567 294.562 l
330.432 305.691 l
330.68 308.12 l
331.001 315.666 l
331.174 314.192 l
331.248 314.259 l
331.297 313.946 l
331.866 304.666 l
332.54 294.844 l
333.23 278.252 l
333.545 281.429 l
333.722 282.819 l
333.86 281.506 l
333.989 280.395 l
334.131 281.99 l
334.983 298.203 l
336.26 329.396 l
336.852 334.891 l
337.017 335.597 l
337.136 334.664 l
337.538 331.653 l
337.632 332.578 l
338.224 337.95 l
338.366 337.619 l
339.383 329.88 l
339.501 330.413 l
339.62 329.302 l
342.033 285.885 l
342.411 279.129 l
343.428 261.019 l
343.901 258.437 l
344.02 259.249 l
345.013 270.691 l
345.439 269.568 l
345.605 268.568 l
345.794 269.148 l
346.054 274.394 l
346.196 277.023 l
346.338 274.019 l
347.142 255.559 l
347.19 255.643 l
347.758 257.089 l
348.136 260.664 l
348.704 274.044 l
350.259 329.253 l
350.39 329.014 l
350.543 329.154 l
350.609 328.791 l
351.047 326.214 l
351.156 326.698 l
351.856 335.375 l
352.031 333.916 l
352.25 330.831 l
353.541 300.62 l
353.585 300.85 l
354.548 308.875 l
354.592 308.695 l
354.898 302.235 l
355.217 304.945 l
355.356 302.42 l
355.478 300.423 l
355.678 302.282 l
356.799 309.909 l
356.949 309.443 l
357.024 309.413 l
357.074 309.591 l
357.374 314.081 l
357.524 311.062 l
358.599 286.149 l
359.274 276.009 l
360.299 249.101 l
361.925 235.872 l
361.95 235.852 l
362 236.04 l
363.025 241.5 l
363.05 241.471 l
363.277 238.987 l
363.547 236.314 l
363.727 236.672 l
364.027 239.056 l
364.327 238.064 l
364.537 236.45 l
364.717 237.477 l
365.287 248.217 l
366.368 272.518 l
366.458 272.37 l
366.578 272.177 l
366.668 272.654 l
366.998 277.872 l
367.298 276.695 l
367.568 271.634 l
367.926 266.951 l
368.118 267.971 l
368.142 268.02 l
368.238 267.633 l
368.909 262.389 l
369.125 263.392 l
369.317 261.708 l
370.157 254.088 l
370.421 254.732 l
371.116 261.933 l
371.428 263.508 l
371.524 263.399 l
371.572 263.394 l
371.644 263.7 l
371.956 268.618 l
372.819 283.335 l
373.635 300.27 l
373.827 304.832 l
373.995 302.282 l
374.091 301.284 l
374.235 303.526 l
375.29 322.79 l
375.338 322.852 l
375.482 322.45 l
375.89 320.149 l
376.01 321.29 l
376.586 324.427 l
376.682 324.007 l
376.946 320.371 l
377.161 321.652 l
377.209 321.672 l
377.257 321.912 l
377.305 322.176 l
377.401 321.062 l
380.315 245.709 l
380.429 245.899 l
380.543 245.561 l
380.725 246.055 l
381.181 247.768 l
382.082 254.014 l
382.246 253.468 l
382.764 247.857 l
383.01 249.844 l
383.31 253.085 l
383.474 251.905 l
383.692 249.252 l
383.829 250.661 l
385.03 271.587 l
385.467 272.53 l
385.685 273.278 l
385.822 272.733 l
385.931 272.288 l
386.04 273.061 l
386.258 275.488 l
386.449 274.172 l
386.531 274.614 l
386.804 276.806 l
386.968 276.095 l
387.05 275.848 l
387.268 276.137 l
387.514 278.697 l
387.732 280.765 l
387.896 279.534 l
388.087 277.327 l
388.224 278.993 l
388.36 279.795 l
388.606 279.568 l
388.633 279.605 l
388.715 279.225 l
388.906 278.159 l
389.07 279.07 l
390.052 290.734 l
390.489 295.147 l
390.571 294.97 l
390.789 291.37 l
390.953 290.158 l
391.09 291.282 l
391.253 293.471 l
391.39 291.336 l
392.19 274.088 l
392.43 276.273 l
393.128 290.4 l
393.498 294.439 l
393.651 294.051 l
393.76 293.385 l
394.305 282.693 l
394.938 273.022 l
395.177 270.953 l
395.35 271.693 l
395.611 274.039 l
396.109 280.04 l
396.213 279.089 l
396.58 274.318 l
396.71 275.507 l
397.522 285.626 l
397.548 285.564 l
397.862 281.583 l
398.124 273.71 l
398.568 268.961 l
398.673 267.531 l
398.911 262.52 l
399.107 263.824 l
399.182 263.942 l
399.307 263.463 l
399.809 262.061 l
400.085 262.614 l
400.261 264.72 l
400.411 266.843 l
400.562 264.201 l
400.913 260.486 l
401.013 261.108 l
401.414 266.045 l
401.64 264.888 l
401.891 263.51 l
402.067 264.431 l
402.292 265.334 l
402.418 264.616 l
404.199 246.065 l
404.475 245.635 l
404.55 245.983 l
405.008 254.601 l
406.634 290.519 l
406.993 289.366 l
407.184 290.911 l
407.446 289.966 l
408.115 285.591 l
408.306 284.34 l
408.664 279.771 l
408.855 280.506 l
409.07 280.284 l
409.261 277.277 l
410.288 257.381 l
410.622 255.04 l
410.766 255.766 l
410.837 255.403 l
411.339 250.419 l
411.482 251.217 l
411.769 253.1 l
412.344 258.4 l
412.373 258.269 l
414.494 237.635 l
414.752 239.787 l
415.841 254.268 l
416.528 270.242 l
417.818 281.531 l
417.875 281.36 l
418.448 277.961 l
418.563 278.605 l
418.964 281.338 l
419.05 280.852 l
419.279 277.766 l
419.449 279.44 l
419.627 280.175 l
419.716 279.225 l
420.344 272.441 l
420.371 272.486 l
421.654 279.892 l
421.734 279.39 l
422.109 276.71 l
422.216 277.267 l
422.403 279.141 l
422.617 278.144 l
422.67 277.902 l
422.777 278.652 l
423.045 281.743 l
423.205 280.351 l
424.01 267.235 l
425.433 238.982 l
425.658 240.123 l
425.839 240.328 l
425.997 241.231 l
426.087 240.148 l
426.741 231.016 l
426.795 231.046 l
426.985 231.616 l
427.607 239.54 l
428.852 271.639 l
429.15 274.764 l
429.285 273.3 l
430.475 252.249 l
431.341 232.806 l
431.585 229.868 l
431.801 230.604 l
432.483 232.31 l
432.727 232.006 l
432.85 232.401 l
433.144 235.558 l
434.396 253.833 l
434.716 254.49 l
435.771 263.801 l
435.918 262.777 l
435.943 262.767 l
435.968 262.895 l
436.729 274.32 l
437.367 293.269 l
439.061 388.528 l
439.735 432 l
442.118 431.432 l
442.627 407.29 l
443.911 345.748 l
444.137 332.783 l
444.703 310.902 l
444.76 310.576 l
444.93 311.793 l
445.062 313.551 l
445.825 334.054 l
445.998 329.177 l
448.598 224.958 l
449.392 212.635 l
449.516 211.875 l
449.714 212.749 l
449.863 213.077 l
450.012 212.608 l
450.136 212.097 l
450.26 212.853 l
452.914 249.296 l
453.187 252.992 l
453.559 257.968 l
453.683 256.847 l
453.782 256.215 l
453.906 257.642 l
454.105 259.267 l
454.328 259.193 l
454.601 260.637 l
455.816 280.208 l
455.94 280.099 l
456.04 281.091 l
456.684 293.145 l
456.908 292.736 l
457.007 292 l
457.875 283.404 l
458.272 277.164 l
458.892 269.556 l
459.413 266.542 l
459.859 262.579 l
460.603 251.804 l
460.951 249.499 l
461.025 249.664 l
461.174 250.491 l
461.298 249.422 l
461.496 247.563 l
461.67 248.541 l
461.819 249.185 l
461.993 248.536 l
462.389 245.314 l
462.712 240.044 l
462.91 240.933 l
463.084 242.782 l
464.572 272.511 l
465.143 279.756 l
465.242 279.469 l
465.49 277.109 l
466.581 258.995 l
466.854 260.923 l
467.177 263.377 l
467.697 272.232 l
467.921 270.827 l
468.218 266.495 l
468.516 266.988 l
468.714 266.732 l
469.037 266.581 l
469.062 266.672 l
469.359 271.192 l
470.748 302.523 l
472.187 338.352 l
472.237 337.851 l
472.708 324.736 l
474.916 267.378 l
474.965 267.238 l
475.089 268.087 l
476.181 277.978 l
476.329 277.433 l
476.85 275.058 l
476.9 275.33 l
477.421 283.824 l
478.041 287.581 l
478.289 288.29 l
478.413 287.887 l
478.735 285.09 l
479.678 268.985 l
479.951 271.343 l
480.893 290.692 l
481.117 296.648 l
481.315 293.913 l
481.513 291.57 l
481.637 293.182 l
482.134 300.314 l
482.233 299.729 l
482.58 288.524 l
483.085 279.556 l
484.123 253.248 l
484.266 253.426 l
484.314 253.019 l
484.861 242.942 l
486.207 222.448 l
486.579 222.302 l
486.607 222.32 l
486.779 222.959 l
488.322 235.926 l
488.636 234.714 l
488.865 231.989 l
489.007 234.09 l
489.322 238.148 l
489.465 237.679 l
489.55 237.553 l
489.665 237.948 l
489.922 239.037 l
490.065 238.541 l
490.322 238.042 l
490.407 238.501 l
491.493 251.51 l
491.779 250.95 l
492.065 250.051 l
492.779 238.812 l
492.848 238.244 l
493.03 239.688 l
494.917 267.897 l
495.739 286.305 l
496.725 301.232 l
497.382 310.633 l
497.464 310.122 l
497.656 308.322 l
497.862 309.248 l
497.906 309.307 l
497.993 308.875 l
498.256 302.474 l
498.847 294.947 l
498.934 295.291 l
499.634 299.06 l
500.094 300.889 l
500.138 300.877 l
500.225 301.516 l
503.573 360.535 l
504.383 369.595 l
504.755 369.298 l
504.864 369.027 l
505.346 363.793 l
507.796 279.578 l
509.152 261.005 l
509.423 256.386 l
509.571 258.047 l
510.213 265.27 l
510.311 265.505 l
510.459 265.043 l
510.731 263.024 l
510.854 264.465 l
511.15 268.326 l
511.322 267.324 l
511.347 267.255 l
511.446 267.773 l
512.21 278.988 l
513.172 296.369 l
513.32 297.416 l
513.468 296.073 l
514.479 284.589 l
514.553 284.871 l
514.973 287.041 l
515.071 286.734 l
515.269 285.298 l
515.491 286.031 l
517.044 306.508 l
517.834 318.359 l
517.957 317.3 l
518.376 305.915 l
518.376 305.915 l
stroke
grestore
0.000 setgray
gsave
446.4 345.6 72 43.2 clipbox
220.811 112.784 m
518.322 112.784 l
stroke
grestore
0 setlinecap
[6 6] 0 setdash
1.000 0.000 0.000 setrgbcolor
gsave
446.4 345.6 72 43.2 clipbox
72 92.5714 m
72.082 93.2235 l
72.328 92.9458 l
72.4919 92.5733 l
72.6559 92.9369 l
72.8199 93.1117 l
72.9839 92.8625 l
73.2298 92.9593 l
73.6398 92.9231 l
86.0201 93.6969 l
89.2176 94.8864 l
92.0053 96.7092 l
94.3829 98.8833 l
96.3623 101.868 l
100.302 107.816 l
101.721 108.805 l
102.583 109.241 l
104.135 109.325 l
104.738 110.235 l
105.502 111.293 l
106.025 111.947 l
106.588 112.353 l
106.99 112.152 l
107.07 112.304 l
107.714 112.956 l
109.753 112.559 l
110.67 112.913 l
111.732 114.365 l
112.455 114.415 l
112.697 114.572 l
112.793 114.417 l
113.42 113.853 l
113.758 113.573 l
115.495 111.537 l
116.026 110.968 l
116.412 110.431 l
117.136 109.899 l
117.619 109.547 l
119.115 108.475 l
119.79 108.245 l
120.659 108.102 l
123.31 108.145 l
124.005 108.243 l
125.047 108.31 l
126.205 108.184 l
127.305 107.717 l
128.521 108.219 l
129.448 107.707 l
130.722 106.97 l
131.243 106.698 l
132.922 107.154 l
133.675 107.28 l
135.296 106.911 l
138.053 104.632 l
139.512 103.802 l
140.629 103.402 l
142.01 104.038 l
145.511 107.164 l
146.221 107.535 l
147.089 107.463 l
147.584 107.51 l
148.139 107.401 l
150.054 108.024 l
152.523 107.845 l
156.29 109.459 l
156.969 109.397 l
157.525 109.379 l
158.266 108.853 l
158.637 108.563 l
159.192 108.217 l
160.427 108.042 l
160.736 107.815 l
161.716 106.947 l
163.269 106.574 l
164.027 106.655 l
164.844 107.064 l
166.827 108.998 l
167.527 108.965 l
168.985 109.217 l
170.152 108.843 l
170.677 108.758 l
174.321 106.044 l
175.774 106.239 l
176.304 106.077 l
176.767 105.95 l
177.363 105.898 l
179.878 106.558 l
180.722 106.793 l
181.865 107.02 l
182.707 107.44 l
185.111 110.444 l
185.761 110.679 l
187.204 110.395 l
187.926 110.123 l
188.792 110.038 l
191.612 111.079 l
192.747 110.724 l
193.598 110.881 l
193.996 111.078 l
194.677 111.379 l
195.131 111.416 l
196.21 112.191 l
197.232 112.568 l
198.197 113.047 l
198.878 113.104 l
200.127 114.078 l
200.411 114.352 l
201.603 115.545 l
202.341 116.385 l
203.079 117.216 l
203.306 117.149 l
203.42 117.321 l
203.987 118.109 l
204.101 118.035 l
206.218 116.072 l
206.623 115.799 l
206.713 115.853 l
207.028 115.63 l
207.658 115.276 l
209.362 115.545 l
209.902 115.884 l
210.28 115.926 l
210.982 116.411 l
211.468 116.688 l
211.846 117.075 l
212.494 117.521 l
212.818 117.692 l
213.304 118.329 l
214.114 118.867 l
216.058 119.987 l
216.328 119.731 l
217.84 117.413 l
219.407 115.594 l
220.001 115.464 l
220.811 115.382 l
222.107 115.264 l
222.539 115.184 l
222.917 114.876 l
223.727 114.174 l
224.645 113.187 l
225.347 112.263 l
227.894 110.354 l
228.109 110.422 l
228.238 110.251 l
230.078 107.886 l
230.611 107.941 l
231.052 107.882 l
232.136 107.828 l
233.554 107.965 l
234.093 108.184 l
236.093 109.193 l
236.755 109.141 l
241.389 106.596 l
241.919 107.058 l
242.846 107.458 l
244.501 107.246 l
245.555 106.152 l
247.127 105.095 l
250.891 105.935 l
252.124 105.182 l
253.289 105.332 l
256.439 106.166 l
257.192 106.868 l
257.946 107.055 l
261.629 109.245 l
263.049 108.927 l
263.977 108.369 l
264.742 109.01 l
265.451 109.484 l
266.749 109.344 l
270.249 108.114 l
272.128 107.297 l
273.222 107.942 l
273.911 108.452 l
275.54 108.782 l
276.041 108.765 l
277.673 108.73 l
278.828 108.505 l
280.621 108.171 l
281.517 108.241 l
282.055 108.1 l
283.131 108.279 l
287.136 110.325 l
287.494 110.052 l
289.766 108.217 l
290.841 108.386 l
291.32 108.424 l
291.977 108.309 l
292.993 108.395 l
293.591 108.375 l
293.89 108.49 l
294.308 108.439 l
295.025 108.395 l
296.52 108.793 l
297.416 108.592 l
297.954 108.572 l
299.09 108.35 l
300.823 108.555 l
301.301 108.525 l
302.257 108.694 l
304.11 109.737 l
306.619 109.548 l
308.198 110.618 l
309.042 110.533 l
309.66 110.397 l
311.235 111.16 l
313.879 114.978 l
314.722 115.951 l
316.353 115.668 l
317.928 114.112 l
318.603 113.049 l
319.615 112.065 l
321.022 111.218 l
322.034 110.481 l
322.765 109.701 l
323.665 109.196 l
324.452 108.913 l
327.304 108.059 l
328.114 108.398 l
328.654 108.559 l
329.599 109.22 l
330.746 110.663 l
331.624 111.724 l
332.973 112.302 l
334.869 112.081 l
335.62 111.455 l
336.8 111.613 l
337.39 111.486 l
337.712 111.331 l
338.57 110.701 l
339.053 110.689 l
339.428 110.746 l
340.018 111.212 l
346.348 112.4 l
347.099 112.91 l
348.011 113.591 l
349.137 114.385 l
351.604 115.535 l
352.435 115.846 l
353.076 115.749 l
354.008 114.954 l
355.035 114.264 l
355.754 114.542 l
357.217 114.939 l
357.878 115.447 l
358.617 115.651 l
358.928 115.345 l
359.861 114.609 l
360.367 114.348 l
361.624 113.554 l
362.184 113.251 l
362.744 112.952 l
364.312 112.81 l
365.208 113.282 l
365.264 113.196 l
367.953 109.693 l
369.353 109.537 l
371.537 109.591 l
373.105 107.964 l
373.721 107.534 l
374.729 107.343 l
375.682 107.272 l
377.25 107.709 l
378.258 107.93 l
379.657 108.308 l
380.329 108.512 l
382.121 109.758 l
385.894 115.196 l
389.065 118.341 l
391.439 118.304 l
391.792 118.603 l
391.943 118.432 l
392.751 118.087 l
394.466 118.289 l
394.618 118.257 l
394.719 118.405 l
395.072 118.422 l
395.122 118.363 l
395.324 118.25 l
395.476 118.378 l
395.93 118.171 l
396.99 117.113 l
397.04 117.155 l
397.191 117.083 l
397.242 116.944 l
397.747 116.3 l
397.797 116.328 l
398.352 116.217 l
399.412 114.748 l
400.926 114.662 l
401.575 115.756 l
402.178 114.907 l
404.274 111.09 l
404.75 110.614 l
405.655 109.402 l
407.447 108.233 l
408.076 107.873 l
409.162 106.715 l
409.848 106.195 l
411.963 107.444 l
412.592 107.716 l
413.85 106.765 l
415.05 105.338 l
416.422 104.7 l
417.394 104.427 l
420.138 105.389 l
422.102 106.282 l
423.817 106.456 l
425.601 105.543 l
426.287 105.893 l
426.973 106.093 l
428.688 106.395 l
430.266 106.789 l
432.461 108.276 l
434.108 110.512 l
435.342 111.098 l
437.263 110.919 l
439.253 110.428 l
440.213 109.874 l
440.827 110.057 l
441.32 110.141 l
441.648 110.237 l
443.018 111.419 l
444.201 111.938 l
445.121 112.144 l
445.721 111.712 l
447.032 110.535 l
447.871 111.118 l
448.611 111.99 l
449.743 113.88 l
451.738 115.938 l
453.261 115.547 l
455.62 116.433 l
456.014 116.246 l
456.112 116.363 l
457.58 117.973 l
459.35 117.864 l
460.411 117.198 l
462.3 115.15 l
463.56 114.958 l
464.074 114.632 l
465.707 115.047 l
466.547 115.3 l
466.874 115.776 l
467.204 116.133 l
467.372 115.975 l
467.596 115.933 l
467.708 116.114 l
469.108 117.724 l
470.284 118.548 l
471.27 118.884 l
471.493 118.899 l
471.582 119.042 l
471.716 119.067 l
471.85 118.906 l
472.652 118.704 l
473.142 118.449 l
473.231 118.393 l
473.365 118.63 l
473.588 118.741 l
473.722 118.627 l
474.256 118.464 l
475.103 118.827 l
475.897 119.101 l
478.25 118.543 l
479.106 119.802 l
480.229 121.335 l
481.192 123.085 l
481.994 124.51 l
482.262 124.725 l
482.709 124.873 l
483.047 125.282 l
483.553 125.349 l
484.694 125.658 l
484.736 125.554 l
485.454 124.27 l
485.496 124.29 l
486.129 124.493 l
487.354 123.522 l
487.396 123.572 l
488.03 123.937 l
488.368 123.68 l
489.339 122.769 l
489.423 122.937 l
489.508 123.071 l
489.677 122.794 l
490.606 120.619 l
491.07 118.911 l
491.239 118.973 l
491.493 119.054 l
491.577 118.842 l
492.591 116.321 l
493.182 115.473 l
493.984 114.042 l
495.634 112.2 l
496.292 112.617 l
496.85 113.093 l
496.901 113.049 l
497.863 112.638 l
498.269 112.602 l
498.826 112.244 l
499.333 112.152 l
499.992 111.971 l
501.005 111.334 l
501.411 111.23 l
501.715 111.32 l
502.678 111.755 l
503.438 111.687 l
504.806 112.402 l
505.262 112.281 l
505.313 112.34 l
505.87 112.613 l
506.275 112.689 l
507.441 112.553 l
507.948 112.443 l
508.201 112.225 l
509.012 111.458 l
510.127 111.347 l
510.961 110.981 l
511.508 110.759 l
511.934 110.444 l
512.42 110.56 l
513.272 110.311 l
514.427 110.446 l
514.731 110.672 l
514.853 110.572 l
515.4 110.485 l
517.885 111.427 l
518.322 111.242 l
518.322 111.242 l
stroke
grestore
2 setlinecap
[] 0 setdash
0.000 setgray
gsave
446.4 345.6 72 43.2 clipbox
220.81 95.1342 m
518.331 95.1342 l
stroke
grestore
0 setlinecap
[3 5 1 5] 0 setdash
0.000 0.000 1.000 setrgbcolor
gsave
446.4 345.6 72 43.2 clipbox
72 92.5714 m
72.082 93.2229 l
72.328 92.9201 l
72.4919 92.5643 l
72.6559 92.9267 l
72.8199 93.0629 l
72.9019 92.9341 l
73.0659 92.741 l
73.2298 92.8958 l
73.5578 92.8534 l
74.2957 92.7942 l
78.3951 92.6043 l
109.961 93.2746 l
146.2 95.6685 l
155.547 96.3819 l
160.384 96.7529 l
164.155 96.8272 l
170.059 96.3794 l
191.376 95.8141 l
222.121 95.3987 l
226.959 95.0627 l
236.634 94.8094 l
248.604 95.1197 l
258.033 94.9096 l
271.397 95.2116 l
294.026 94.8145 l
299.109 94.709 l
323.296 94.6291 l
345.187 96.0926 l
355.353 95.7828 l
368.226 95.4518 l
374.211 95.0358 l
379.868 95.0095 l
399.217 94.9559 l
404.301 95.1439 l
419.715 95.3224 l
428.733 95.4335 l
432.587 95.414 l
437.506 95.0825 l
443.081 95.2284 l
447.099 95.3125 l
461.365 95.5157 l
465.382 95.4362 l
474.483 95.2135 l
480.222 94.6404 l
483.748 94.5077 l
516.602 94.7063 l
518.331 94.5731 l
518.331 94.5731 l
stroke
grestore
0.500 setlinewidth
[1 3] 0 setdash
0.000 setgray
gsave
446.4 345.6 72 43.2 clipbox
72 43.2 m
72 388.8 l
stroke
grestore
[] 0 setdash
gsave
/o {
gsave
newpath
translate
0 0 m
0 4 l
stroke
grestore
} bind def
72 43.2 o
grestore
gsave
/o {
gsave
newpath
translate
0 0 m
0 -4 l
stroke
grestore
} bind def
72 388.8 o
grestore
/DejaVuSans findfont
12.000 scalefont
setfont
gsave
68.976562 30.121875 translate
0.000000 rotate
0.000000 0.171875 m /zero glyphshow
grestore
[1 3] 0 setdash
gsave
446.4 345.6 72 43.2 clipbox
146.4 43.2 m
146.4 388.8 l
stroke
grestore
[] 0 setdash
gsave
/o {
gsave
newpath
translate
0 0 m
0 4 l
stroke
grestore
} bind def
146.4 43.2 o
grestore
gsave
/o {
gsave
newpath
translate
0 0 m
0 -4 l
stroke
grestore
} bind def
146.4 388.8 o
grestore
gsave
139.618750 30.121875 translate
0.000000 rotate
0.000000 0.171875 m /five glyphshow
7.634766 0.171875 m /zero glyphshow
grestore
[1 3] 0 setdash
gsave
446.4 345.6 72 43.2 clipbox
220.8 43.2 m
220.8 388.8 l
stroke
grestore
[] 0 setdash
gsave
/o {
gsave
newpath
translate
0 0 m
0 4 l
stroke
grestore
} bind def
220.8 43.2 o
grestore
gsave
/o {
gsave
newpath
translate
0 0 m
0 -4 l
stroke
grestore
} bind def
220.8 388.8 o
grestore
gsave
210.393750 30.121875 translate
0.000000 rotate
0.000000 0.171875 m /one glyphshow
7.634766 0.171875 m /zero glyphshow
15.269531 0.171875 m /zero glyphshow
grestore
[1 3] 0 setdash
gsave
446.4 345.6 72 43.2 clipbox
295.2 43.2 m
295.2 388.8 l
stroke
grestore
[] 0 setdash
gsave
/o {
gsave
newpath
translate
0 0 m
0 4 l
stroke
grestore
} bind def
295.2 43.2 o
grestore
gsave
/o {
gsave
newpath
translate
0 0 m
0 -4 l
stroke
grestore
} bind def
295.2 388.8 o
grestore
gsave
284.793750 30.121875 translate
0.000000 rotate
0.000000 0.171875 m /one glyphshow
7.634766 0.171875 m /five glyphshow
15.269531 0.171875 m /zero glyphshow
grestore
[1 3] 0 setdash
gsave
446.4 345.6 72 43.2 clipbox
369.6 43.2 m
369.6 388.8 l
stroke
grestore
[] 0 setdash
gsave
/o {
gsave
newpath
translate
0 0 m
0 4 l
stroke
grestore
} bind def
369.6 43.2 o
grestore
gsave
/o {
gsave
newpath
translate
0 0 m
0 -4 l
stroke
grestore
} bind def
369.6 388.8 o
grestore
gsave
358.975000 30.121875 translate
0.000000 rotate
0.000000 0.171875 m /two glyphshow
7.634766 0.171875 m /zero glyphshow
15.269531 0.171875 m /zero glyphshow
grestore
[1 3] 0 setdash
gsave
446.4 345.6 72 43.2 clipbox
444 43.2 m
444 388.8 l
stroke
grestore
[] 0 setdash
gsave
/o {
gsave
newpath
translate
0 0 m
0 4 l
stroke
grestore
} bind def
444 43.2 o
grestore
gsave
/o {
gsave
newpath
translate
0 0 m
0 -4 l
stroke
grestore
} bind def
444 388.8 o
grestore
gsave
433.375000 30.121875 translate
0.000000 rotate
0.000000 0.171875 m /two glyphshow
7.634766 0.171875 m /five glyphshow
15.269531 0.171875 m /zero glyphshow
grestore
[1 3] 0 setdash
gsave
446.4 345.6 72 43.2 clipbox
518.4 43.2 m
518.4 388.8 l
stroke
grestore
[] 0 setdash
gsave
/o {
gsave
newpath
translate
0 0 m
0 4 l
stroke
grestore
} bind def
518.4 43.2 o
grestore
gsave
/o {
gsave
newpath
translate
0 0 m
0 -4 l
stroke
grestore
} bind def
518.4 388.8 o
grestore
gsave
507.798437 30.121875 translate
0.000000 rotate
0.000000 0.171875 m /three glyphshow
7.634766 0.171875 m /zero glyphshow
15.269531 0.171875 m /zero glyphshow
grestore
gsave
259.200000 3.121875 translate
0.000000 rotate
/Cmmi10 findfont
20.736 scalefont
setfont
0.000000 6.453125 moveto
/t glyphshow

/Cmr10 findfont
20.736 scalefont
setfont
14.763110 6.453125 moveto
/bracketleft glyphshow

/Cmmi10 findfont
20.736 scalefont
setfont
20.503528 6.453125 moveto
/R glyphshow

36.236545 6.453125 moveto
/slash glyphshow

46.603732 6.453125 moveto
/c glyphshow

/Cmmi10 findfont
14.5152 scalefont
setfont
55.563647 1.163501 moveto
/s glyphshow

/Cmr10 findfont
20.736 scalefont
setfont
65.262637 6.453125 moveto
/bracketright glyphshow


grestore
[1 3] 0 setdash
gsave
446.4 345.6 72 43.2 clipbox
72 43.2 m
518.4 43.2 l
stroke
grestore
[] 0 setdash
gsave
/o {
gsave
newpath
translate
0 0 m
4 0 l
stroke
grestore
} bind def
72 43.2 o
grestore
gsave
/o {
gsave
newpath
translate
0 0 m
-4 0 l
stroke
grestore
} bind def
518.4 43.2 o
grestore
gsave
44.718750 38.660937 translate
0.000000 rotate
0.000000 0.171875 m /minus glyphshow
10.054688 0.171875 m /two glyphshow
17.689453 0.171875 m /zero glyphshow
grestore
[1 3] 0 setdash
gsave
446.4 345.6 72 43.2 clipbox
72 92.5714 m
518.4 92.5714 l
stroke
grestore
[] 0 setdash
gsave
/o {
gsave
newpath
translate
0 0 m
4 0 l
stroke
grestore
} bind def
72 92.5714 o
grestore
gsave
/o {
gsave
newpath
translate
0 0 m
-4 0 l
stroke
grestore
} bind def
518.4 92.5714 o
grestore
gsave
61.953125 88.032366 translate
0.000000 rotate
0.000000 0.171875 m /zero glyphshow
grestore
[1 3] 0 setdash
gsave
446.4 345.6 72 43.2 clipbox
72 141.943 m
518.4 141.943 l
stroke
grestore
[] 0 setdash
gsave
/o {
gsave
newpath
translate
0 0 m
4 0 l
stroke
grestore
} bind def
72 141.943 o
grestore
gsave
/o {
gsave
newpath
translate
0 0 m
-4 0 l
stroke
grestore
} bind def
518.4 141.943 o
grestore
gsave
54.390625 137.403795 translate
0.000000 rotate
0.000000 0.171875 m /two glyphshow
7.634766 0.171875 m /zero glyphshow
grestore
[1 3] 0 setdash
gsave
446.4 345.6 72 43.2 clipbox
72 191.314 m
518.4 191.314 l
stroke
grestore
[] 0 setdash
gsave
/o {
gsave
newpath
translate
0 0 m
4 0 l
stroke
grestore
} bind def
72 191.314 o
grestore
gsave
/o {
gsave
newpath
translate
0 0 m
-4 0 l
stroke
grestore
} bind def
518.4 191.314 o
grestore
gsave
54.109375 186.775223 translate
0.000000 rotate
0.000000 0.171875 m /four glyphshow
7.634766 0.171875 m /zero glyphshow
grestore
[1 3] 0 setdash
gsave
446.4 345.6 72 43.2 clipbox
72 240.686 m
518.4 240.686 l
stroke
grestore
[] 0 setdash
gsave
/o {
gsave
newpath
translate
0 0 m
4 0 l
stroke
grestore
} bind def
72 240.686 o
grestore
gsave
/o {
gsave
newpath
translate
0 0 m
-4 0 l
stroke
grestore
} bind def
518.4 240.686 o
grestore
gsave
54.359375 236.146652 translate
0.000000 rotate
0.000000 0.171875 m /six glyphshow
7.634766 0.171875 m /zero glyphshow
grestore
[1 3] 0 setdash
gsave
446.4 345.6 72 43.2 clipbox
72 290.057 m
518.4 290.057 l
stroke
grestore
[] 0 setdash
gsave
/o {
gsave
newpath
translate
0 0 m
4 0 l
stroke
grestore
} bind def
72 290.057 o
grestore
gsave
/o {
gsave
newpath
translate
0 0 m
-4 0 l
stroke
grestore
} bind def
518.4 290.057 o
grestore
gsave
54.328125 285.518080 translate
0.000000 rotate
0.000000 0.171875 m /eight glyphshow
7.634766 0.171875 m /zero glyphshow
grestore
[1 3] 0 setdash
gsave
446.4 345.6 72 43.2 clipbox
72 339.429 m
518.4 339.429 l
stroke
grestore
[] 0 setdash
gsave
/o {
gsave
newpath
translate
0 0 m
4 0 l
stroke
grestore
} bind def
72 339.429 o
grestore
gsave
/o {
gsave
newpath
translate
0 0 m
-4 0 l
stroke
grestore
} bind def
518.4 339.429 o
grestore
gsave
47.187500 334.889509 translate
0.000000 rotate
0.000000 0.171875 m /one glyphshow
7.634766 0.171875 m /zero glyphshow
15.269531 0.171875 m /zero glyphshow
grestore
[1 3] 0 setdash
gsave
446.4 345.6 72 43.2 clipbox
72 388.8 m
518.4 388.8 l
stroke
grestore
[] 0 setdash
gsave
/o {
gsave
newpath
translate
0 0 m
4 0 l
stroke
grestore
} bind def
72 388.8 o
grestore
gsave
/o {
gsave
newpath
translate
0 0 m
-4 0 l
stroke
grestore
} bind def
518.4 388.8 o
grestore
gsave
47.187500 384.260938 translate
0.000000 rotate
0.000000 0.171875 m /one glyphshow
7.634766 0.171875 m /two glyphshow
15.269531 0.171875 m /zero glyphshow
grestore
gsave
39.718750 205.500000 translate
90.000000 rotate
/Cmr10 findfont
20.736 scalefont
setfont
0.000000 9.843750 moveto
/Gamma glyphshow

/Cmmi10 findfont
14.5152 scalefont
setfont
12.958984 4.554126 moveto
/p glyphshow


grestore
1.000 setlinewidth
2 setlinecap
gsave
72 388.8 m
518.4 388.8 l
stroke
grestore
gsave
518.4 43.2 m
518.4 388.8 l
stroke
grestore
gsave
72 43.2 m
518.4 43.2 l
stroke
grestore
gsave
72 43.2 m
72 388.8 l
stroke
grestore
gsave
387.36 50.4 m
511.2 50.4 l
511.2 130.32 l
387.36 130.32 l
387.36 50.4 l
cl
gsave
1.000 setgray
fill
grestore
stroke
grestore
1.618 setlinewidth
0.750 0.750 0.000 setrgbcolor
gsave
393.12 118.6 m
421.92 118.6 l
stroke
grestore
0.000 setgray
gsave
433.440000 106.560000 translate
0.000000 rotate
/Cmmi10 findfont
14.4 scalefont
setfont
0.000000 7.203125 moveto
/R glyphshow

10.919449 7.203125 moveto
/slash glyphshow

18.114761 7.203125 moveto
/L glyphshow

/Cmmi10 findfont
10.08 scalefont
setfont
27.902908 3.529775 moveto
/n glyphshow

/Cmmi10 findfont
7.056 scalefont
setfont
33.947949 0.958430 moveto
/e glyphshow

/Cmr10 findfont
14.4 scalefont
setfont
41.157315 7.203125 moveto
/equal glyphshow

53.246606 7.203125 moveto
/five glyphshow

/Cmmi10 findfont
14.4 scalefont
setfont
60.441919 7.203125 moveto
/period glyphshow

/Cmr10 findfont
14.4 scalefont
setfont
64.546835 7.203125 moveto
/zero glyphshow


grestore
0 setlinecap
[6 6] 0 setdash
1.000 0.000 0.000 setrgbcolor
gsave
393.12 93.4 m
421.92 93.4 l
stroke
grestore
0.000 setgray
gsave
433.440000 81.360000 translate
0.000000 rotate
/Cmmi10 findfont
14.4 scalefont
setfont
0.000000 7.203125 moveto
/R glyphshow

10.919449 7.203125 moveto
/slash glyphshow

18.114761 7.203125 moveto
/L glyphshow

/Cmmi10 findfont
10.08 scalefont
setfont
27.902908 3.529775 moveto
/n glyphshow

/Cmmi10 findfont
7.056 scalefont
setfont
33.947949 0.958430 moveto
/e glyphshow

/Cmr10 findfont
14.4 scalefont
setfont
41.157315 7.203125 moveto
/equal glyphshow

53.246606 7.203125 moveto
/three glyphshow

/Cmmi10 findfont
14.4 scalefont
setfont
60.441919 7.203125 moveto
/period glyphshow

/Cmr10 findfont
14.4 scalefont
setfont
64.546835 7.203125 moveto
/zero glyphshow


grestore
[3 5 1 5] 0 setdash
0.000 0.000 1.000 setrgbcolor
gsave
393.12 68.2 m
421.92 68.2 l
stroke
grestore
0.000 setgray
gsave
433.440000 56.160000 translate
0.000000 rotate
/Cmmi10 findfont
14.4 scalefont
setfont
0.000000 7.203125 moveto
/R glyphshow

10.919449 7.203125 moveto
/slash glyphshow

18.114761 7.203125 moveto
/L glyphshow

/Cmmi10 findfont
10.08 scalefont
setfont
27.902908 3.529775 moveto
/n glyphshow

/Cmmi10 findfont
7.056 scalefont
setfont
33.947949 0.958430 moveto
/e glyphshow

/Cmr10 findfont
14.4 scalefont
setfont
41.157315 7.203125 moveto
/equal glyphshow

53.246606 7.203125 moveto
/two glyphshow

/Cmmi10 findfont
14.4 scalefont
setfont
60.441919 7.203125 moveto
/period glyphshow

/Cmr10 findfont
14.4 scalefont
setfont
64.546835 7.203125 moveto
/zero glyphshow


grestore

end
showpage
