%!PS-Adobe-3.0 EPSF-3.0
%%Title: omn_figures/Z_TEM.eps
%%Creator: matplotlib version 0.99.3, http://matplotlib.sourceforge.net/
%%CreationDate: Tue Jan 24 11:16:34 2012
%%Orientation: portrait
%%BoundingBox: 18 180 594 612
%%EndComments
%%BeginProlog
/mpldict 10 dict def
mpldict begin
/m { moveto } bind def
/l { lineto } bind def
/r { rlineto } bind def
/c { curveto } bind def
/cl { closepath } bind def
/box {
m
1 index 0 r
0 exch r
neg 0 r
cl
} bind def
/clipbox {
box
clip
newpath
} bind def
%!PS-Adobe-3.0 Resource-Font
%%Title: cmr10
%%Copyright: Copyright (C) 1994, Basil K. Malyshev. All Rights Reserved.012BaKoMa Fonts Collection, Level-B.
%%Creator: Converted from TrueType by PPR
25 dict begin
/_d{bind def}bind def
/_m{moveto}_d
/_l{lineto}_d
/_cl{closepath eofill}_d
/_c{curveto}_d
/_sc{7 -1 roll{setcachedevice}{pop pop pop pop pop pop}ifelse}_d
/_e{exec}_d
/FontName /Cmr10 def
/PaintType 0 def
/FontMatrix[.001 0 0 .001 0 0]def
/FontBBox[-43 -249 1009 750]def
/FontType 3 def
/Encoding StandardEncoding def
/FontInfo 10 dict dup begin
/FamilyName (cmr10) def
/FullName (cmr10) def
/Notice (Copyright (C) 1994, Basil K. Malyshev. All Rights Reserved.012BaKoMa Fonts Collection, Level-B. ) def
/Weight (Regular) def
/Version (1.1/12-Nov-94) def
/ItalicAngle 0.0 def
/isFixedPitch false def
/UnderlinePosition -133 def
/UnderlineThickness 20 def
end readonly def
/CharStrings 5 dict dup begin
/zero{{500 0 39 -21 460 666 _sc
250 -21 _m
168 -21 112 12 83 79 _c
53 146 39 226 39 319 _c
39 377 44 431 55 482 _c
65 533 86 576 118 612 _c
149 648 193 666 250 666 _c
294 666 330 655 358 634 _c
386 612 407 585 422 551 _c
436 517 446 480 452 441 _c
457 402 460 361 460 319 _c
460 261 454 208 444 158 _c
433 108 412 65 381 31 _c
350 -3 306 -21 250 -21 _c
250 4 _m
287 4 315 23 333 61 _c
351 99 362 141 366 187 _c
370 233 373 283 373 335 _c
373 385 370 431 366 473 _c
362 515 351 554 333 588 _c
315 622 287 640 250 640 _c
212 640 184 622 166 588 _c
148 554 136 515 132 473 _c
128 431 126 385 126 335 _c
126 297 126 262 128 230 _c
130 197 135 163 143 128 _c
151 93 163 64 181 40 _c
198 16 221 4 250 4 _c
_cl}_e}_d
/equal{{777 0 56 133 721 367 _sc
75 133 _m
69 133 65 135 61 139 _c
57 143 56 148 56 153 _c
56 158 57 163 61 167 _c
65 171 69 173 75 173 _c
703 173 _l
707 173 711 171 715 167 _c
719 163 721 158 721 153 _c
721 148 719 143 715 139 _c
711 135 707 133 703 133 _c
75 133 _l
75 327 _m
69 327 65 329 61 333 _c
57 337 56 341 56 347 _c
56 351 57 356 61 360 _c
65 364 69 367 75 367 _c
703 367 _l
707 367 711 364 715 360 _c
719 356 721 351 721 347 _c
721 341 719 337 715 333 _c
711 329 707 327 703 327 _c
75 327 _l
_cl}_e}_d
/one{500 0 87 0 421 666 _sc
93 0 _m
93 35 _l
176 35 218 45 218 67 _c
218 592 _l
183 575 139 567 87 567 _c
87 602 _l
168 602 230 623 272 666 _c
286 666 _l
288 666 291 665 293 663 _c
295 661 296 659 296 657 _c
296 67 _l
296 45 337 35 421 35 _c
421 0 _l
93 0 _l
_cl}_d
/three{{500 0 42 -21 457 666 _sc
95 77 _m
111 54 132 37 158 26 _c
184 15 213 10 243 10 _c
281 10 309 26 325 59 _c
341 92 350 130 350 172 _c
350 190 348 209 345 228 _c
341 247 335 265 327 281 _c
319 297 308 310 294 320 _c
280 330 262 335 242 335 _c
176 335 _l
170 335 167 338 167 344 _c
167 353 _l
167 358 170 361 176 361 _c
231 365 _l
254 365 273 373 289 391 _c
305 409 316 430 323 456 _c
330 481 334 505 334 528 _c
334 560 326 586 311 606 _c
296 626 273 637 243 637 _c
217 637 193 632 170 622 _c
147 612 129 598 115 579 _c
116 579 117 580 118 580 _c
119 580 120 580 122 580 _c
137 580 150 574 160 564 _c
170 554 175 541 175 527 _c
175 512 170 499 160 489 _c
150 479 137 474 122 474 _c
}_e{107 474 94 479 84 489 _c
74 499 69 512 69 527 _c
69 555 77 580 95 601 _c
112 622 134 638 161 649 _c
188 660 215 666 243 666 _c
263 666 284 663 307 657 _c
329 651 350 642 368 631 _c
386 619 401 605 413 588 _c
424 570 430 550 430 528 _c
430 500 423 474 411 450 _c
399 426 382 406 360 389 _c
338 371 314 358 288 350 _c
317 344 345 333 371 317 _c
397 301 417 280 433 255 _c
449 229 457 202 457 173 _c
457 136 446 103 426 73 _c
406 43 379 19 347 3 _c
314 -13 279 -21 243 -21 _c
211 -21 180 -15 149 -3 _c
117 8 92 25 72 49 _c
52 73 42 101 42 135 _c
42 151 47 165 58 176 _c
69 187 83 193 100 193 _c
110 193 120 190 129 185 _c
138 180 145 173 150 164 _c
155 154 158 145 158 135 _c
158 118 152 104 141 93 _c
129 82 116 77 100 77 _c
95 77 _l
_cl}_e}_d
/five{{500 0 50 -21 449 666 _sc
87 114 _m
93 94 104 76 118 60 _c
132 44 149 32 169 23 _c
188 14 208 10 229 10 _c
277 10 310 28 328 66 _c
346 103 356 148 356 202 _c
356 225 355 244 355 260 _c
354 276 352 291 348 306 _c
342 329 331 349 315 367 _c
299 385 281 394 259 394 _c
236 394 217 390 201 384 _c
185 377 171 369 161 360 _c
151 350 142 341 134 331 _c
126 321 122 315 120 315 _c
109 315 _l
107 315 104 316 102 318 _c
100 320 99 322 99 324 _c
99 658 _l
99 660 100 661 102 663 _c
104 665 106 666 109 666 _c
112 666 _l
156 644 204 634 255 634 _c
304 634 352 644 398 666 _c
401 666 _l
403 666 405 665 407 663 _c
409 661 410 660 410 658 _c
410 649 _l
}_e{410 645 409 644 408 644 _c
385 614 356 590 322 573 _c
288 556 252 548 216 548 _c
189 548 162 551 134 559 _c
134 370 _l
156 388 175 400 193 408 _c
210 416 232 420 260 420 _c
296 420 329 409 358 388 _c
387 366 409 339 425 305 _c
441 271 449 236 449 201 _c
449 161 439 124 419 90 _c
399 56 373 29 339 9 _c
305 -11 269 -21 229 -21 _c
196 -21 166 -12 138 4 _c
110 20 89 43 73 72 _c
57 100 50 131 50 163 _c
50 178 54 190 64 200 _c
74 209 86 214 101 214 _c
115 214 128 209 138 199 _c
148 189 153 177 153 163 _c
153 149 148 137 138 127 _c
128 117 115 112 101 112 _c
99 112 96 112 93 112 _c
90 112 88 113 87 114 _c
_cl}_e}_d
end readonly def

/BuildGlyph
 {exch begin
 CharStrings exch
 2 copy known not{pop /.notdef}if
 true 3 1 roll get exec
 end}_d

/BuildChar {
 1 index /Encoding get exch get
 1 index /BuildGlyph get exec
}_d

FontName currentdict end definefont pop
%!PS-Adobe-3.0 Resource-Font
%%Title: cmmi10
%%Copyright: Copyright (C) 1994, Basil K. Malyshev. All Rights Reserved.012BaKoMa Fonts Collection, Level-B.
%%Creator: Converted from TrueType by PPR
25 dict begin
/_d{bind def}bind def
/_m{moveto}_d
/_l{lineto}_d
/_cl{closepath eofill}_d
/_c{curveto}_d
/_sc{7 -1 roll{setcachedevice}{pop pop pop pop pop pop}ifelse}_d
/_e{exec}_d
/FontName /Cmmi10 def
/PaintType 0 def
/FontMatrix[.001 0 0 .001 0 0]def
/FontBBox[-33 -249 1048 750]def
/FontType 3 def
/Encoding StandardEncoding def
/FontInfo 10 dict dup begin
/FamilyName (cmmi10) def
/FullName (cmmi10) def
/Notice (Copyright (C) 1994, Basil K. Malyshev. All Rights Reserved.012BaKoMa Fonts Collection, Level-B. ) def
/Weight (Regular) def
/Version (1.1/12-Nov-94) def
/ItalicAngle 0.0 def
/isFixedPitch false def
/UnderlinePosition -133 def
/UnderlineThickness 20 def
end readonly def
/CharStrings 9 dict dup begin
/e{{465 0 44 -10 430 442 _sc
201 -10 _m
169 -10 141 -2 117 14 _c
93 30 75 53 63 81 _c
50 109 44 138 44 170 _c
44 217 56 262 80 304 _c
104 346 136 379 177 404 _c
218 429 262 442 309 442 _c
337 442 362 434 384 419 _c
405 404 416 383 416 356 _c
416 317 400 288 370 270 _c
339 251 304 239 266 235 _c
228 231 185 229 139 229 _c
136 229 _l
125 189 120 155 120 127 _c
120 97 126 71 140 49 _c
154 26 175 15 203 15 _c
243 15 281 24 318 42 _c
354 60 384 86 407 118 _c
409 120 411 121 415 121 _c
418 121 421 119 425 115 _c
428 111 430 108 430 105 _c
430 102 429 100 428 99 _c
404 65 371 38 330 19 _c
288 0 245 -10 201 -10 _c
142 255 _m
}_e{180 255 216 256 249 260 _c
282 264 312 273 339 287 _c
365 301 379 324 379 355 _c
379 367 375 378 368 387 _c
361 396 352 403 342 408 _c
331 413 320 416 308 416 _c
280 416 254 408 232 393 _c
209 377 190 357 176 333 _c
161 308 150 282 142 255 _c
_cl}_e}_d
/Z{{682 0 58 0 722 683 _sc
58 8 _m
58 17 60 25 65 31 _c
615 648 _l
468 648 _l
419 648 378 642 346 630 _c
314 618 287 599 266 573 _c
245 546 228 509 214 463 _c
212 457 209 454 204 454 _c
195 454 _l
188 454 185 458 185 467 _c
248 674 _l
249 680 252 683 258 683 _c
714 683 _l
719 683 722 680 722 675 _c
722 665 720 658 716 654 _c
168 38 _l
320 38 _l
378 38 424 45 458 60 _c
492 74 518 97 538 128 _c
558 159 577 204 596 262 _c
596 264 598 266 600 268 _c
602 270 604 271 606 271 _c
615 271 _l
}_e{621 271 625 266 625 258 _c
546 9 _l
543 3 540 0 536 0 _c
67 0 _l
61 0 58 2 58 8 _c
_cl}_e}_d
/period{277 0 84 0 194 110 _sc
84 55 _m
84 70 89 83 100 94 _c
111 104 124 110 139 110 _c
148 110 157 107 166 102 _c
174 97 181 90 186 82 _c
191 73 194 64 194 55 _c
194 40 188 27 178 16 _c
167 5 154 0 139 0 _c
124 0 111 5 100 16 _c
89 27 84 40 84 55 _c
_cl}_d
/F{{643 0 37 0 750 683 _sc
47 0 _m
40 0 37 4 37 13 _c
37 15 38 18 39 22 _c
40 26 41 29 43 31 _c
45 33 47 35 50 35 _c
90 35 119 37 135 42 _c
143 44 150 53 154 69 _c
291 618 _l
292 624 293 629 293 632 _c
293 639 289 643 281 644 _c
268 646 244 648 209 648 _c
202 648 199 652 199 661 _c
199 663 200 666 201 670 _c
202 674 203 677 205 679 _c
207 681 209 683 212 683 _c
740 683 _l
746 683 750 678 750 670 _c
726 463 _l
726 461 724 459 722 457 _c
720 455 718 454 716 454 _c
707 454 _l
}_e{700 454 697 458 697 467 _c
701 497 703 521 703 541 _c
703 574 695 598 681 614 _c
667 630 649 639 627 643 _c
605 646 575 648 537 648 _c
430 648 _l
412 648 400 646 394 643 _c
388 640 382 630 378 614 _c
314 359 _l
389 359 _l
413 359 433 360 449 363 _c
464 365 477 370 487 378 _c
497 385 505 396 512 410 _c
518 424 525 443 531 467 _c
533 473 536 476 541 476 _c
550 476 _l
556 476 560 471 560 463 _c
499 216 _l
496 210 493 207 489 207 _c
480 207 _l
473 207 470 211 470 220 _c
472 226 473 232 474 237 _c
475 241 476 248 478 257 _c
479 265 480 273 480 280 _c
480 299 471 311 454 316 _c
437 321 415 324 388 324 _c
}_e{306 324 _l
241 65 _l
239 58 239 55 239 55 _c
239 47 241 42 246 42 _c
263 37 297 35 348 35 _c
354 35 358 30 358 22 _c
355 12 353 6 352 4 _c
351 1 347 0 341 0 _c
47 0 _l
_cl}_e}_d
/L{{680 0 37 0 645 683 _sc
47 0 _m
40 0 37 4 37 13 _c
37 15 38 18 39 22 _c
40 26 41 29 43 31 _c
45 33 47 35 50 35 _c
90 35 119 37 135 42 _c
143 44 150 53 154 69 _c
291 618 _l
292 624 293 629 293 632 _c
293 639 289 643 281 644 _c
268 646 244 648 209 648 _c
202 648 199 652 199 661 _c
201 669 203 675 205 678 _c
206 681 210 683 216 683 _c
511 683 _l
517 683 520 678 520 670 _c
519 663 518 658 517 654 _c
515 650 512 648 507 648 _c
}_e{457 648 424 646 408 643 _c
392 640 382 630 378 614 _c
241 65 _l
238 57 237 49 237 43 _c
237 37 248 35 271 35 _c
364 35 _l
416 35 458 45 491 66 _c
523 87 547 111 563 137 _c
579 163 592 190 603 218 _c
613 246 621 261 626 262 _c
635 262 _l
641 262 645 257 645 249 _c
556 7 _l
555 2 552 0 547 0 _c
47 0 _l
_cl}_e}_d
/slash{500 0 56 -249 443 750 _sc
56 -229 _m
56 -227 56 -225 57 -225 _c
405 738 _l
406 742 408 745 412 747 _c
415 749 419 750 423 750 _c
429 750 433 748 437 744 _c
441 740 443 736 443 730 _c
443 726 _l
95 -237 _l
91 -245 84 -249 76 -249 _c
70 -249 66 -247 62 -243 _c
58 -239 56 -234 56 -229 _c
_cl}_d
/P{{642 0 39 0 752 683 _sc
49 0 _m
42 0 39 4 39 13 _c
39 15 40 18 41 22 _c
41 26 43 29 45 31 _c
47 33 49 35 52 35 _c
92 35 121 37 137 42 _c
145 44 152 53 156 69 _c
293 618 _l
294 624 295 629 295 632 _c
295 639 291 643 283 644 _c
270 646 246 648 211 648 _c
204 648 201 652 201 661 _c
201 663 202 666 203 670 _c
204 674 205 677 207 679 _c
209 681 211 683 214 683 _c
559 683 _l
590 683 620 677 650 666 _c
680 654 704 637 723 614 _c
742 591 752 563 752 531 _c
752 488 737 450 707 417 _c
677 384 640 358 596 340 _c
551 321 508 312 467 312 _c
304 312 _l
243 65 _l
}_e{241 58 241 53 241 51 _c
241 48 241 46 242 44 _c
243 42 244 41 246 41 _c
247 40 249 39 253 39 _c
265 36 289 35 325 35 _c
331 35 335 30 335 22 _c
333 12 331 6 330 4 _c
328 1 324 0 318 0 _c
49 0 _l
309 342 _m
449 342 _l
513 342 563 359 597 394 _c
614 411 628 436 639 469 _c
650 501 656 531 656 557 _c
656 589 643 613 618 627 _c
593 641 562 648 525 648 _c
429 648 _l
411 648 399 646 393 643 _c
387 640 381 630 377 614 _c
309 342 _l
_cl}_e}_d
/R{{759 0 39 -21 755 683 _sc
49 0 _m
42 0 39 4 39 13 _c
39 15 40 18 41 22 _c
41 26 43 29 45 31 _c
47 33 49 35 52 35 _c
92 35 121 37 137 42 _c
145 44 152 53 156 69 _c
293 618 _l
294 624 295 629 295 632 _c
295 639 291 643 283 644 _c
270 646 246 648 211 648 _c
204 648 201 652 201 661 _c
201 663 202 666 203 670 _c
204 674 205 677 207 679 _c
209 681 211 683 214 683 _c
517 683 _l
541 683 566 680 592 675 _c
618 669 642 661 664 649 _c
686 637 704 621 718 601 _c
732 581 739 558 739 532 _c
739 498 727 468 705 442 _c
683 416 655 394 621 376 _c
587 358 555 346 523 339 _c
}_e{549 329 570 314 587 294 _c
603 273 612 249 612 222 _c
612 218 611 216 611 214 _c
611 212 611 210 611 208 _c
603 119 _l
602 106 601 95 601 86 _c
600 76 600 69 600 64 _c
600 46 602 31 608 20 _c
613 9 624 4 640 4 _c
660 4 679 13 695 33 _c
711 52 721 73 726 96 _c
728 102 732 105 736 105 _c
745 105 _l
751 105 755 100 755 92 _c
750 72 742 54 732 37 _c
721 19 707 5 691 -5 _c
675 -15 657 -21 639 -21 _c
600 -21 567 -12 539 4 _c
511 21 498 48 498 86 _c
498 100 499 112 502 123 _c
524 212 _l
526 220 528 229 528 240 _c
528 268 518 289 500 305 _c
481 321 457 329 429 329 _c
306 329 _l
}_e{240 65 _l
238 59 238 55 238 51 _c
238 44 242 40 250 39 _c
262 36 286 35 322 35 _c
328 35 332 30 332 22 _c
330 12 328 6 327 4 _c
325 1 321 0 315 0 _c
49 0 _l
312 355 _m
423 355 _l
495 355 550 373 587 410 _c
603 427 617 449 627 475 _c
637 501 642 527 642 553 _c
642 577 634 597 620 611 _c
606 625 588 634 567 640 _c
545 645 522 648 496 648 _c
429 648 _l
411 648 399 646 393 643 _c
387 640 381 630 377 614 _c
312 355 _l
_cl}_e}_d
/n{{600 0 27 -10 574 442 _sc
77 17 _m
77 21 77 24 78 26 _c
153 324 _l
157 342 160 359 160 373 _c
160 401 150 416 131 416 _c
110 416 94 403 84 378 _c
74 353 64 322 55 284 _c
55 282 54 280 52 279 _c
50 278 48 278 47 278 _c
35 278 _l
33 278 31 279 29 281 _c
27 283 27 286 27 288 _c
34 317 41 342 48 362 _c
54 382 65 400 79 417 _c
93 433 110 442 132 442 _c
156 442 178 434 198 418 _c
217 402 227 382 227 358 _c
247 384 270 404 297 419 _c
323 434 352 442 382 442 _c
405 442 425 437 443 429 _c
460 421 473 408 483 392 _c
493 376 498 356 498 334 _c
498 306 491 273 479 235 _c
467 196 452 153 434 105 _c
}_e{424 83 420 63 420 45 _c
420 25 427 15 443 15 _c
469 15 490 29 508 57 _c
525 85 537 115 545 147 _c
546 151 549 153 553 153 _c
565 153 _l
567 153 569 152 571 150 _c
573 148 574 146 574 144 _c
574 143 573 142 573 141 _c
564 103 548 68 526 37 _c
503 5 475 -10 441 -10 _c
417 -10 397 -2 381 13 _c
364 29 356 48 356 72 _c
356 84 358 97 364 111 _c
372 133 381 159 392 189 _c
403 219 412 247 419 275 _c
426 303 430 327 430 349 _c
430 367 426 383 418 396 _c
410 409 398 416 380 416 _c
355 416 332 410 312 400 _c
292 389 274 375 259 357 _c
243 339 229 318 217 294 _c
149 22 _l
147 12 142 5 134 -1 _c
126 -7 117 -10 107 -10 _c
}_e{99 -10 92 -7 86 -3 _c
80 1 77 8 77 17 _c
_cl}_e}_d
end readonly def

/BuildGlyph
 {exch begin
 CharStrings exch
 2 copy known not{pop /.notdef}if
 true 3 1 roll get exec
 end}_d

/BuildChar {
 1 index /Encoding get exch get
 1 index /BuildGlyph get exec
}_d

FontName currentdict end definefont pop
%!PS-Adobe-3.0 Resource-Font
%%Title: DejaVu Sans
%%Copyright: Copyright (c) 2003 by Bitstream, Inc. All Rights Reserved. Copyright (c) 2006 by Tavmjong Bah. All Rights Reserved. DejaVu changes are in public domain 
%%Creator: Converted from TrueType by PPR
25 dict begin
/_d{bind def}bind def
/_m{moveto}_d
/_l{lineto}_d
/_cl{closepath eofill}_d
/_c{curveto}_d
/_sc{7 -1 roll{setcachedevice}{pop pop pop pop pop pop}ifelse}_d
/_e{exec}_d
/FontName /DejaVuSans def
/PaintType 0 def
/FontMatrix[.001 0 0 .001 0 0]def
/FontBBox[-1020 -414 1681 1167]def
/FontType 3 def
/Encoding StandardEncoding def
/FontInfo 10 dict dup begin
/FamilyName (DejaVu Sans) def
/FullName (DejaVu Sans) def
/Notice (Copyright (c) 2003 by Bitstream, Inc. All Rights Reserved. Copyright (c) 2006 by Tavmjong Bah. All Rights Reserved. DejaVu changes are in public domain ) def
/Weight (Book) def
/Version (Version 2.31) def
/ItalicAngle 0.0 def
/isFixedPitch false def
/UnderlinePosition -130 def
/UnderlineThickness 90 def
end readonly def
/CharStrings 17 dict dup begin
/space{318 0 0 0 0 0 _sc
}_d
/comma{318 0 77 -115 220 124 _sc
117 124 _m
220 124 _l
220 40 _l
140 -115 _l
77 -115 _l
117 40 _l
117 124 _l
_cl}_d
/period{318 0 107 0 210 124 _sc
107 124 _m
210 124 _l
210 0 _l
107 0 _l
107 124 _l
_cl}_d
/zero{636 0 66 -13 570 742 _sc
318 664 _m
267 664 229 639 203 589 _c
177 539 165 464 165 364 _c
165 264 177 189 203 139 _c
229 89 267 64 318 64 _c
369 64 407 89 433 139 _c
458 189 471 264 471 364 _c
471 464 458 539 433 589 _c
407 639 369 664 318 664 _c
318 742 _m
399 742 461 709 505 645 _c
548 580 570 486 570 364 _c
570 241 548 147 505 83 _c
461 19 399 -13 318 -13 _c
236 -13 173 19 130 83 _c
87 147 66 241 66 364 _c
66 486 87 580 130 645 _c
173 709 236 742 318 742 _c
_cl}_d
/one{636 0 110 0 544 729 _sc
124 83 _m
285 83 _l
285 639 _l
110 604 _l
110 694 _l
284 729 _l
383 729 _l
383 83 _l
544 83 _l
544 0 _l
124 0 _l
124 83 _l
_cl}_d
/two{{636 0 73 0 536 742 _sc
192 83 _m
536 83 _l
536 0 _l
73 0 _l
73 83 _l
110 121 161 173 226 239 _c
290 304 331 346 348 365 _c
380 400 402 430 414 455 _c
426 479 433 504 433 528 _c
433 566 419 598 392 622 _c
365 646 330 659 286 659 _c
255 659 222 653 188 643 _c
154 632 117 616 78 594 _c
78 694 _l
118 710 155 722 189 730 _c
223 738 255 742 284 742 _c
359 742 419 723 464 685 _c
509 647 532 597 532 534 _c
532 504 526 475 515 449 _c
504 422 484 390 454 354 _c
446 344 420 317 376 272 _c
332 227 271 164 192 83 _c
_cl}_e}_d
/five{{636 0 77 -13 549 729 _sc
108 729 _m
495 729 _l
495 646 _l
198 646 _l
198 467 _l
212 472 227 476 241 478 _c
255 480 270 482 284 482 _c
365 482 429 459 477 415 _c
525 370 549 310 549 234 _c
549 155 524 94 475 51 _c
426 8 357 -13 269 -13 _c
238 -13 207 -10 175 -6 _c
143 -1 111 6 77 17 _c
77 116 _l
106 100 136 88 168 80 _c
199 72 232 69 267 69 _c
323 69 368 83 401 113 _c
433 143 450 183 450 234 _c
450 284 433 324 401 354 _c
368 384 323 399 267 399 _c
241 399 214 396 188 390 _c
162 384 135 375 108 363 _c
108 729 _l
_cl}_e}_d
/E{632 0 98 0 568 729 _sc
98 729 _m
559 729 _l
559 646 _l
197 646 _l
197 430 _l
544 430 _l
544 347 _l
197 347 _l
197 83 _l
568 83 _l
568 0 _l
98 0 _l
98 729 _l
_cl}_d
/G{{775 0 56 -13 693 742 _sc
595 104 _m
595 300 _l
434 300 _l
434 381 _l
693 381 _l
693 68 _l
655 40 613 20 567 7 _c
521 -6 472 -13 420 -13 _c
306 -13 216 20 152 86 _c
88 152 56 245 56 364 _c
56 482 88 575 152 642 _c
216 708 306 742 420 742 _c
467 742 512 736 555 724 _c
598 712 638 695 674 673 _c
674 568 _l
637 598 598 621 557 637 _c
516 653 473 661 428 661 _c
338 661 271 636 227 586 _c
182 536 160 462 160 364 _c
160 265 182 191 227 141 _c
271 91 338 67 428 67 _c
462 67 493 70 521 76 _c
549 82 573 91 595 104 _c
_cl}_e}_d
/L{557 0 98 0 552 729 _sc
98 729 _m
197 729 _l
197 83 _l
552 83 _l
552 0 _l
98 0 _l
98 729 _l
_cl}_d
/N{748 0 98 0 650 729 _sc
98 729 _m
231 729 _l
554 119 _l
554 729 _l
650 729 _l
650 0 _l
517 0 _l
194 610 _l
194 0 _l
98 0 _l
98 729 _l
_cl}_d
/Q{{787 0 56 -128 731 742 _sc
394 662 _m
322 662 265 635 223 582 _c
181 528 160 456 160 364 _c
160 272 181 199 223 146 _c
265 92 322 66 394 66 _c
465 66 522 92 564 146 _c
606 199 627 272 627 364 _c
627 456 606 528 564 582 _c
522 635 465 662 394 662 _c
532 13 _m
662 -128 _l
543 -128 _l
435 -11 _l
424 -11 416 -12 410 -12 _c
404 -12 399 -13 394 -13 _c
291 -13 209 21 148 89 _c
86 157 56 248 56 364 _c
56 479 86 571 148 639 _c
209 707 291 742 394 742 _c
496 742 577 707 639 639 _c
700 571 731 479 731 364 _c
731 279 714 206 680 146 _c
646 86 596 41 532 13 _c
_cl}_e}_d
/d{{635 0 55 -13 544 760 _sc
454 464 _m
454 760 _l
544 760 _l
544 0 _l
454 0 _l
454 82 _l
435 49 411 25 382 10 _c
353 -5 319 -13 279 -13 _c
213 -13 159 13 117 65 _c
75 117 55 187 55 273 _c
55 359 75 428 117 481 _c
159 533 213 560 279 560 _c
319 560 353 552 382 536 _c
411 520 435 496 454 464 _c
148 273 _m
148 207 161 155 188 117 _c
215 79 253 61 301 61 _c
348 61 385 79 413 117 _c
440 155 454 207 454 273 _c
454 339 440 390 413 428 _c
385 466 348 485 301 485 _c
253 485 215 466 188 428 _c
161 390 148 339 148 273 _c
_cl}_e}_d
/f{352 0 23 0 371 760 _sc
371 760 _m
371 685 _l
285 685 _l
253 685 230 678 218 665 _c
205 652 199 629 199 595 _c
199 547 _l
347 547 _l
347 477 _l
199 477 _l
199 0 _l
109 0 _l
109 477 _l
23 477 _l
23 547 _l
109 547 _l
109 585 _l
109 645 123 690 151 718 _c
179 746 224 760 286 760 _c
371 760 _l
_cl}_d
/i{278 0 94 0 184 760 _sc
94 547 _m
184 547 _l
184 0 _l
94 0 _l
94 547 _l
94 760 _m
184 760 _l
184 646 _l
94 646 _l
94 760 _l
_cl}_d
/l{278 0 94 0 184 760 _sc
94 760 _m
184 760 _l
184 0 _l
94 0 _l
94 760 _l
_cl}_d
/u{634 0 85 -13 543 560 _sc
85 216 _m
85 547 _l
175 547 _l
175 219 _l
175 167 185 129 205 103 _c
225 77 255 64 296 64 _c
344 64 383 79 411 110 _c
439 141 453 183 453 237 _c
453 547 _l
543 547 _l
543 0 _l
453 0 _l
453 84 _l
431 50 405 26 377 10 _c
348 -5 315 -13 277 -13 _c
214 -13 166 6 134 45 _c
101 83 85 140 85 216 _c
_cl}_d
end readonly def

/BuildGlyph
 {exch begin
 CharStrings exch
 2 copy known not{pop /.notdef}if
 true 3 1 roll get exec
 end}_d

/BuildChar {
 1 index /Encoding get exch get
 1 index /BuildGlyph get exec
}_d

FontName currentdict end definefont pop
end
%%EndProlog
mpldict begin
18 180 translate
576 432 0 0 clipbox
1.000 setlinewidth
1 setlinejoin
2 setlinecap
[] 0 setdash
1.000 setgray
gsave
0 0 m
576 0 l
576 432 l
0 432 l
0 0 l
gsave
fill
grestore
stroke
grestore
gsave
72 43.2 m
518.4 43.2 l
518.4 388.8 l
72 388.8 l
72 43.2 l
fill
grestore
/p0_0 {
newpath
translate
395.006 228.682 m
395.006 255.252 l
} bind def
/p0_1 {
newpath
translate
295.2 237.524 m
295.2 263.904 l
} bind def
/p0_2 {
newpath
translate
139.19 262.351 m
139.19 288.039 l
} bind def
1.618 setlinewidth
0 setlinecap
0.000 setgray
gsave
446.4 345.6 72 43.2 clipbox
0 0 p0_0
stroke
grestore
gsave
446.4 345.6 72 43.2 clipbox
0 0 p0_1
stroke
grestore
gsave
446.4 345.6 72 43.2 clipbox
0 0 p0_2
stroke
grestore
/p1_0 {
newpath
translate
395.006 263.961 m
395.006 282.024 l
} bind def
/p1_1 {
newpath
translate
295.2 265.641 m
295.2 281.422 l
} bind def
/p1_2 {
newpath
translate
139.19 269.133 m
139.19 283.588 l
} bind def
gsave
446.4 345.6 72 43.2 clipbox
0 0 p1_0
stroke
grestore
gsave
446.4 345.6 72 43.2 clipbox
0 0 p1_1
stroke
grestore
gsave
446.4 345.6 72 43.2 clipbox
0 0 p1_2
stroke
grestore
gsave
446.4 345.6 72 43.2 clipbox
/o {
gsave
newpath
translate
9 -5.51073e-16 m
-9 5.51073e-16 l
stroke
grestore
} bind def
395.006 228.682 o
295.2 237.524 o
139.19 262.351 o
grestore
gsave
446.4 345.6 72 43.2 clipbox
/o {
gsave
newpath
translate
9 -5.51073e-16 m
-9 5.51073e-16 l
stroke
grestore
} bind def
395.006 255.252 o
295.2 263.904 o
139.19 288.039 o
grestore
[1 3] 0 setdash
gsave
446.4 345.6 72 43.2 clipbox
395.006 241.967 m
295.2 250.714 l
139.19 275.195 l
stroke
grestore
[] 0 setdash
gsave
446.4 345.6 72 43.2 clipbox
/o {
gsave
newpath
translate
0 5.4 m
-5.4 -5.4 l
5.4 -5.4 l
0 5.4 l
gsave
0.750 0.750 0.000 setrgbcolor
fill
grestore
stroke
grestore
} bind def
395.006 241.967 o
295.2 250.714 o
139.19 275.195 o
grestore
[6 6] 0 setdash
0.750 0.750 0.000 setrgbcolor
gsave
446.4 345.6 72 43.2 clipbox
139.19 324.286 m
206.38 307.879 l
245.683 302.114 l
295.2 298.182 l
395.006 298.006 l
434.309 299.374 l
stroke
grestore
[] 0 setdash
0.000 setgray
gsave
446.4 345.6 72 43.2 clipbox
/o {
gsave
newpath
translate
0 5.4 m
-5.4 -5.4 l
5.4 -5.4 l
0 5.4 l
gsave
1.000 setgray
fill
grestore
stroke
grestore
} bind def
139.19 324.286 o
206.38 307.879 o
245.683 302.114 o
295.2 298.182 o
395.006 298.006 o
434.309 299.374 o
grestore
2 setlinecap
0.750 0.750 0.000 setrgbcolor
gsave
446.4 345.6 72 43.2 clipbox
139.19 214.618 m
206.38 225.677 l
245.683 225.677 l
295.2 228.442 l
352.177 229.824 l
395.006 229.824 l
434.309 231.206 l
stroke
grestore
0 setlinecap
0.000 setgray
gsave
446.4 345.6 72 43.2 clipbox
/o {
gsave
newpath
translate
0 0 m
8.91655e-16 7.28115 l
0 0 m
-5.82492 -3.64058 l
0 0 m
5.82492 -3.64058 l
stroke
grestore
} bind def
139.19 214.618 o
206.38 225.677 o
245.683 225.677 o
295.2 228.442 o
352.177 229.824 o
395.006 229.824 o
434.309 231.206 o
grestore
gsave
446.4 345.6 72 43.2 clipbox
/o {
gsave
newpath
translate
9 -5.51073e-16 m
-9 5.51073e-16 l
stroke
grestore
} bind def
395.006 263.961 o
295.2 265.641 o
139.19 269.133 o
grestore
gsave
446.4 345.6 72 43.2 clipbox
/o {
gsave
newpath
translate
9 -5.51073e-16 m
-9 5.51073e-16 l
stroke
grestore
} bind def
395.006 282.024 o
295.2 281.422 o
139.19 283.588 o
grestore
[1 3] 0 setdash
gsave
446.4 345.6 72 43.2 clipbox
395.006 272.992 m
295.2 273.531 l
139.19 276.36 l
stroke
grestore
[] 0 setdash
gsave
446.4 345.6 72 43.2 clipbox
/o {
gsave
newpath
translate
-4.5 -4.5 m
4.5 -4.5 l
4.5 4.5 l
-4.5 4.5 l
-4.5 -4.5 l
gsave
1.000 0.000 0.000 setrgbcolor
fill
grestore
stroke
grestore
} bind def
395.006 272.992 o
295.2 273.531 o
139.19 276.36 o
grestore
[6 6] 0 setdash
1.000 0.000 0.000 setrgbcolor
gsave
446.4 345.6 72 43.2 clipbox
139.19 340.141 m
206.38 333.047 l
245.683 331.389 l
295.2 330.947 l
395.006 332.532 l
434.309 333.303 l
stroke
grestore
[] 0 setdash
0.000 setgray
gsave
446.4 345.6 72 43.2 clipbox
/o {
gsave
newpath
translate
-4.5 -4.5 m
4.5 -4.5 l
4.5 4.5 l
-4.5 4.5 l
-4.5 -4.5 l
gsave
1.000 setgray
fill
grestore
stroke
grestore
} bind def
139.19 340.141 o
206.38 333.047 o
245.683 331.389 o
295.2 330.947 o
395.006 332.532 o
434.309 333.303 o
grestore
2 setlinecap
1.000 0.000 0.000 setrgbcolor
gsave
446.4 345.6 72 43.2 clipbox
139.19 251.942 m
206.38 247.795 l
245.683 253.325 l
295.2 254.707 l
352.177 254.707 l
395.006 256.09 l
434.309 254.707 l
stroke
grestore
0 setlinecap
0.000 setgray
gsave
446.4 345.6 72 43.2 clipbox
/o {
gsave
newpath
translate
-4.5 -4.5 m
4.5 4.5 l
-4.5 4.5 m
4.5 -4.5 l
stroke
grestore
} bind def
139.19 251.942 o
206.38 247.795 o
245.683 253.325 o
295.2 254.707 o
352.177 254.707 o
395.006 256.09 o
434.309 254.707 o
grestore
0.500 setlinewidth
[1 3] 0 setdash
gsave
446.4 345.6 72 43.2 clipbox
72 43.2 m
72 388.8 l
stroke
grestore
[] 0 setdash
gsave
/o {
gsave
newpath
translate
0 0 m
0 4 l
stroke
grestore
} bind def
72 43.2 o
grestore
gsave
/o {
gsave
newpath
translate
0 0 m
0 -4 l
stroke
grestore
} bind def
72 388.8 o
grestore
gsave
61.000000 24.200000 translate
0.000000 rotate
/DejaVuSans findfont
12.0 scalefont
setfont
0.000000 1.828125 moveto
/one glyphshow

7.634766 1.828125 moveto
/zero glyphshow

/DejaVuSans findfont
8.4 scalefont
setfont
15.269531 8.765625 moveto
/zero glyphshow


grestore
[1 3] 0 setdash
gsave
446.4 345.6 72 43.2 clipbox
295.2 43.2 m
295.2 388.8 l
stroke
grestore
[] 0 setdash
gsave
/o {
gsave
newpath
translate
0 0 m
0 4 l
stroke
grestore
} bind def
295.2 43.2 o
grestore
gsave
/o {
gsave
newpath
translate
0 0 m
0 -4 l
stroke
grestore
} bind def
295.2 388.8 o
grestore
gsave
284.200000 24.200000 translate
0.000000 rotate
/DejaVuSans findfont
12.0 scalefont
setfont
0.000000 1.937500 moveto
/one glyphshow

7.634766 1.937500 moveto
/zero glyphshow

/DejaVuSans findfont
8.4 scalefont
setfont
15.269531 8.875000 moveto
/one glyphshow


grestore
[1 3] 0 setdash
gsave
446.4 345.6 72 43.2 clipbox
518.4 43.2 m
518.4 388.8 l
stroke
grestore
[] 0 setdash
gsave
/o {
gsave
newpath
translate
0 0 m
0 4 l
stroke
grestore
} bind def
518.4 43.2 o
grestore
gsave
/o {
gsave
newpath
translate
0 0 m
0 -4 l
stroke
grestore
} bind def
518.4 388.8 o
grestore
gsave
507.400000 24.200000 translate
0.000000 rotate
/DejaVuSans findfont
12.0 scalefont
setfont
0.000000 1.828125 moveto
/one glyphshow

7.634766 1.828125 moveto
/zero glyphshow

/DejaVuSans findfont
8.4 scalefont
setfont
15.269531 8.765625 moveto
/two glyphshow


grestore
gsave
/o {
gsave
newpath
translate
0 0 m
0 2 l
stroke
grestore
} bind def
139.19 43.2 o
grestore
gsave
/o {
gsave
newpath
translate
0 0 m
0 -2 l
stroke
grestore
} bind def
139.19 388.8 o
grestore
gsave
/o {
gsave
newpath
translate
0 0 m
0 2 l
stroke
grestore
} bind def
178.493 43.2 o
grestore
gsave
/o {
gsave
newpath
translate
0 0 m
0 -2 l
stroke
grestore
} bind def
178.493 388.8 o
grestore
gsave
/o {
gsave
newpath
translate
0 0 m
0 2 l
stroke
grestore
} bind def
206.38 43.2 o
grestore
gsave
/o {
gsave
newpath
translate
0 0 m
0 -2 l
stroke
grestore
} bind def
206.38 388.8 o
grestore
gsave
/o {
gsave
newpath
translate
0 0 m
0 2 l
stroke
grestore
} bind def
228.01 43.2 o
grestore
gsave
/o {
gsave
newpath
translate
0 0 m
0 -2 l
stroke
grestore
} bind def
228.01 388.8 o
grestore
gsave
/o {
gsave
newpath
translate
0 0 m
0 2 l
stroke
grestore
} bind def
245.683 43.2 o
grestore
gsave
/o {
gsave
newpath
translate
0 0 m
0 -2 l
stroke
grestore
} bind def
245.683 388.8 o
grestore
gsave
/o {
gsave
newpath
translate
0 0 m
0 2 l
stroke
grestore
} bind def
260.626 43.2 o
grestore
gsave
/o {
gsave
newpath
translate
0 0 m
0 -2 l
stroke
grestore
} bind def
260.626 388.8 o
grestore
gsave
/o {
gsave
newpath
translate
0 0 m
0 2 l
stroke
grestore
} bind def
273.57 43.2 o
grestore
gsave
/o {
gsave
newpath
translate
0 0 m
0 -2 l
stroke
grestore
} bind def
273.57 388.8 o
grestore
gsave
/o {
gsave
newpath
translate
0 0 m
0 2 l
stroke
grestore
} bind def
284.987 43.2 o
grestore
gsave
/o {
gsave
newpath
translate
0 0 m
0 -2 l
stroke
grestore
} bind def
284.987 388.8 o
grestore
gsave
/o {
gsave
newpath
translate
0 0 m
0 2 l
stroke
grestore
} bind def
362.39 43.2 o
grestore
gsave
/o {
gsave
newpath
translate
0 0 m
0 -2 l
stroke
grestore
} bind def
362.39 388.8 o
grestore
gsave
/o {
gsave
newpath
translate
0 0 m
0 2 l
stroke
grestore
} bind def
401.693 43.2 o
grestore
gsave
/o {
gsave
newpath
translate
0 0 m
0 -2 l
stroke
grestore
} bind def
401.693 388.8 o
grestore
gsave
/o {
gsave
newpath
translate
0 0 m
0 2 l
stroke
grestore
} bind def
429.58 43.2 o
grestore
gsave
/o {
gsave
newpath
translate
0 0 m
0 -2 l
stroke
grestore
} bind def
429.58 388.8 o
grestore
gsave
/o {
gsave
newpath
translate
0 0 m
0 2 l
stroke
grestore
} bind def
451.21 43.2 o
grestore
gsave
/o {
gsave
newpath
translate
0 0 m
0 -2 l
stroke
grestore
} bind def
451.21 388.8 o
grestore
gsave
/o {
gsave
newpath
translate
0 0 m
0 2 l
stroke
grestore
} bind def
468.883 43.2 o
grestore
gsave
/o {
gsave
newpath
translate
0 0 m
0 -2 l
stroke
grestore
} bind def
468.883 388.8 o
grestore
gsave
/o {
gsave
newpath
translate
0 0 m
0 2 l
stroke
grestore
} bind def
483.826 43.2 o
grestore
gsave
/o {
gsave
newpath
translate
0 0 m
0 -2 l
stroke
grestore
} bind def
483.826 388.8 o
grestore
gsave
/o {
gsave
newpath
translate
0 0 m
0 2 l
stroke
grestore
} bind def
496.77 43.2 o
grestore
gsave
/o {
gsave
newpath
translate
0 0 m
0 -2 l
stroke
grestore
} bind def
496.77 388.8 o
grestore
gsave
/o {
gsave
newpath
translate
0 0 m
0 2 l
stroke
grestore
} bind def
508.187 43.2 o
grestore
gsave
/o {
gsave
newpath
translate
0 0 m
0 -2 l
stroke
grestore
} bind def
508.187 388.8 o
grestore
gsave
287.700000 4.200000 translate
0.000000 rotate
/Cmmi10 findfont
20.736 scalefont
setfont
0.000000 0.843750 moveto
/Z glyphshow


grestore
[1 3] 0 setdash
gsave
446.4 345.6 72 43.2 clipbox
72 43.2 m
518.4 43.2 l
stroke
grestore
[] 0 setdash
gsave
/o {
gsave
newpath
translate
0 0 m
4 0 l
stroke
grestore
} bind def
72 43.2 o
grestore
gsave
/o {
gsave
newpath
translate
0 0 m
-4 0 l
stroke
grestore
} bind def
518.4 43.2 o
grestore
/DejaVuSans findfont
12.000 scalefont
setfont
gsave
50.500000 38.660937 translate
0.000000 rotate
0.000000 0.171875 m /zero glyphshow
7.634766 0.171875 m /period glyphshow
11.449219 0.171875 m /zero glyphshow
grestore
[1 3] 0 setdash
gsave
446.4 345.6 72 43.2 clipbox
72 112.32 m
518.4 112.32 l
stroke
grestore
[] 0 setdash
gsave
/o {
gsave
newpath
translate
0 0 m
4 0 l
stroke
grestore
} bind def
72 112.32 o
grestore
gsave
/o {
gsave
newpath
translate
0 0 m
-4 0 l
stroke
grestore
} bind def
518.4 112.32 o
grestore
gsave
50.750000 107.780937 translate
0.000000 rotate
0.000000 0.171875 m /zero glyphshow
7.634766 0.171875 m /period glyphshow
11.449219 0.171875 m /five glyphshow
grestore
[1 3] 0 setdash
gsave
446.4 345.6 72 43.2 clipbox
72 181.44 m
518.4 181.44 l
stroke
grestore
[] 0 setdash
gsave
/o {
gsave
newpath
translate
0 0 m
4 0 l
stroke
grestore
} bind def
72 181.44 o
grestore
gsave
/o {
gsave
newpath
translate
0 0 m
-4 0 l
stroke
grestore
} bind def
518.4 181.44 o
grestore
gsave
51.015625 176.900937 translate
0.000000 rotate
0.000000 0.171875 m /one glyphshow
7.634766 0.171875 m /period glyphshow
11.449219 0.171875 m /zero glyphshow
grestore
[1 3] 0 setdash
gsave
446.4 345.6 72 43.2 clipbox
72 250.56 m
518.4 250.56 l
stroke
grestore
[] 0 setdash
gsave
/o {
gsave
newpath
translate
0 0 m
4 0 l
stroke
grestore
} bind def
72 250.56 o
grestore
gsave
/o {
gsave
newpath
translate
0 0 m
-4 0 l
stroke
grestore
} bind def
518.4 250.56 o
grestore
gsave
51.265625 246.099063 translate
0.000000 rotate
0.000000 0.171875 m /one glyphshow
7.634766 0.171875 m /period glyphshow
11.449219 0.171875 m /five glyphshow
grestore
[1 3] 0 setdash
gsave
446.4 345.6 72 43.2 clipbox
72 319.68 m
518.4 319.68 l
stroke
grestore
[] 0 setdash
gsave
/o {
gsave
newpath
translate
0 0 m
4 0 l
stroke
grestore
} bind def
72 319.68 o
grestore
gsave
/o {
gsave
newpath
translate
0 0 m
-4 0 l
stroke
grestore
} bind def
518.4 319.68 o
grestore
gsave
50.578125 315.140938 translate
0.000000 rotate
0.000000 0.171875 m /two glyphshow
7.634766 0.171875 m /period glyphshow
11.449219 0.171875 m /zero glyphshow
grestore
[1 3] 0 setdash
gsave
446.4 345.6 72 43.2 clipbox
72 388.8 m
518.4 388.8 l
stroke
grestore
[] 0 setdash
gsave
/o {
gsave
newpath
translate
0 0 m
4 0 l
stroke
grestore
} bind def
72 388.8 o
grestore
gsave
/o {
gsave
newpath
translate
0 0 m
-4 0 l
stroke
grestore
} bind def
518.4 388.8 o
grestore
gsave
50.828125 384.260938 translate
0.000000 rotate
0.000000 0.171875 m /two glyphshow
7.634766 0.171875 m /period glyphshow
11.449219 0.171875 m /five glyphshow
grestore
gsave
45.500000 195.500000 translate
90.000000 rotate
/Cmmi10 findfont
20.736 scalefont
setfont
0.000000 6.843750 moveto
/P glyphshow

13.313324 6.843750 moveto
/F glyphshow

/Cmmi10 findfont
14.5152 scalefont
setfont
26.646896 1.554126 moveto
/Z glyphshow


grestore
1.000 setlinewidth
2 setlinecap
gsave
72 388.8 m
518.4 388.8 l
stroke
grestore
gsave
518.4 43.2 m
518.4 388.8 l
stroke
grestore
gsave
72 43.2 m
518.4 43.2 l
stroke
grestore
gsave
72 43.2 m
72 388.8 l
stroke
grestore
gsave
92.24 50.4 m
511.2 50.4 l
511.2 130.32 l
92.24 130.32 l
92.24 50.4 l
cl
gsave
1.000 setgray
fill
grestore
stroke
grestore
1.618 setlinewidth
0 setlinecap
[1 3] 0 setdash
gsave
98 118.6 m
126.8 118.6 l
stroke
grestore
[] 0 setdash
gsave
/o {
gsave
newpath
translate
0 5.4 m
-5.4 -5.4 l
5.4 -5.4 l
0 5.4 l
gsave
0.750 0.750 0.000 setrgbcolor
fill
grestore
stroke
grestore
} bind def
112.4 118.6 o
grestore
gsave
138.320000 106.560000 translate
0.000000 rotate
/DejaVuSans findfont
14.4 scalefont
setfont
0.000000 7.203125 moveto
/N glyphshow

10.764862 7.203125 moveto
/L glyphshow

18.782288 7.203125 moveto
/space glyphshow

23.356644 7.203125 moveto
/G glyphshow

34.507965 7.203125 moveto
/E glyphshow

43.600479 7.203125 moveto
/N glyphshow

54.365341 7.203125 moveto
/E glyphshow

63.457855 7.203125 moveto
/comma glyphshow

68.032211 7.203125 moveto
/space glyphshow

/Cmmi10 findfont
14.4 scalefont
setfont
72.606567 7.203125 moveto
/R glyphshow

83.526016 7.203125 moveto
/slash glyphshow

90.721329 7.203125 moveto
/L glyphshow

/Cmmi10 findfont
10.08 scalefont
setfont
100.509476 3.529775 moveto
/n glyphshow

/Cmmi10 findfont
7.056 scalefont
setfont
106.554517 0.958430 moveto
/e glyphshow

/Cmr10 findfont
14.4 scalefont
setfont
113.763882 7.203125 moveto
/equal glyphshow

125.853174 7.203125 moveto
/five glyphshow

/Cmmi10 findfont
14.4 scalefont
setfont
133.048486 7.203125 moveto
/period glyphshow

/Cmr10 findfont
14.4 scalefont
setfont
137.153403 7.203125 moveto
/zero glyphshow


grestore
[6 6] 0 setdash
0.750 0.750 0.000 setrgbcolor
gsave
98 93.4 m
126.8 93.4 l
stroke
grestore
[] 0 setdash
0.000 setgray
gsave
/o {
gsave
newpath
translate
0 5.4 m
-5.4 -5.4 l
5.4 -5.4 l
0 5.4 l
gsave
1.000 setgray
fill
grestore
stroke
grestore
} bind def
112.4 93.4 o
grestore
gsave
138.320000 81.360000 translate
0.000000 rotate
/DejaVuSans findfont
14.4 scalefont
setfont
0.000000 7.203125 moveto
/Q glyphshow

11.326996 7.203125 moveto
/L glyphshow

19.344421 7.203125 moveto
/space glyphshow

23.918777 7.203125 moveto
/G glyphshow

35.070099 7.203125 moveto
/E glyphshow

44.162613 7.203125 moveto
/N glyphshow

54.927475 7.203125 moveto
/E glyphshow

64.019989 7.203125 moveto
/comma glyphshow

68.594345 7.203125 moveto
/space glyphshow

/Cmmi10 findfont
14.4 scalefont
setfont
73.168701 7.203125 moveto
/R glyphshow

84.088150 7.203125 moveto
/slash glyphshow

91.283463 7.203125 moveto
/L glyphshow

/Cmmi10 findfont
10.08 scalefont
setfont
101.071609 3.529775 moveto
/n glyphshow

/Cmmi10 findfont
7.056 scalefont
setfont
107.116650 0.958430 moveto
/e glyphshow

/Cmr10 findfont
14.4 scalefont
setfont
114.326016 7.203125 moveto
/equal glyphshow

126.415308 7.203125 moveto
/five glyphshow

/Cmmi10 findfont
14.4 scalefont
setfont
133.610620 7.203125 moveto
/period glyphshow

/Cmr10 findfont
14.4 scalefont
setfont
137.715536 7.203125 moveto
/zero glyphshow


grestore
2 setlinecap
0.750 0.750 0.000 setrgbcolor
gsave
98 68.2 m
126.8 68.2 l
stroke
grestore
0 setlinecap
0.000 setgray
gsave
/o {
gsave
newpath
translate
0 0 m
8.91655e-16 7.28115 l
0 0 m
-5.82492 -3.64058 l
0 0 m
5.82492 -3.64058 l
stroke
grestore
} bind def
112.4 68.2 o
grestore
gsave
138.320000 56.160000 translate
0.000000 rotate
/DejaVuSans findfont
14.4 scalefont
setfont
0.000000 7.203125 moveto
/f glyphshow

5.066223 7.203125 moveto
/l glyphshow

9.064392 7.203125 moveto
/u glyphshow

18.185013 7.203125 moveto
/i glyphshow

22.183182 7.203125 moveto
/d glyphshow

31.317856 7.203125 moveto
/comma glyphshow

35.892212 7.203125 moveto
/space glyphshow

/Cmmi10 findfont
14.4 scalefont
setfont
40.466568 7.203125 moveto
/R glyphshow

51.386017 7.203125 moveto
/slash glyphshow

58.581329 7.203125 moveto
/L glyphshow

/Cmmi10 findfont
10.08 scalefont
setfont
68.369476 3.529775 moveto
/n glyphshow

/Cmmi10 findfont
7.056 scalefont
setfont
74.414517 0.958430 moveto
/e glyphshow

/Cmr10 findfont
14.4 scalefont
setfont
81.623883 7.203125 moveto
/equal glyphshow

93.713174 7.203125 moveto
/five glyphshow

/Cmmi10 findfont
14.4 scalefont
setfont
100.908487 7.203125 moveto
/period glyphshow

/Cmr10 findfont
14.4 scalefont
setfont
105.013403 7.203125 moveto
/zero glyphshow


grestore
[1 3] 0 setdash
gsave
312.12 118.6 m
340.92 118.6 l
stroke
grestore
[] 0 setdash
gsave
/o {
gsave
newpath
translate
-4.5 -4.5 m
4.5 -4.5 l
4.5 4.5 l
-4.5 4.5 l
-4.5 -4.5 l
gsave
1.000 0.000 0.000 setrgbcolor
fill
grestore
stroke
grestore
} bind def
326.52 118.6 o
grestore
gsave
352.440000 106.560000 translate
0.000000 rotate
/DejaVuSans findfont
14.4 scalefont
setfont
0.000000 7.203125 moveto
/N glyphshow

10.764862 7.203125 moveto
/L glyphshow

18.782288 7.203125 moveto
/space glyphshow

23.356644 7.203125 moveto
/G glyphshow

34.507965 7.203125 moveto
/E glyphshow

43.600479 7.203125 moveto
/N glyphshow

54.365341 7.203125 moveto
/E glyphshow

63.457855 7.203125 moveto
/comma glyphshow

68.032211 7.203125 moveto
/space glyphshow

/Cmmi10 findfont
14.4 scalefont
setfont
72.606567 7.203125 moveto
/R glyphshow

83.526016 7.203125 moveto
/slash glyphshow

90.721329 7.203125 moveto
/L glyphshow

/Cmmi10 findfont
10.08 scalefont
setfont
100.509476 3.529775 moveto
/n glyphshow

/Cmmi10 findfont
7.056 scalefont
setfont
106.554517 0.958430 moveto
/e glyphshow

/Cmr10 findfont
14.4 scalefont
setfont
113.763882 7.203125 moveto
/equal glyphshow

125.853174 7.203125 moveto
/one glyphshow

133.048486 7.203125 moveto
/three glyphshow

/Cmmi10 findfont
14.4 scalefont
setfont
140.243799 7.203125 moveto
/period glyphshow

/Cmr10 findfont
14.4 scalefont
setfont
144.348715 7.203125 moveto
/zero glyphshow


grestore
[6 6] 0 setdash
1.000 0.000 0.000 setrgbcolor
gsave
312.12 93.4 m
340.92 93.4 l
stroke
grestore
[] 0 setdash
0.000 setgray
gsave
/o {
gsave
newpath
translate
-4.5 -4.5 m
4.5 -4.5 l
4.5 4.5 l
-4.5 4.5 l
-4.5 -4.5 l
gsave
1.000 setgray
fill
grestore
stroke
grestore
} bind def
326.52 93.4 o
grestore
gsave
352.440000 81.360000 translate
0.000000 rotate
/DejaVuSans findfont
14.4 scalefont
setfont
0.000000 7.203125 moveto
/Q glyphshow

11.326996 7.203125 moveto
/L glyphshow

19.344421 7.203125 moveto
/space glyphshow

23.918777 7.203125 moveto
/G glyphshow

35.070099 7.203125 moveto
/E glyphshow

44.162613 7.203125 moveto
/N glyphshow

54.927475 7.203125 moveto
/E glyphshow

64.019989 7.203125 moveto
/comma glyphshow

68.594345 7.203125 moveto
/space glyphshow

/Cmmi10 findfont
14.4 scalefont
setfont
73.168701 7.203125 moveto
/R glyphshow

84.088150 7.203125 moveto
/slash glyphshow

91.283463 7.203125 moveto
/L glyphshow

/Cmmi10 findfont
10.08 scalefont
setfont
101.071609 3.529775 moveto
/n glyphshow

/Cmmi10 findfont
7.056 scalefont
setfont
107.116650 0.958430 moveto
/e glyphshow

/Cmr10 findfont
14.4 scalefont
setfont
114.326016 7.203125 moveto
/equal glyphshow

126.415308 7.203125 moveto
/one glyphshow

133.610620 7.203125 moveto
/three glyphshow

/Cmmi10 findfont
14.4 scalefont
setfont
140.805933 7.203125 moveto
/period glyphshow

/Cmr10 findfont
14.4 scalefont
setfont
144.910849 7.203125 moveto
/zero glyphshow


grestore
2 setlinecap
1.000 0.000 0.000 setrgbcolor
gsave
312.12 68.2 m
340.92 68.2 l
stroke
grestore
0 setlinecap
0.000 setgray
gsave
/o {
gsave
newpath
translate
-4.5 -4.5 m
4.5 4.5 l
-4.5 4.5 m
4.5 -4.5 l
stroke
grestore
} bind def
326.52 68.2 o
grestore
gsave
352.440000 56.160000 translate
0.000000 rotate
/DejaVuSans findfont
14.4 scalefont
setfont
0.000000 7.203125 moveto
/f glyphshow

5.066223 7.203125 moveto
/l glyphshow

9.064392 7.203125 moveto
/u glyphshow

18.185013 7.203125 moveto
/i glyphshow

22.183182 7.203125 moveto
/d glyphshow

31.317856 7.203125 moveto
/comma glyphshow

35.892212 7.203125 moveto
/space glyphshow

/Cmmi10 findfont
14.4 scalefont
setfont
40.466568 7.203125 moveto
/R glyphshow

51.386017 7.203125 moveto
/slash glyphshow

58.581329 7.203125 moveto
/L glyphshow

/Cmmi10 findfont
10.08 scalefont
setfont
68.369476 3.529775 moveto
/n glyphshow

/Cmmi10 findfont
7.056 scalefont
setfont
74.414517 0.958430 moveto
/e glyphshow

/Cmr10 findfont
14.4 scalefont
setfont
81.623883 7.203125 moveto
/equal glyphshow

93.713174 7.203125 moveto
/one glyphshow

100.908487 7.203125 moveto
/three glyphshow

/Cmmi10 findfont
14.4 scalefont
setfont
108.103799 7.203125 moveto
/period glyphshow

/Cmr10 findfont
14.4 scalefont
setfont
112.208716 7.203125 moveto
/zero glyphshow


grestore

end
showpage
